Source,Target,value,nb_transactions
74303908,536,15241,1
999Dice.com,CoinGaming.io,23610,1
999Dice.com,Rollin.io,34665,1
72367944,Cex.io,39398,1
70246057,BTC-e.com,41189,1
74120634,1144,43800,1
Bter.com,Poloniex.com,46880,2
859581,PrimeDice.com,52208,1
643532,1294,57895,1
536,Coinichiwa.com,66500,1
73388349,ePay.info_CoinJoinMess,80948,1
557695,Poloniex.com,81250,1
2160,Bitfinex.com,83221,1
3048834,999Dice.com,87706,1
PrimeDice.com,SafeDice.com,90000,1
17060189,PrimeDice.com,99999,1
70952498,C-Cex.com,102217,1
73100100,1309,105084,1
57,4337,105821,1
71738316,1309,106065,1
33971,1323,110738,1
Poloniex.com,476532,120000,3
Bter.com,476532,120310,1
1149,1144,131700,1
227,1144,167758,2
SatoshiBet.com,0,180000,1
LuckyB.it,3048881,180000,2
71319712,ePay.info_CoinJoinMess,180000,1
11031,2160,200956,2
59881034,Cryptsy.com,213389,1
615198,Cryptsy.com,220000,1
19025117,6294,220000,1
70377652,1144,228668,1
999Dice.com,YoBit.net,231615,1
57,PrimeDice.com,232541,1
0,CoinPayments.net,280821,1
3048881,LuckyB.it,302741,2
0,4337,319712,1
70875269,Hashnest.com,353215,1
0,1469,359939,3
0,Bleutrade.com,360822,1
PrimeDice.com,Crypto-Games.net,390000,1
HolyTransaction.com,CoinPayments.net,400000,2
59881034,1144,442054,1
5914784,CoinTrader.net_LocalBitcoins.com,445198,1
2952485,C-Cex.com,459707,1
4484322,Hashnest.com,470000,1
37466229,72025036,489258,2
5000,71920763,517930,1
70429690,PrimeDice.com,541107,1
1281001,FaucetBOX.com,541750,1
55834,PrimeDice.com,560000,1
49766186,LuckyB.it,585483,1
1233363,FaucetBOX.com,596787,2
73962910,Cex.io,600736,1
0,1972,628671,1
73962910,1309,632586,1
150330,ePay.info_CoinJoinMess,659852,1
0,Cex.io,668434,3
73179434,421,745580,1
0,348,781436,1
5000,238343,787930,1
0,269,828644,1
10231195,999Dice.com,830080,3
37466229,Kraken.com,832129,1
999Dice.com,C-Cex.com,860000,2
999Dice.com,AgoraMarket,880000,2
0,Bter.com,920724,1
ePay.info_CoinJoinMess,Rollin.io,940000,1
219804,Cryptsy.com,950726,1
9904952,BTCJam.com,969283,1
LuckyB.it,72603436,990000,1
LuckyB.it,2064109,990000,1
73414936,CampBX.com,990000,1
71189298,Betcoin.ag,997968,1
70875269,0,1000579,1
SatoshiMines.com,1294,1001104,1
HolyTransaction.com,Bleutrade.com,1003013,1
HolyTransaction.com,0,1016123,1
45021,Cryptsy.com,1020000,1
Coinichiwa.com,SatoshiMines.com,1020000,1
Coinichiwa.com,2329,1020000,1
1149,Cryptonator.com,1020499,1
1972,1144,1022351,1
HolyTransaction.com,Xapo.com,1023325,1
Cryptonator.com,ePay.info_CoinJoinMess,1031387,1
1370,PrimeDice.com,1041870,1
1149,ePay.info_CoinJoinMess,1049665,1
536,1144,1052300,1
5569060,Cex.io,1058887,1
1972,57,1061757,1
Igot.com,Bitstamp.net,1080017,1
Cryptonator.com,536,1094000,1
MaiCoin.com,ChangeTip.com,1102187,1
641,1138,1109593,1
BitKonan.com,AgoraMarket,1117732,1
PrimeDice.com,17060189,1120000,1
Peerbet.org,3328,1121107,1
8360,Cex.io,1121783,1
CoinPayments.net,42724294,1125800,1
HolyTransaction.com,227,1130052,1
1972,421,1134181,1
Rollin.io,0,1137872,1
Bleutrade.com,72628215,1138000,1
Bittrex.com,Loanbase.com,1140035,1
57,3221577,1143948,1
Hashnest.com,523,1158233,1
8360,BTC-e.com,1191609,1
YoBit.net,ePay.info_CoinJoinMess,1204600,1
289,PrimeDice.com,1206625,1
69200053,Cryptsy.com,1214610,1
1833,0,1231857,1
Cryptonator.com,Indacoin.com,1250903,1
C-Cex.com,Cryptsy.com,1277003,1
Bittrex.com,49985443,1289501,1
Coinichiwa.com,NitrogenSports.eu,1296867,1
Rollin.io,Poloniex.com,1310901,1
PrimeDice.com,Poloniex.com,1358954,1
999Dice.com,Coinichiwa.com,1359761,3
ePay.info_CoinJoinMess,SatoshiMines.com,1392150,1
37466229,Luno.com,1400516,4
1226,BTCCPool,1430351,1
668819,0,1468298,1
PrimeDice.com,SatoshiMines.com,1490000,1
ePay.info_CoinJoinMess,72497478,1494864,1
CoinPayments.net,Coin.mx,1505150,1
FortuneJack.com,BitAces.me,1533268,1
PrimeDice.com,CloudBet.com,1550210,1
2024,999Dice.com,1554397,1
1833,1323,1573719,1
57,BitPay.com,1585954,2
69749485,999Dice.com,1607336,4
SatoshiDice.com,Poloniex.com,1610227,1
3048881,PrimeDice.com,1660000,1
4395,243017,1670000,2
3319,1309,1676747,1
0,1309,1680822,1
999Dice.com,269,1701711,1
1066863,BitZillions.com,1726861,2
8360,Cryptsy.com,1739571,1
BTCJam.com,27723,1745950,1
269,57,1768951,1
Coinichiwa.com,641,1805699,1
Poloniex.com,Xapo.com,1811965,1
Hashnest.com,1956,1846359,1
55244,Huobi.com,1901345,1
37466229,ePay.info_CoinJoinMess,1910032,8
72497478,4570,1914917,1
5000,Poloniex.com,1921510,7
72367823,265,1942990,1
269,1309,1990000,1
999Dice.com,2797321,1990000,1
1972,Xapo.com,1990000,1
Igot.com,Bit-x.com,1990163,1
1436,C-Cex.com,1990773,1
Cryptsy.com,ChangeTip.com,2000159,1
MercadoBitcoin.com.br,921102,2000232,1
MercadoBitcoin.com.br,1155021,2000893,1
1370,SatoshiMines.com,2004714,1
241309,ePay.info_CoinJoinMess,2005126,2
ePay.info_CoinJoinMess,5370574,2006039,1
MercadoBitcoin.com.br,1323,2006100,1
1370,Bittrex.com,2015541,1
Coinichiwa.com,FortuneJack.com,2029625,1
ePay.info_CoinJoinMess,134509,2037200,1
73989661,20042,2042064,3
HolyTransaction.com,1155021,2050000,1
HolyTransaction.com,Cryptsy.com,2078668,2
71424476,SatoshiMines.com,2079738,1
Poloniex.com,BTCJam.com,2090297,1
6801,CoinArch.com,2099782,1
37466229,0,2107645,5
Hashnest.com,1647,2119060,1
1095,51615546,2136000,1
Cryptsy.com,302372,2150202,1
0,11706884,2167039,1
26703738,71685841,2184045,1
Bittrex.com,55834,2185364,1
0,536,2185604,2
19025100,BitPay.com,2190000,1
69147837,999Dice.com,2191703,2
Bitfinex.com,2160,2198414,3
Bleutrade.com,BTC-e.com,2212472,1
0,1155021,2258772,2
C-Cex.com,1956,2276714,1
Hashnest.com,HaoBTC.com,2278746,1
CoinKite.com,Cavirtex.com,2282983,2
FortuneJack.com,PrimeDice.com,2283516,1
61394841,Hashnest.com,2301705,2
Coin.mx,1370,2323236,2
71005802,6294,2324166,1
71005802,60722,2324166,1
33069903,74121116,2342558,1
69434689,294,2344825,1
1281001,21953,2374578,2
ePay.info_CoinJoinMess,2329,2413091,1
1226,BTCC.com,2437707,1
348,HolyTransaction.com,2458310,1
71868502,0,2467346,1
PrimeDice.com,421,2470008,1
CoinSpot.com.au,Bittrex.com,2500021,1
14877688,FaucetBOX.com,2506219,1
27723,100157,2529350,1
35576660,Hashnest.com,2568075,1
47853,Cryptsy.com,2576011,1
69121535,NitrogenSports.eu,2590000,1
Cex.io,CoinTrader.net_LocalBitcoins.com,2590006,1
ePay.info_CoinJoinMess,FaucetBOX.com,2599208,1
69618346,70219418,2600392,1
999Dice.com,536,2638928,1
72315527,Xapo.com,2650610,1
37466229,Bitcoin.de,2666645,5
0,Kraken.com,2679278,1
4397,BTC-e.com,2697460,1
3009,Hashnest.com,2709043,1
0,SatoshiMines.com,2770497,6
ePay.info_CoinJoinMess,72838107,2779654,1
69826574,2652,2780598,2
61,Matbea.com,2822704,1
455545,Coinichiwa.com,2870717,1
24650915,294,2910000,1
61394841,289,2913964,1
4395,1647,2929100,1
1521303,0,2940033,1
71319609,Poloniex.com,2948000,1
Vircurex.com,Xapo.com,2949494,1
Cex.io,CoinJar.com,2968890,1
Rollin.io,NitrogenSports.eu,2970658,2
BitPay.com,CoinTrader.net_LocalBitcoins.com,2990000,1
Poloniex.com,513,2990022,1
0,Poloniex.com,2991321,2
MaiCoin.com,PrimeDice.com,3004464,2
Cex.io,Bitcurex.com,3010736,1
ePay.info_CoinJoinMess,4337,3012429,1
3009,7366,3014253,1
55461151,Bter.com,3024724,1
2329,BTCJam.com,3040533,1
Bitfinex.com,MeXBT.com,3044152,1
57,Rollin.io,3056511,1
1391,ePay.info_CoinJoinMess,3073015,1
NitrogenSports.eu,BitcoinVideoCasino.com,3095000,1
ePay.info_CoinJoinMess,72576990,3101421,1
57,BTCJam.com,3117140,1
0,1956,3119603,2
71005136,597,3133192,1
C-Cex.com,0,3134161,1
0,Cryptsy.com,3197035,3
Coin.mx,597,3209868,1
536,0,3222390,3
ePay.info_CoinJoinMess,1083400,3245934,1
2227706,Xapo.com,3276694,1
2227706,421,3276694,1
ePay.info_CoinJoinMess,71973475,3276794,1
MeXBT.com,BTC-e.com,3280195,1
HolyTransaction.com,74095025,3284400,1
10231195,Poloniex.com,3290000,1
Cryptsy.com,Bleutrade.com,3296726,1
0,1323,3322551,1
BTCJam.com,AgoraMarket,3328245,1
2227706,0,3331019,1
1972,1294,3346784,2
Cryptsy.com,8360,3357617,1
LuckyB.it,3753858,3390000,1
72603436,LuckyB.it,3391000,1
Cex.io,Bittrex.com,3474096,1
3753858,LuckyB.it,3490000,1
LuckyB.it,70979683,3511000,14
0,Bitstamp.net,3535940,1
ePay.info_CoinJoinMess,71921391,3628080,1
10251,Bter.com,3632292,1
72367835,421,3660000,1
LuckyB.it,49766186,3675483,1
21349,1116,3706370,1
Poloniex.com,1144,3727048,1
72733582,2624,3738797,1
6166631,ePay.info_CoinJoinMess,3760093,1
9274628,0,3783420,1
665871,0,3789005,1
Bittrex.com,Coinichiwa.com,3842572,1
1370,999Dice.com,3880914,2
74041669,597,3895579,1
0,66038,3907330,1
0,1144,3965589,1
2064109,SatoshiMines.com,3980000,1
243017,2545,3980000,1
MercadoBitcoin.com.br,BitPay.com,3987177,1
61,CoinTrader.net_LocalBitcoins.com,3990000,1
269,ePay.info_CoinJoinMess,3990000,1
ePay.info_CoinJoinMess,66686,4012323,1
Cryptsy.com,5162,4028027,1
3918,BTC-e.com,4028397,1
10727819,0,4037166,1
HolyTransaction.com,421,4087374,2
2010811,CoinTrader.net_LocalBitcoins.com,4100000,1
74172449,BTC-e.com,4112208,1
38097914,ePay.info_CoinJoinMess,4146793,1
0,PrimeDice.com,4150396,6
2024,AllCoin.com,4170000,1
37466229,CoinTrader.net_LocalBitcoins.com,4171193,17
ePay.info_CoinJoinMess,2682096,4260269,1
ePay.info_CoinJoinMess,1436,4260269,1
Comkort.com,269,4263800,1
0,FYBSG.com,4279980,2
1200666,PrimeDice.com,4287716,1
1443066,0,4309743,5
7670249,71737519,4389099,1
73962910,1294,4394095,1
BitcoinVietnam.com.vn,CoinTrader.net_LocalBitcoins.com,4408232,1
73414899,0,4535258,1
7884725,Betcoin.ag,4558005,1
10231195,Betcoin.ag,4581883,1
ePay.info_CoinJoinMess,10038,4584177,1
ePay.info_CoinJoinMess,109306,4613783,1
1200666,BitZillions.com,4652716,1
24907227,73414899,4661473,1
69826574,BitPay.com,4677046,1
276290,777Coin.com,4707644,1
70270953,Bitfinex.com,4736409,1
72078407,0,4785633,1
71005802,52169949,4787208,1
71005802,5342,4787208,1
71005802,1941,4787208,1
71005802,1833,4787208,1
ePay.info_CoinJoinMess,34062902,4794771,1
73962910,PrimeDice.com,4863012,1
269,Cryptsy.com,4880000,1
69932507,2624,4885349,1
1833,1294,4898076,1
ePay.info_CoinJoinMess,PocketDice.io,4911421,2
Bittrex.com,796.com,4918441,1
1836,1309,4970000,1
BTCJam.com,1956,4974476,1
YoBit.net,BTC-e.com,4980000,1
523,134509,4990000,1
2064109,LuckyB.it,4990000,1
45379539,PrimeDice.com,4990000,1
265,532,4990169,1
PrimeDice.com,1469,4994196,1
Purse.io,PrimeDice.com,5030551,1
3009,0,5073876,1
1646469,LuckyB.it,5096060,12
HolyTransaction.com,Bitstamp.net,5100000,1
ePay.info_CoinJoinMess,CloudBet.com,5157028,1
73962910,BTCJam.com,5177815,1
ePay.info_CoinJoinMess,175,5188309,1
37463324,45298568,5211137,1
NitrogenSports.eu,BitZino.com,5230000,1
Poloniex.com,134509,5277189,1
22823356,8343,5282620,1
Poloniex.com,455545,5283451,1
1147089,BitPay.com,5320000,1
Cryptsy.com,1309,5324111,2
826601,74041669,5348153,1
118992,1747,5370000,1
BTCOracle.com,60925858,5440000,1
ePay.info_CoinJoinMess,Comkort.com,5451470,1
ePay.info_CoinJoinMess,72367944,5464444,1
ePay.info_CoinJoinMess,70796619,5464444,1
42724294,Xapo.com,5480000,1
CoinPayments.net,50427066,5503957,1
NucleusMarket,AgoraMarket,5521111,1
71973495,CoinJar.com,5537351,1
ePay.info_CoinJoinMess,883,5588629,1
CoinKite.com,0,5596104,4
16425460,37463324,5618931,1
ePay.info_CoinJoinMess,1095,5633991,2
Cex.io,CloudBet.com,5638448,1
69173924,1200666,5713000,1
BX.in.th,ePay.info_CoinJoinMess,5800921,1
42093257,BitPay.com,5810100,1
HolyTransaction.com,1469,5834760,1
73962910,Luno.com,5852087,1
69591945,BitPay.com,5880222,1
FortuneJack.com,NitrogenSports.eu,6002310,1
0,921102,6121090,2
12936,0,6126194,1
PrimeDice.com,NitrogenSports.eu,6136957,1
69827694,Coinomat.com,6140000,1
0,Bittrex.com,6211671,5
72236482,71085043,6252892,1
Hashnest.com,BitcoinWeBank.com,6255108,1
70691530,69121521,6324905,1
3731332,ePay.info_CoinJoinMess,6329388,2
67771244,Kraken.com,6389714,2
Purse.io,0,6390850,1
PrimeDice.com,1144,6391574,3
LuckyB.it,1646469,6391829,12
71293795,821,6413151,1
70507587,860,6415909,1
3731332,999Dice.com,6422000,1
ePay.info_CoinJoinMess,70822184,6429437,1
ePay.info_CoinJoinMess,72183406,6429437,1
EmpoEX.com,421,6460000,1
72996069,BTC-e.com,6480856,1
10313349,CoinPayments.net,6485170,1
48852186,CoinGaming.io,6566633,1
999Dice.com,Cryptonator.com,6580000,1
326031,421,6585478,1
57,SatoshiMines.com,6602233,52
745157,1747,6610796,1
70901272,0,6628372,1
ePay.info_CoinJoinMess,5271171,6681003,1
SatoshiMines.com,Xapo.com,6727142,6
73466957,0,6745551,2
AbraxasMarket,AgoraMarket,6870874,1
ePay.info_CoinJoinMess,53725739,6900700,1
ePay.info_CoinJoinMess,73646802,6900700,1
ePay.info_CoinJoinMess,73937407,6900700,1
72890901,CloudBet.com,6902424,2
0,57,6903906,1
BTCJam.com,ePay.info_CoinJoinMess,6950000,1
1095,CoinTrader.net_LocalBitcoins.com,6972095,1
1095,Cryptsy.com,6972095,1
1095,Cryptonator.com,6972095,1
1095,Bter.com,6972095,1
1095,Matbea.com,6972095,1
1095,ePay.info_CoinJoinMess,6972095,1
1095,C-Cex.com,6972095,1
1095,BTC-e.com,6972095,1
1095,Bitcoin.de,6972095,1
ePay.info_CoinJoinMess,27502457,6994030,1
12848518,1309,7054700,1
73441090,Kraken.com,7097358,1
69173924,2064109,7137000,1
0,Xapo.com,7149183,4
26919550,15260310,7163976,1
144847,Bitcoin.de,7197313,1
74252329,ePay.info_CoinJoinMess,7205000,1
70979683,LuckyB.it,7240806,14
3009,BTC-e.com,7247513,1
Bittrex.com,8360,7278592,1
72706867,BitPay.com,7283583,1
70087815,597,7448440,1
ePay.info_CoinJoinMess,14416956,7455381,2
FaucetBOX.com,6771952,7483969,1
FaucetBOX.com,73937407,7483969,1
FaucetBOX.com,52620741,7483969,1
FaucetBOX.com,73466994,7483969,1
FaucetBOX.com,PrimeDice.com,7483969,1
FaucetBOX.com,56445348,7483969,1
FaucetBOX.com,Purse.io,7483969,1
FaucetBOX.com,16621,7483969,1
160549,Poloniex.com,7528049,1
LuckyB.it,1166886,7540000,9
ePay.info_CoinJoinMess,35,7640403,2
1854533,BTC-e.com,7680374,1
9924517,523,7681442,1
74147398,73675734,7687855,1
73096754,421,7782703,1
73096754,Comkort.com,7782703,1
73096754,0,7782703,1
72995962,Bter.com,7793000,1
C-Cex.com,421,7880000,1
1436,0,7963092,4
999Dice.com,1469,7997411,7
0,CoinTrader.net_LocalBitcoins.com,8003121,5
48860,269,8005978,1
269,Cex.io,8017336,2
ePay.info_CoinJoinMess,3048834,8024646,2
3009,Cryptsy.com,8113300,1
69225864,999Dice.com,8130000,2
70768637,BitPay.com,8149580,1
HolyTransaction.com,1144,8160042,1
70272145,73936734,8194016,2
73309864,BitPay.com,8200000,1
71476863,CoinGaming.io,8267424,1
Cex.io,ePay.info_CoinJoinMess,8326630,2
71869112,70848219,8347808,1
73963652,69592069,8379691,1
1370,CoinGaming.io,8389611,1
6174,BTCJam.com,8411769,2
73675734,532,8418617,2
BitYes.com,107,8422359,2
70011049,69722595,8427905,1
0,ePay.info_CoinJoinMess,8438902,8
417,Bittrex.com,8561587,1
70901335,294,8689707,1
70063352,CoinGaming.io,8695974,1
37466229,Xapo.com,8711838,22
73807082,CoinTrader.net_LocalBitcoins.com,8730486,1
0,3328,8759740,2
FaucetBOX.com,17427381,8787493,1
FaucetBOX.com,TheRockTrading.com,8787493,1
FaucetBOX.com,BitZino.com,8787493,1
FaucetBOX.com,BTCJam.com,8787493,1
FaucetBOX.com,73649714,8787493,1
FaucetBOX.com,70246057,8787493,1
FaucetBOX.com,36114,8787493,1
FaucetBOX.com,52687183,8787493,1
3319,BTC-e.com,8908123,1
Rollin.io,Xapo.com,8987502,1
415535,1370,9005000,5
6166631,2227706,9077130,2
10467121,0,9168071,3
821,3208,9277292,1
PrimeDice.com,1309,9279181,4
Banx.io,Bter.com,9332186,1
35,269,9348121,2
NitrogenSports.eu,276290,9357747,1
1836,Xapo.com,9379707,1
160549,Bittrex.com,9387617,1
72524681,294,9424413,1
72811110,18459488,9493279,1
154,Bter.com,9516847,1
227,PrimeDice.com,9519228,2
MercadoBitcoin.com.br,BTCJam.com,9540121,1
441347,69984672,9593287,1
269,CoinTrader.net_LocalBitcoins.com,9601781,1
1095,Xapo.com,9682695,2
Vircurex.com,Bitcoin.de,9686138,1
CoinMotion.com,Hashnest.com,9703084,1
5370574,1144,9723536,1
72995962,ePay.info_CoinJoinMess,9749576,1
ePay.info_CoinJoinMess,2990531,9801355,1
BTCJam.com,424,9950000,1
BTCJam.com,CoinGaming.io,9957541,1
75854,BitPay.com,9989000,1
Hashnest.com,71921391,9990000,1
Bittrex.com,999Dice.com,9990000,1
Hashnest.com,71424476,9990000,1
2445947,ePay.info_CoinJoinMess,9990000,1
HolyTransaction.com,999Dice.com,10000000,1
72208981,0,10021125,1
45298568,37463324,10044000,1
1709925,1144,10049174,1
269,7366,10064711,2
SatoshiMines.com,0,10160107,3
BTCJam.com,Bitcurex.com,10361269,1
9305107,SatoshiDice.com,10387592,2
54290099,72969148,10440944,1
0,7787,10473587,6
536,Xapo.com,10487632,5
74224961,70455637,10547968,1
1116,21349,10548365,1
Cex.io,BTCJam.com,10665977,2
Coins-e.com,BitPay.com,10724485,1
6521368,BitZillions.com,10736180,5
CampBX.com,CloudBet.com,10749655,1
Bitfinex.com,421,10787840,1
70534535,Igot.com,10799030,1
70063369,MeXBT.com,10800067,1
1328107,71711888,10818390,1
69434689,71085043,10934465,1
Bitcoin.de,BTC-e.com,10980000,1
1580,Xapo.com,10990000,1
10038,513,11004300,1
Cryptsy.com,28663,11005520,1
73493153,265,11016086,1
Cex.io,NucleusMarket,11080000,1
Bittrex.com,Luno.com,11099700,1
71241404,0,11117378,1
73846409,Xapo.com,11130000,1
36586430,1493,11136571,1
2024,Poloniex.com,11149451,2
NitrogenSports.eu,46252592,11158000,1
Hashnest.com,Bitstamp.net,11159530,1
6466232,CoinTrader.net_LocalBitcoins.com,11189218,1
72603304,5332087,11379384,1
HolyTransaction.com,SafeDice.com,11410000,1
0,8035,11430808,1
35,Bittrex.com,11438281,1
BitZillions.com,1200666,11511295,1
FaucetBOX.com,7883231,11525531,1
FaucetBOX.com,70429690,11525531,1
FaucetBOX.com,69644132,11525531,1
FaucetBOX.com,1149,11525531,1
FaucetBOX.com,62014,11525531,1
FaucetBOX.com,10251,11525531,1
CoinGaming.io,0,11543123,3
115921,665871,11599000,1
69487824,860,11611876,1
23145220,821,11634248,1
ePay.info_CoinJoinMess,4562,11639015,2
CoinPayments.net,0,11656550,2
69486955,36586430,11687617,1
73597674,72603304,11720603,1
86016,ePay.info_CoinJoinMess,11731995,1
10727819,57,11864482,1
61,1144,11888026,1
70272317,ePay.info_CoinJoinMess,11918658,2
5632,1285711,11945964,1
70795870,1155021,11986491,1
Bittrex.com,NitrogenSports.eu,11990000,1
71213818,CoinPayments.net,11990000,1
ePay.info_CoinJoinMess,FortuneJack.com,12018389,2
53817,0,12210780,1
69931860,71032462,12222829,1
898,ChangeTip.com,12240414,1
74147398,72341543,12444240,1
612543,421,12557725,1
71005802,72420065,12714110,1
16425460,BitcoinWallet.com,12782492,1
70351635,597,12825360,2
74147398,69591945,12858281,1
70218343,BitPay.com,12860100,1
10635027,BitPay.com,12887459,1
19299854,70849007,12956268,1
ePay.info_CoinJoinMess,74252329,13010021,1
69906420,1841887,13109717,1
66226329,348,13127394,1
1200666,LuckyB.it,13178000,3
PrimeDice.com,1646469,13190000,1
Cryptsy.com,CoinPayments.net,13198969,2
71397587,0,13214806,1
73310633,2160,13310207,2
71085043,69434689,13388019,1
71659609,69226066,13481841,1
1166886,LuckyB.it,13546000,9
66226329,421,13577923,1
70219698,55834,13583524,1
31317920,Bitfinex.com,13631084,1
Cex.io,Bitcoin.de,13714502,2
72812926,ePay.info_CoinJoinMess,13854851,1
70246075,BitPay.com,13856458,1
ePay.info_CoinJoinMess,19025117,13944958,3
1747,118992,13990000,1
Cex.io,PrimeDice.com,14003155,2
BitZillions.com,455545,14045610,1
SatoshiBet.com,Bittrex.com,14063759,2
Comkort.com,1956,14077142,1
49697,ePay.info_CoinJoinMess,14177132,1
FaucetBOX.com,72996069,14189024,1
FaucetBOX.com,27939,14189024,1
FaucetBOX.com,21349,14189024,1
FaucetBOX.com,BitBay.net,14189024,1
FaucetBOX.com,70377652,14189024,1
FaucetBOX.com,70612568,14189024,1
FaucetBOX.com,MaiCoin.com,14189024,1
FaucetBOX.com,417,14189024,1
FaucetBOX.com,Btc38.com,14189024,1
FaucetBOX.com,73231663,14189024,1
FaucetBOX.com,BTCCPool,14189024,1
FaucetBOX.com,73100100,14189024,1
FaucetBOX.com,71947473,14189024,1
FaucetBOX.com,71973475,14189024,1
FaucetBOX.com,2214,14189024,1
FaucetBOX.com,10231195,14189024,1
FaucetBOX.com,Luno.com,14189024,1
FaucetBOX.com,MercadoBitcoin.com.br,14189024,1
999Dice.com,75854,14318831,1
CoinPayments.net,PrimeDice.com,14363700,1
Cryptsy.com,Paymium.com,14423724,1
Poloniex.com,CoinJar.com,14446274,1
72969148,72577151,14460000,1
Bittrex.com,Coins-e.com,14571897,1
71685750,0,14624353,6
SatoshiMines.com,ePay.info_CoinJoinMess,14729108,8
69801586,BitcoinWallet.com,14777154,1
LuckyB.it,1200666,14815369,3
1370,415535,14873896,4
763,Cex.io,14880000,1
NitrogenSports.eu,PrimeDice.com,14913614,2
Hashnest.com,56717,14990000,1
Poloniex.com,Comkort.com,14990000,1
70953024,5543010,15028539,1
1238508,C-Cex.com,15068052,1
Poloniex.com,SatoshiMines.com,15390348,1
73544435,BitPay.com,15635800,2
0,FaucetBOX.com,15766717,3
10231195,CoinGaming.io,15777898,6
Cex.io,Cryptsy.com,15885670,2
Comkort.com,Poloniex.com,15912331,1
0,CloudBet.com,15946397,1
Bittrex.com,1309,15980716,2
CoinGaming.io,Cryptsy.com,16000140,1
BTCJam.com,Bitfinex.com,16207330,2
69278079,1040721,16512624,1
999Dice.com,0,16517152,3
SimpleCoin.cz,Bittrex.com,16533000,1
2275995,CoinGaming.io,16552685,3
Bittrex.com,Bitcoin.de,16605968,1
72236394,348,16716473,1
1709925,999Dice.com,16772791,2
0,BitPay.com,16797659,4
72995513,2624,16834148,1
73388652,513,16836800,1
70713784,BitPay.com,16882633,1
CoinPayments.net,BitPay.com,16899576,1
71345216,73231102,16934215,1
Bleutrade.com,269,16942842,3
BabylonMarket,ePay.info_CoinJoinMess,16950000,1
31951990,763,17007013,1
3504685,74042306,17060334,1
Purse.io,CloudBet.com,17090000,1
71110794,72498069,17125244,1
7573578,294,17191581,1
71241404,3328,17393369,1
978,BtcTrade.com,17393672,2
763,AgoraMarket,17417331,1
5183751,BitcoinWallet.com,17419983,1
Hashnest.com,269,17439725,2
6801,BitcoinFog,17487120,1
71633185,BTC-e.com,17632721,1
72236370,294,17651603,1
70900879,Betcoin.tm,17669984,1
455545,BitZillions.com,17913724,6
69932507,BitPay.com,17974632,3
0,CoinGaming.io,18060291,2
54813493,BitPay.com,18076315,1
73152244,42274033,18190879,1
194937,525,18195835,1
BitPay.com,ChBtc.com,18236500,1
72209869,72864471,18518232,1
69801586,73910338,18567347,1
69827719,70979684,18645229,1
69173924,72603436,18684000,3
1538606,1103,18788321,1
1580,CoinTrader.net_LocalBitcoins.com,18980848,1
326403,1928087,19211313,1
Poloniex.com,557695,19240000,1
66226329,Xapo.com,19249020,2
ePay.info_CoinJoinMess,1149,19273588,3
73962910,72550932,19273907,1
36654099,AgoraMarket,19275374,1
73962910,Bitcoin.de,19311357,1
2024,Bittrex.com,19322965,3
73962910,523,19576053,1
1655460,71448568,19665971,1
MeXBT.com,265,19710383,1
73962910,1149,19783628,1
57,AgoraMarket,19800067,3
HolyTransaction.com,1323,19878615,3
69302403,BitPay.com,19894841,1
BTCJam.com,Betcoin.ag,19950000,1
7884725,CloudBet.com,19954545,1
Kraken.com,Poloniex.com,19978650,1
0,421,20024151,4
2041283,CoinPayments.net,20378278,1
72837333,BitPay.com,20392478,1
74147398,70167576,20576155,1
73623403,2445947,20656179,1
73623403,1528188,20656179,1
73623403,49766186,20656179,1
73649821,73597186,20718449,1
71005802,1443066,20762899,1
71005802,56445348,20762899,1
71005802,72262805,20762899,1
71005802,71921521,20762899,1
71947632,860,20769220,1
74066429,70403816,20797295,1
28873361,0,20862161,2
1095,421,20916285,3
1095,1144,20916285,3
1095,1309,20916285,3
763,CoinGaming.io,20992016,2
PrimeDice.com,523,20992349,7
Bittrex.com,44555,21030633,1
Coinichiwa.com,Xapo.com,21100380,7
PrimeDice.com,Loanbase.com,21154276,1
70691530,73728439,21195643,1
PrimeDice.com,BTCJam.com,21283155,4
69121518,3871,21509913,1
69644696,72944041,21597264,1
NitrogenSports.eu,SatoshiMines.com,21699136,1
FaucetBOX.com,Peerbet.org,21715135,1
FaucetBOX.com,523,21715135,1
FaucetBOX.com,31530509,21715135,1
FaucetBOX.com,6216423,21715135,1
FaucetBOX.com,CoinSpot.com.au,21715135,1
FaucetBOX.com,3048881,21715135,1
FaucetBOX.com,515376,21715135,1
FaucetBOX.com,999Dice.com,21715135,1
FaucetBOX.com,49545042,21715135,1
FaucetBOX.com,1576,21715135,1
FaucetBOX.com,269,21715135,1
FaucetBOX.com,1756235,21715135,1
FaucetBOX.com,1323,21715135,1
73963652,70639151,21847923,1
71528798,294,21927521,1
69330851,597,21927521,1
49059556,265,22220726,1
72104574,294,22339148,1
0,1138,22415881,1
73846409,0,22440000,2
71790459,71371583,22470000,1
3120,Cryptsy.com,22473637,1
72078429,73780807,22526352,1
74200220,BitPay.com,22546570,1
763,Bter.com,22646803,1
24477212,999Dice.com,22679123,3
ePay.info_CoinJoinMess,37466229,22700369,1
72524261,73963652,22880538,1
SatoshiMines.com,421,22892059,2
92878,348,22947169,1
FaucetBOX.com,70717806,22976517,2
NitrogenSports.eu,Coinroll.com,22980000,1
SatoshiMines.com,57,22980000,2
175,AllCoin.com,22990000,1
FaucetBOX.com,348,23051062,2
72603304,69903259,23063560,1
1747,3427253,23135038,1
763,3614758,23235356,1
73096754,ePay.info_CoinJoinMess,23348109,3
40976172,1144,23536000,1
Bleutrade.com,BTCJam.com,23615149,2
20803,0,23892930,1
ePay.info_CoinJoinMess,CoinPayments.net,24000091,1
73046365,71607431,24067474,1
536,MercadoBitcoin.com.br,24069263,4
9376569,BitPay.com,24230325,1
71136349,71763913,24279851,1
74328868,73754427,24297149,1
69278079,72262157,24312381,1
269,Bitstamp.net,24357190,1
Bittrex.com,32354,24392713,1
71136349,73544696,24502478,1
69618346,Xapo.com,24579722,1
70115478,73571655,24600618,1
73751904,58471,24615497,1
71345216,71581352,24627201,1
68849562,2184069,24649676,1
70691648,70010813,24689770,1
22583343,16621,24773484,1
1116,Bittrex.com,24988138,1
57,ChangeTip.com,25044979,5
Cryptsy.com,Xapo.com,25167517,2
818721,Xapo.com,25280000,1
NitrogenSports.eu,Betcoin.ag,25356350,5
ePay.info_CoinJoinMess,70560602,25640853,2
69173924,71319609,25679000,4
CoinPayments.net,13864293,25694427,1
4758,BTC-e.com,25727862,4
CoinGaming.io,1370,25790000,1
71319712,Betcoin.ag,25840000,3
Bittrex.com,CoinPayments.net,25865066,1
LuckyB.it,71319609,25929400,13
70927666,71763676,26040000,1
71032473,265,26048772,1
74066429,BTC-e.com,26253697,1
CoinKite.com,AgoraMarket,26391027,1
73962910,883,26582087,1
999Dice.com,Cex.io,26740419,3
70690921,70508324,26775546,1
74066429,2457856,26777593,1
269,Bittrex.com,26837960,2
73205569,2624,26930000,1
HolyTransaction.com,ePay.info_CoinJoinMess,27067254,5
73937204,294,27090634,1
396,0,27161649,1
5325883,71476899,27298137,1
15681814,2652,27320143,1
2024,0,27353168,3
69278079,71293599,27436066,1
Cryptsy.com,9924517,27591613,1
40976172,Bter.com,27714000,1
269,1647,27850345,1
45379539,4397,27950000,1
1580,45136487,28111000,1
71005802,29392,28119586,1
3167,16756080,28289405,1
71110794,71267439,28397671,1
PrimeDice.com,37904064,28474805,1
72603304,73831934,28564005,1
PrimeDice.com,AgoraMarket,28633883,2
C-Cex.com,1580,28644596,1
Kraken.com,Cryptopay.me,28688650,1
73962910,ePay.info_CoinJoinMess,28711140,3
70481397,69173753,28726667,1
74067375,294,28745364,1
40976172,Cex.io,28802000,1
72865528,BitPay.com,28890417,1
45379539,AgoraMarket,28960000,1
40976172,Bleutrade.com,29065000,1
CoinTrader.net_LocalBitcoins.com,763,29140000,1
70062872,69435310,29180000,1
FaucetBOX.com,CoinKite.com,29199104,2
11494,16756080,29575799,1
73963652,74303170,29711652,1
C-Cex.com,BTCJam.com,29780000,1
3731332,421,29910000,5
523,49319582,29990000,1
Hashnest.com,BtcTrade.com,29990000,1
Bittrex.com,668819,29990000,1
71005802,14877688,30066889,1
71005802,14208054,30066889,1
67933107,58471,30093782,1
74329976,0,30200000,1
1905505,641,30227716,1
Peerbet.org,Poloniex.com,30372022,1
69330856,8343,30405849,1
1514897,BTC-e.com,30418208,1
35268579,860,30441728,1
FaucetBOX.com,6294,30502628,2
FaucetBOX.com,1469,30502628,2
73937548,69565876,30667106,1
72603512,BitPay.com,30670256,2
55849,144727,30830740,1
ePay.info_CoinJoinMess,3731332,30905458,1
7779201,70979540,30978125,2
CoinTrader.net_LocalBitcoins.com,1222329,31001480,1
72367940,74327256,31105879,1
CoinTrader.net_LocalBitcoins.com,10725382,31150000,1
C-Cex.com,72707854,31179720,1
18955741,2652,31250355,1
57,Poloniex.com,31357474,1
5325883,72078370,31361472,1
BitcoinWallet.com,BitPay.com,31523120,4
1116,NitrogenSports.eu,31574615,2
999Dice.com,289,31614778,3
FaucetBOX.com,C-Cex.com,31764010,3
70507144,294,31812099,1
396,SatoshiMines.com,31895341,1
ePay.info_CoinJoinMess,149308,32009554,2
1833,Bitcoin.de,32049800,2
23247,999Dice.com,32116042,1
71816729,523,32284981,1
73623544,72577151,32390000,1
42601,71448568,32439099,1
BitcoinVideoCasino.com,70115593,32480000,2
73205584,1309,32616789,1
Poloniex.com,Cryptsy.com,32634133,2
187123,BitPay.com,32738000,1
Cryptsy.com,149308,32903214,1
73962910,421,33048045,5
72051908,BitcoinWallet.com,33230590,1
5325883,70508086,33448707,3
289,Poloniex.com,33487398,1
Cavirtex.com,Bter.com,33620000,1
Cex.io,0,33620395,6
73074504,61,33719021,1
70193855,BitPay.com,33723200,2
72446294,ePay.info_CoinJoinMess,33917056,1
72078429,71685895,34084798,1
Bitbond.com,Bitfinex.com,34186270,1
71004866,ePay.info_CoinJoinMess,34246973,3
70508324,BitPay.com,34428226,1
73937392,70691530,34661214,1
38577586,21325448,34805638,2
69827719,71371977,34930015,1
0,NitrogenSports.eu,35180780,1
Bleutrade.com,Bittrex.com,35512250,3
ePay.info_CoinJoinMess,69304334,35573245,5
Bittrex.com,70691186,35579660,1
16425460,74224961,35783839,1
1285711,AllCoin.com,35793206,1
73178153,Xapo.com,35841796,1
FaucetBOX.com,14877688,35904159,2
FaucetBOX.com,1443066,35904159,2
FaucetBOX.com,60475971,35904159,2
73961799,5232508,35931524,1
72603304,71423839,36018278,1
122,3348,36076034,2
71528819,597,36107434,3
Cex.io,1956,36127311,2
SatoshiCircle.com,1309,36161174,1
71502261,69697047,36334258,1
70953024,71004866,36395089,1
Bleutrade.com,CoinTrader.net_LocalBitcoins.com,36420514,1
FaucetBOX.com,5941,36584486,4
7964604,BitPay.com,36624057,2
69618346,69906420,36760488,1
6166631,0,36788180,2
NitrogenSports.eu,763,37108000,1
SatoshiDice.com,CoinTrader.net_LocalBitcoins.com,37156487,1
Cex.io,295653,37453128,1
1594407,1149,37488350,1
Bleutrade.com,2778,37552951,1
999Dice.com,HolyTransaction.com,37738784,3
3649592,1151788,37783144,1
69697020,69409447,37918186,1
Bittrex.com,BX.in.th,37948594,2
FaucetBOX.com,Poloniex.com,37986597,3
FaucetBOX.com,2024,37986597,3
73649821,73074650,38217534,1
2618527,294,38504811,1
BTCJam.com,SafeDice.com,38555893,1
763,Poloniex.com,38557209,1
PrimeDice.com,417,38693434,1
70403819,294,38790000,1
Bleutrade.com,Bitstamp.net,38828252,1
43972,1493,38858985,1
69382154,70141387,38958093,1
818721,BTCJam.com,39110000,1
Bittrex.com,Bleutrade.com,39170659,1
71005802,7883231,39353562,1
71005802,68873411,39353562,1
763,NitrogenSports.eu,39370241,1
70691540,BitPay.com,39588016,1
69278079,BTC-e.com,39662096,1
54809975,BitPay.com,39688579,1
72024773,2624,39778786,1
72576984,70141174,39790000,1
Purse.io,73309914,39890000,1
ePay.info_CoinJoinMess,73882945,39990000,1
555136,69147676,40232964,1
396,69958267,40233353,1
10073457,5145429,40355774,1
70875176,AnoniBet.com,40433823,1
69906437,73308515,40638000,1
MercadoBitcoin.com.br,AgoraMarket,40683863,3
71110794,71240589,40761944,1
74068412,16209115,40762621,1
71110794,74326234,40779428,1
71110794,73987471,40833182,1
71005802,536,40833696,2
71319609,LuckyB.it,40979918,13
1091440,348,41120773,1
ePay.info_CoinJoinMess,1323,41156410,8
70848219,2229650,41332560,1
Bittrex.com,CloudBet.com,41391156,2
BTCJam.com,Bitstamp.net,41479534,1
999Dice.com,BitPay.com,41690805,2
PrimeDice.com,Cex.io,41735631,4
269,Bitcoin.de,41737923,1
1095,Cex.io,41832570,6
54816351,860,41895023,1
Cryptsy.com,3009,41936787,10
72603304,71397483,41971604,1
NitrogenSports.eu,70482234,42260000,1
BX.in.th,CoinGaming.io,42429417,1
14927860,860,42436517,1
999Dice.com,6294,42533428,5
7964604,BTC-e.com,42614730,2
57,CoinTrader.net_LocalBitcoins.com,42632257,2
8507696,NitrogenSports.eu,42678499,1
7964604,986113,42687720,1
73021291,7166942,42765258,1
70036681,265,42783563,1
16425460,ePay.info_CoinJoinMess,42861107,1
49059556,2652,42888203,1
71764510,2624,43322881,1
FaucetBOX.com,AllCoin.com,43430270,2
69932383,71764440,43526239,1
134509,523,43531279,2
73284596,73153028,43679254,1
269,1956,43798382,2
72786585,2652,43818609,1
45379539,999Dice.com,43940000,1
441347,2652,43963826,1
73021461,265,44071671,1
CoinPayments.net,Coinmate.io,44085102,3
5325883,69514014,44122125,1
4385893,CloudBet.com,44349428,1
CoinKite.com,Xapo.com,44438900,1
C-Cex.com,269,44656085,3
70141174,69539994,44735286,1
400308,BitPay.com,44746863,1
70953647,38343543,44790800,1
2364438,4337,44841000,1
ePay.info_CoinJoinMess,2172648,44890000,1
71710899,0,44968840,1
71894951,73857453,45417284,1
72629345,0,45534292,5
BitcoinWallet.com,71241043,45579753,1
39921,ChangeTip.com,45766526,1
ePay.info_CoinJoinMess,72890839,45824099,2
354533,CoinArch.com,45937080,1
70403045,294,46067244,1
72603304,74015113,46190521,1
70193026,71868890,46200000,1
289,Cex.io,46374337,1
73962910,Cryptsy.com,46466907,2
73439554,294,46531934,1
Bittrex.com,BTCJam.com,46707500,2
FaucetBOX.com,536,46774090,4
47133034,FortuneJack.com,46781294,1
230001,BitAces.me,46853000,3
1621394,Cex.io,47010100,1
NitrogenSports.eu,1528188,47032690,2
ePay.info_CoinJoinMess,AllCoin.com,47302796,4
Cex.io,1144,47346129,2
FaucetBOX.com,405610,47429690,3
72603304,BTC-e.com,47802761,1
374955,BTC-e.com,48090000,1
469,421,48402855,1
Cavirtex.com,BTCJam.com,48447623,1
40976172,Xapo.com,48490000,2
68856934,1151788,49013483,1
71005802,9827200,49047955,1
71005802,BitcoinVietnam.com.vn,49047955,1
71005802,73100100,49047955,1
71005802,745157,49047955,1
71005802,199545,49047955,1
33951799,70638329,49790000,1
72078429,CoinTrader.net_LocalBitcoins.com,49790000,1
Purse.io,ePay.info_CoinJoinMess,49940000,1
Cex.io,6294,49990000,1
SimpleCoin.cz,AgoraMarket,49990000,1
PrimeDice.com,763,49990000,1
Cryptsy.com,Loanbase.com,50098168,1
4395,4050,50244000,1
70953234,23145819,50375228,1
69303601,BTC-e.com,50466001,1
72839297,1956,50900000,1
Poloniex.com,93885,50990104,1
1116,Cryptsy.com,51261859,1
71005802,Bitcoin.de,51372121,2
Bittrex.com,Bitfinex.com,51468667,1
BX.in.th,421,51980000,1
999Dice.com,FortuneJack.com,52209858,1
FaucetBOX.com,Bitcoin.de,52250166,4
Bittrex.com,1294,52299570,2
71005802,71921391,52470383,1
71005802,70350963,52470383,1
NucleusMarket,BitcoinFog,52708376,1
289,FaucetBOX.com,52766710,1
763,PrimeDice.com,52809207,6
FaucetBOX.com,Bter.com,52855948,6
70637696,ePay.info_CoinJoinMess,52926670,1
999Dice.com,Xapo.com,53165849,10
70900879,72655339,53300354,1
72603304,73439757,53313155,1
269,47678,53328011,1
16425460,72602294,53384669,1
70481397,70482079,53436667,1
71633838,73205107,53443107,1
5370689,1747,53829137,1
ePay.info_CoinJoinMess,Coinroll.com,54009048,2
396,999Dice.com,54115617,1
70324445,BTC-e.com,54220000,1
Bittrex.com,2480,54225499,2
70927660,441347,54449235,1
230001,PrimeDice.com,54465974,4
CoinTrader.net_LocalBitcoins.com,1956,54588914,1
5325883,73701455,54618914,1
FaucetBOX.com,695079,54913659,4
FaucetBOX.com,1233363,54913659,4
FaucetBOX.com,71921521,54913659,4
70325324,265,54990000,1
16768780,72367788,55033414,2
74329976,Bitbond.com,55190000,1
71319563,69565872,55192988,2
SimpleCoin.cz,Cex.io,55247704,1
1836,411,55269707,1
71005802,AllCoin.com,55403072,1
71005802,71738316,55403072,1
71005802,227,55403072,1
71005802,Bter.com,55403072,1
71005802,4484322,55403072,1
71005802,150330,55403072,1
289,6294,55410690,1
84134,425465,55434280,1
2730831,18459488,55664884,2
16425460,70665323,56008806,1
ePay.info_CoinJoinMess,55078,56040008,2
BitZillions.com,6521368,56158297,4
64146037,2652,56216818,1
Cryptsy.com,69409280,57080472,1
69226075,289,57134602,1
Bitso.com,CloudBet.com,57164729,1
BitcoinWallet.com,0,57195533,3
Cryptsy.com,BTCJam.com,57413487,3
69383113,73152716,57447711,1
16425460,69878799,57821241,1
57,CoinGaming.io,57885138,1
71058677,860,57905902,1
71005802,Bitfinex.com,58047887,1
10073457,71947635,58122135,1
CoinTrader.net_LocalBitcoins.com,10141917,58417026,1
Kraken.com,AgoraMarket,58553855,1
FaucetBOX.com,CoinTrader.net_LocalBitcoins.com,58880676,4
Cryptsy.com,1711316,58988230,1
70610682,BTC-e.com,59010000,1
69278079,72550189,59150408,1
2230,BTradeAustralia.com-incoming,59675576,1
74121213,1493,59890000,1
Vircurex.com,763,59910000,1
C-Cex.com,Loanbase.com,59980000,1
4395,OKCoin.com,59990000,1
4395,2566,60000000,1
16425460,69957884,60106182,1
71005802,70063236,60116461,2
BtcTrade.com,860,60300985,2
Dispenser.tf,154765,60372351,1
71005802,Luno.com,60583361,1
71005802,73258135,60583361,1
71005802,CoinChimp.com,60583361,1
71005802,70403346,60583361,1
71005802,Bleutrade.com,60583361,1
71005802,72183406,60583361,1
20640336,CoinTrader.net_LocalBitcoins.com,60676258,1
BtcTrade.com,265,60700124,1
72078429,71163266,60701079,1
6976132,71685877,61068808,2
71110794,74173709,61265654,1
7166942,73021291,61643424,2
MercadoBitcoin.com.br,4273,61701207,1
73178252,72577151,61701601,1
269,Kraken.com,61749102,2
71685877,50133485,62083638,1
69330803,0,62122392,5
71110794,9567196,62201721,1
289,Cryptsy.com,62282048,1
1095,38346,62365213,1
CoinTrader.net_LocalBitcoins.com,BitBay.net,62559500,1
74329976,ePay.info_CoinJoinMess,62650000,1
213827,ePay.info_CoinJoinMess,62657482,1
71005802,411,62835095,2
57,Bitfinex.com,62917877,1
289,1309,63266710,1
40948331,BTC-e.com,63504725,1
73963652,69382424,63612207,1
64695628,71345216,63616439,1
16425460,73884750,63709988,1
FaucetBOX.com,342,63743294,4
23247,Xapo.com,64345721,1
73963652,70953771,64720431,1
12814737,15331471,64731432,1
43510,ePay.info_CoinJoinMess,65000000,1
43510,0,65000000,1
ePay.info_CoinJoinMess,31317920,65095414,8
72760143,255398,65120000,1
72629351,0,65252791,1
24477212,Kraken.com,65515057,1
Cavirtex.com,BitcoinFog,65540688,1
ePay.info_CoinJoinMess,49985443,65774290,2
5325883,69618346,65781447,1
326403,73361929,65809889,1
999Dice.com,1294,65889564,11
CoinPayments.net,BTC-e.com,66581100,2
Cex.io,1576,66590000,1
4331748,CoinTrader.net_LocalBitcoins.com,66745367,1
CoinTrader.net_LocalBitcoins.com,Xapo.com,66790114,1
469,557695,66893988,1
BitYes.com,Cryptsy.com,67036747,1
73649821,72051565,67169218,1
12101,860,67271613,1
71005802,1149,67473148,2
Loanbase.com,CloudBet.com,67624921,1
Igot.com,BTCJam.com,67671731,2
Bittrex.com,Kraken.com,67860434,1
289,70037421,67949155,1
10073457,BitcoinWallet.com,67986455,1
469,0,68085988,1
73126209,1830614,68113296,1
71345216,70822605,68366745,1
44388409,73438521,68373121,1
4359631,6174,68513386,1
469,BTC-e.com,68647988,1
289,1294,68739393,1
ePay.info_CoinJoinMess,2624,69276472,1
CoinGaming.io,Bittrex.com,69910000,1
Coins-e.com,Bitfinex.com,69980000,1
1836,PrimeDice.com,69990000,1
73388652,Bter.com,69990000,1
36654099,BTC-e.com,70266348,2
71345216,70822385,70471716,2
8577123,1956,70771478,2
Poloniex.com,269,70830870,4
71581228,860,70909196,1
763,Bittrex.com,71004731,1
71345216,70873710,71063772,1
999Dice.com,71895288,71247402,2
2024,ePay.info_CoinJoinMess,71247548,2
Bittrex.com,SatoshiBet.com,71300800,1
72446364,72995178,71673458,1
1576,69121566,71708221,1
C-Cex.com,424,71877731,3
269,Bter.com,71988508,1
73231057,69801966,72113523,2
69121566,BTC-e.com,72210128,1
999Dice.com,1323,73044309,2
Cex.io,BitPay.com,73407001,3
10141917,72471752,74085153,1
73702037,74200220,74305483,1
72733582,441347,74725383,1
70219423,70010813,75207054,1
AgoraMarket,Betcoin.ag,75219609,1
869081,BitPay.com,75304503,1
72603304,69121427,75738001,1
69173924,ePay.info_CoinJoinMess,76052000,12
103564,1144,76234113,1
23247,Kraken.com,76334418,1
72603304,70847733,76357658,1
CoinTrader.net_LocalBitcoins.com,NitrogenSports.eu,76384632,1
Indacoin.com,26443,76461197,1
1040721,860,76590000,1
FaucetBOX.com,Bleutrade.com,76628794,5
Loanbase.com,BitPay.com,76729319,2
73597674,BitPay.com,76935600,1
70927660,28873361,76941222,1
72077412,8343,76960000,1
1576,818721,77062182,2
70037420,SatoshiMines.com,77093824,1
37686970,74067375,77285941,1
73907604,BitPay.com,77527822,3
Bitfinex.com,1116,77608140,3
326403,ePay.info_CoinJoinMess,77816975,1
999Dice.com,1709925,78148313,3
Bittrex.com,3009,78527917,4
ePay.info_CoinJoinMess,22379530,78576993,2
0,Hashnest.com,78846460,4
70691648,68856934,78862485,3
70744026,Betcoin.ag,78945000,1
73963652,72629351,79046769,1
15434517,860,79082130,1
13793,ePay.info_CoinJoinMess,79908106,1
73832817,1040721,79990000,1
27939,144727,80226252,1
16425460,71110897,80885606,1
CoinTrader.net_LocalBitcoins.com,70900879,80925576,1
CoinTrader.net_LocalBitcoins.com,73231339,80925576,1
Bittrex.com,1747,81033866,1
Huobi.com,C-Cex.com,81245161,1
Coin.mx,CoinTrader.net_LocalBitcoins.com,81347765,1
16425460,70924611,81566825,1
13097303,986113,81641401,1
10172196,70769141,81845824,1
40537925,Bittrex.com,81847687,1
72078429,BTC-e.com,82083944,1
29976439,0,82095499,1
SatoshiBet.com,71737560,82180128,1
69278079,72183392,82370181,1
999Dice.com,1309,83359325,16
1747,91531,83397338,2
5510652,69932383,83700942,2
72051908,71815927,83790000,1
71110794,69487697,84187037,1
73963652,73335292,84573097,1
70166642,860,84732171,1
40948331,70010165,84887726,1
73387955,265,85136238,1
71005802,999Dice.com,85377177,3
999Dice.com,10231195,85397327,2
71999710,69435319,85507293,1
70927666,37686970,85516745,1
71502261,71502876,85562701,1
70062872,73336551,85816085,1
3504685,73831355,86173577,1
73649821,CoinTrader.net_LocalBitcoins.com,86410809,1
Bittrex.com,7366,86538720,2
39740391,70611619,86713291,1
71345216,70742902,86881965,1
Cryptsy.com,21953,86988168,1
5325883,69878799,87538901,1
70900879,72497902,87633278,1
71894951,70011036,87696406,1
Cryptsy.com,Cex.io,87793967,4
73963652,71502263,87868787,1
70665275,Btc38.com,88048568,1
70270892,0,88198134,2
Cryptsy.com,Bter.com,88230191,3
70115593,BitcoinVideoCasino.com,88860114,6
ePay.info_CoinJoinMess,1580,89029344,2
70611844,Bitstamp.net,89235524,1
Cex.io,Btc38.com,89490000,1
37686970,73675787,89633868,1
597,48852186,89993282,1
Loanbase.com,999Dice.com,90000000,1
CoinKite.com,ePay.info_CoinJoinMess,90000000,1
69827719,71659227,90081017,1
ePay.info_CoinJoinMess,641,90372853,1
72078407,73597479,90434337,2
Bittrex.com,Bitstamp.net,90435952,1
C-Cex.com,Bittrex.com,90491322,5
Hashnest.com,796.com,91000524,1
70376669,69984672,91517196,1
71005802,Bittrex.com,91823945,2
29770994,56796266,92198953,1
269,BTC-e.com,92302005,4
Betcoin.ag,NitrogenSports.eu,92691000,1
FaucetBOX.com,227,92843811,7
BitVC.com,Poloniex.com,94222415,1
107,Cryptsy.com,94663734,1
C-Cex.com,1144,94734979,2
70795870,1294,94980000,1
74278522,73414848,94989125,1
2024,Xapo.com,95804792,5
Hashnest.com,1848635,95809184,1
Bittrex.com,417,96283874,2
2137677,46020326,96602788,1
BX.in.th,Poloniex.com,96746526,1
73832817,69565876,96832449,1
Cryptsy.com,CoinTrader.net_LocalBitcoins.com,97020289,2
69278079,73387955,97195202,1
BTCJam.com,523,97872132,1
57,ePay.info_CoinJoinMess,98857159,2
Hashnest.com,Bittrex.com,98963261,1
69382154,73466833,99058448,1
971734,0,99358000,1
16425460,71764440,99890000,1
BTCJam.com,BitZino.com,99950000,1
BTCJam.com,Coinomat.com,99950000,1
ePay.info_CoinJoinMess,2218,99970000,1
107,1103,99980000,1
131539,BTC-e.com,99990000,1
73388652,72236394,99990000,1
197576,AgoraMarket,99990000,1
71293041,Cex.io,99990000,1
Poloniex.com,3328,99990000,1
71293041,Xapo.com,99990000,1
Huobi.com,Bittrex.com,99990000,1
71293041,921102,99990000,1
74278400,CoinTrader.net_LocalBitcoins.com,99990000,1
Bittrex.com,CoinTrader.net_LocalBitcoins.com,99990000,1
73832817,73179427,99990000,1
342,AgoraMarket,99990000,1
1149,1747,99990000,1
74278400,BTCJam.com,99990000,1
71293041,Bittrex.com,99990000,1
197576,73021289,99990000,1
BitPay.com,73623419,99999000,1
1528188,NitrogenSports.eu,100000000,2
OrderBook.net,Bitfinex.com,100000000,1
1580,67933107,100990000,1
BitKonan.com,CoinTrader.net_LocalBitcoins.com,101033065,1
74147229,860,101085000,1
7319,GoCelery.com,101148673,1
1155021,Xapo.com,101260030,1
BitcoinWallet.com,AgoraMarket,101261095,2
71005802,BTC-e.com,101594290,4
Cryptsy.com,Hashnest.com,101716127,1
71607478,265,101735336,2
11619,2468655,102000000,1
Cex.io,Xapo.com,102004690,2
71345216,441347,102550070,2
20042,CoinPayments.net,102730240,2
LiteBit.eu,BTC-e.com,103033300,1
71345216,70192998,103107711,2
1848635,BitcoinVideoCasino.com,103220000,1
Cavirtex.com,AgoraMarket,103472198,1
Matbea.com,61,103834053,6
4010,2648,103950000,1
5325883,43247935,104510000,1
4184355,CloudBet.com,104930000,1
70062872,72602382,105010000,1
2812638,70246061,105104467,1
16425460,74304487,105511395,1
12814737,24477212,105657938,2
16425460,69643360,105685859,2
Poloniex.com,208434,105706386,3
BtcTrade.com,424,105739748,2
70691530,70141217,105833961,1
FaucetBOX.com,Bittrex.com,106310366,7
16209115,BTC-e.com,106311234,1
Poloniex.com,424,106757276,2
28663,Cryptsy.com,107006551,1
73702037,70324478,107039251,2
668819,Bittrex.com,107632100,1
BitPay.com,55698043,107714100,1
57821814,SatoshiBet.com,107829552,2
524123,40898941,107987369,1
6801,BTCJam.com,108130896,1
4386660,CoinTrader.net_LocalBitcoins.com,108274750,1
61,1294,108341200,1
8121566,69434492,108483874,1
Hashnest.com,BTC-e.com,109357403,5
5048116,72577151,109404742,1
Kraken.com,BitBargain.co.uk,109426850,1
Bittrex.com,PocketDice.io,109980000,1
2137677,860,111217000,1
144947,Bter.com,111780000,1
PrimeDice.com,Cryptsy.com,111798762,5
396,421,113119382,2
Poloniex.com,1294,113170723,1
11167300,0,114694012,2
70403439,1580,114890000,2
40948331,73910951,115104105,2
74304372,0,115733940,2
FaucetBOX.com,Cryptonator.com,115909176,10
17651984,424,116387897,1
ePay.info_CoinJoinMess,1155021,116640505,2
968,AgoraMarket,117086379,2
763,BitPay.com,117917080,2
70717848,16425460,117948096,1
BitZillions.com,ePay.info_CoinJoinMess,119111963,7
243017,BtcTrade.com,119324032,2
999Dice.com,70795870,119990000,1
CoinPayments.net,Xapo.com,120005900,1
16425460,73205038,120173515,1
Huobi.com,4395,120290000,1
PrimeDice.com,1580,120990115,1
BitcoinWallet.com,40948331,121273035,2
Hashnest.com,424,121412003,1
71502261,71163241,121472894,1
10172196,72078407,121505644,1
16425460,73596839,121632410,1
NitrogenSports.eu,CoinTrader.net_LocalBitcoins.com,122079989,2
Bleutrade.com,C-Cex.com,122258194,4
71005802,CoinTrader.net_LocalBitcoins.com,122345426,3
Poloniex.com,Bitcurex.com,122406536,1
Cex.io,289,122824075,1
CoinGaming.io,CoinTrader.net_LocalBitcoins.com,123071648,3
523,ePay.info_CoinJoinMess,123313065,2
16425460,69121518,123553665,1
71345216,72995513,123767901,2
FaucetBOX.com,Igot.com,124058484,8
72078429,69409004,124155985,1
70927660,74250816,124360228,1
1285711,763,124775898,1
289,ePay.info_CoinJoinMess,125031579,2
Igot.com,Cryptsy.com,125133234,2
Poloniex.com,1116,125631484,1
69827719,69513958,125721290,2
4931,4412,126115831,1
BitcoinWallet.com,265,126643713,2
69304322,71869072,126874043,1
58474589,71058573,126999899,1
0,Loanbase.com,127251594,2
1576,MercadoBitcoin.com.br,127464575,1
73963652,CoinTrader.net_LocalBitcoins.com,127747431,1
Poloniex.com,Bitfinex.com,127998597,1
70953647,69853588,128236288,1
71110794,70377659,128249900,1
14378846,BTC-e.com,129520677,1
72603304,72315466,129630000,1
Coin.mx,265,129900000,1
MercadoBitcoin.com.br,Poloniex.com,129990000,1
FaucetBOX.com,BTC-e.com,130107939,9
BitPay.com,57,130216406,1
2024,421,130999862,7
523,Bittrex.com,132316114,3
Loanbase.com,29976439,132990023,1
69984672,70586820,134194020,1
Kraken.com,Xapo.com,134592335,1
LuckyB.it,2445947,134999320,99
103564,CoinTrader.net_LocalBitcoins.com,135238854,1
69827719,70927503,135683977,1
BTCJam.com,Cryptsy.com,135950000,1
71110794,7166942,137401495,2
MiddleEarthMarketplace,0,138121434,1
23052521,BTC-e.com,138340110,1
72603304,71528215,138644217,1
7015593,CoinTrader.net_LocalBitcoins.com,139214655,1
72078429,72444911,139610000,1
Loanbase.com,BTC-e.com,139940000,1
71136349,72497980,139974956,2
1538606,BTC-e.com,140467735,2
1833,Bitstamp.net,141000187,1
69278079,69722595,141202892,2
71005802,16621,141536540,4
FaucetBOX.com,1941,141732057,9
71502261,72786585,142627751,1
Poloniex.com,1956,143331606,3
69382154,BTC-e.com,143799324,1
70979549,ePay.info_CoinJoinMess,144650051,3
BTCJam.com,1576,144946656,1
Bitso.com,NitrogenSports.eu,144990000,1
71946830,BitZino.com,144990000,1
MeXBT.com,Bitso.com,146004174,1
1929471,265,146022465,1
Bleutrade.com,Cryptsy.com,146373426,4
BTCJam.com,Loanbase.com,146400000,2
9206469,BitPay.com,146475484,1
15681814,70037420,146666000,1
16756080,47786823,147432988,1
BitcoinWallet.com,860,147581292,1
72733276,71319712,149080000,2
71005802,421,149190437,3
1747,36686,149501600,1
BX.in.th,424,149930000,1
71554277,71999760,149990000,1
763,CloudBet.com,150108895,4
Cryptsy.com,PrimeDice.com,150276298,2
C-Cex.com,BTC-e.com,150770844,6
622667,BabylonMarket,150945198,2
MercadoBitcoin.com.br,BitcoinFog,151000042,1
7428810,ePay.info_CoinJoinMess,151501912,2
72603304,70454760,151586000,1
NitrogenSports.eu,AgoraMarket,152257108,2
69278079,69330851,152268079,1
BitBargain.co.uk,265,153133000,1
1095,0,153386090,22
820287,Cryptsy.com,153733155,1
69251458,AgoraMarket,153899104,1
71058677,265,154423520,1
971734,ePay.info_CoinJoinMess,155160775,1
523,BitBargain.co.uk,155487823,1
470955,265,155675897,1
15681814,SatoshiMines.com,156333810,2
NitrogenSports.eu,CoinGaming.io,156894607,2
BitPay.com,1098103,157017700,1
BitBargain.co.uk,69775837,158385000,1
BitPay.com,42093257,159078600,1
289,BTC-e.com,159975503,2
71502261,70690251,160684055,1
70691530,72367961,160696009,1
11167300,49059556,161250848,2
6801,CoinTrader.net_LocalBitcoins.com,161291199,1
74014592,265,162575000,1
72078429,69644696,164231689,2
1836,Cryptsy.com,164610000,2
70691530,72655374,165009678,1
1040721,ePay.info_CoinJoinMess,165221163,1
Cex.io,421,165230112,4
3219197,0,166230000,1
LuckyB.it,1528188,166427764,114
71005802,49985443,166617936,5
BitBargain.co.uk,0,166653167,1
23052521,71214399,166860110,1
469,2067710,167186352,1
70011205,2652,167900000,1
69120252,71973585,168347907,1
71658626,45157988,168420605,1
71685903,265,168570000,2
4010,BitBay.net,168980000,1
36114,144727,169576884,2
71973585,BTC-e.com,169641651,1
999Dice.com,SatoshiMines.com,169869055,2
BitBargain.co.uk,CoinTrader.net_LocalBitcoins.com,169990000,1
73571615,72077412,170779692,1
Hashnest.com,CoinTrader.net_LocalBitcoins.com,171622000,2
ePay.info_CoinJoinMess,BitZillions.com,172519931,10
48852186,BTC-e.com,172590571,2
0,BTCJam.com,172985329,4
Poloniex.com,CoinTrader.net_LocalBitcoins.com,173268113,2
4010,Bitstamp.net,173890000,1
MiddleEarthMarketplace,ePay.info_CoinJoinMess,174114062,2
BTCJam.com,FortuneJack.com,174950000,1
1956,7683210,176361820,1
71842975,71136944,176867506,1
69932029,3632038,176875101,1
289,1469,177483214,1
1929471,11167300,178918457,1
523,Paymium.com,179352212,1
45379539,61,179980000,1
ePay.info_CoinJoinMess,73126978,180816588,1
700,BTC-e.com,181917994,1
Bittrex.com,763,183606694,3
Huobi.com,417,183721947,1
72052118,580339,184503319,1
821,175,184740000,1
SatoshiDice.com,9305107,184979577,2
243017,4395,185052639,3
69173924,73623403,185171000,27
Poloniex.com,C-Cex.com,186940000,1
CoinTrader.net_LocalBitcoins.com,69224828,187581258,1
Bittrex.com,BitPay.com,188381171,3
33074938,BitcoinVideoCasino.com,188409188,7
FYBSG.com,Xapo.com,189860154,1
1116,OKCoin.com,189993617,2
Huobi.com,2545,190548142,2
Poloniex.com,Kraken.com,191513590,2
65837976,265,192546195,1
Bittrex.com,1116,192588435,3
16425460,22823356,192602249,3
73073877,74198912,194267640,1
Hashnest.com,Cryptsy.com,194990000,1
Cryptsy.com,BTCC.com,196205235,1
CoinPayments.net,ePay.info_CoinJoinMess,196462479,4
BitBargain.co.uk,BitcoinFog,196681200,1
73963652,BTC-e.com,196964876,1
66002753,860,196990000,1
71554277,71581228,197985000,1
2137677,CoinTrader.net_LocalBitcoins.com,198950000,1
2758406,70376669,199490000,1
91531,1149,199500175,1
ePay.info_CoinJoinMess,71058677,199590000,1
BTCJam.com,OrderBook.net,199950000,1
VirWoX.com,CoinTrader.net_LocalBitcoins.com,199979616,2
CoinTrader.net_LocalBitcoins.com,71058527,199980062,1
Cryptsy.com,289,199988168,1
VirWoX.com,71685903,199988230,1
VirWoX.com,3208,199988230,1
VirWoX.com,CoinGaming.io,199988230,1
Kraken.com,TheRockTrading.com,199988650,1
75854,Cryptsy.com,199989000,1
VirWoX.com,Betcoin.ag,199989634,1
VirWoX.com,49158,199989866,1
VirWoX.com,72129925,199989866,1
VirWoX.com,1956,199989866,1
VirWoX.com,BitcoinVideoCasino.com,199989866,1
986113,7964604,199990000,1
2226,Kraken.com,199990000,1
FYBSG.com,0,199990000,1
71554277,73571494,199990000,1
72839276,74303820,199990000,1
197576,Poloniex.com,199990000,1
999Dice.com,BTCC.com,199990000,1
FYBSG.com,CoinTrader.net_LocalBitcoins.com,199990000,1
523,CoinTrader.net_LocalBitcoins.com,201038690,1
CoinTrader.net_LocalBitcoins.com,MiddleEarthMarketplace,201072914,1
Bittrex.com,52799260,201261911,1
Bitcoin.de,Cryptsy.com,201386107,1
72051908,73073877,201990000,1
396,2024,202692328,1
29227,BTC-e.com,203393639,1
91531,1747,204510175,1
73962910,0,205366807,19
Hashnest.com,0,206095368,4
74121213,1144,207485000,1
Cavirtex.com,CoinTrader.net_LocalBitcoins.com,207490205,1
CoinTrader.net_LocalBitcoins.com,69905412,208183281,1
ePay.info_CoinJoinMess,BTCOracle.com,208719533,1
PrimeDice.com,MaiCoin.com,208860000,2
Cex.io,Huobi.com,209560000,1
73336533,71633185,210025111,1
CoinTrader.net_LocalBitcoins.com,42274033,210539100,1
FaucetBOX.com,HolyTransaction.com,211557209,15
1836,61,211739414,3
Bitfinex.com,4810,211818558,1
Cex.io,BX.in.th,212204340,2
2812638,70036681,212287424,1
175,OKCoin.com,212519679,3
211981,294,214278775,1
BitVC.com,4395,214314480,1
295653,Bitstamp.net,214535731,1
71005802,289,214617013,5
24898729,71607478,215253097,1
69357034,73963652,215785000,1
71110794,71109873,216562380,1
0,Genesis-Mining.com,218461601,2
69880033,32631712,219407305,1
71842975,72812658,219814388,1
1580,999Dice.com,219890000,3
Bittrex.com,5162,220359000,1
Cex.io,Bitstamp.net,220980003,2
1929471,860,221884018,4
Poloniex.com,1309,221990539,3
1958285,35253899,222888123,1
MiddleEarthMarketplace,CoinTrader.net_LocalBitcoins.com,223570405,1
16425460,72603512,223782240,2
Cryptsy.com,Kraken.com,224382231,2
1576,Poloniex.com,227194095,3
70063369,Hashnest.com,228641306,1
1328107,ePay.info_CoinJoinMess,229360224,1
CoinTrader.net_LocalBitcoins.com,400308,229850000,1
Cex.io,Bitfinex.com,229990000,1
AgoraMarket,6640878,231073500,1
Bitfinex.com,Cex.io,232173947,1
CoinTrader.net_LocalBitcoins.com,Bitcoin.de,232862203,1
2618527,Xapo.com,234442272,2
C-Cex.com,289,236537276,1
PrimeDice.com,999Dice.com,237852360,7
FaucetBOX.com,1309,238500743,17
AgoraMarket,CoinGaming.io,238591518,1
AgoraMarket,Bitcurex.com,238591518,1
BitPay.com,1621394,239153400,1
1226,Huobi.com,239531640,1
ePay.info_CoinJoinMess,SimpleCoin.cz,239830000,1
396,NitrogenSports.eu,240079154,1
6294,BTC-e.com,241252958,3
72629335,860,241622866,1
10556559,BTC-e.com,242741890,1
73388652,421,243724872,1
255398,29504847,243901342,1
4931,ePay.info_CoinJoinMess,244580000,1
149308,Poloniex.com,245066402,4
13951749,70744154,245719000,1
1457,62205816,245901387,16
ePay.info_CoinJoinMess,PrimeDice.com,246571512,21
4251,BitBargain.co.uk,247480000,1
15279166,BTC-e.com,249037718,1
Bittrex.com,1144,249555083,5
ePay.info_CoinJoinMess,441955,249840000,1
ePay.info_CoinJoinMess,2064109,249840000,1
57,Bter.com,250186507,1
Bter.com,1469,250789231,1
Hashnest.com,Cex.io,251117492,2
70795870,999Dice.com,251902982,5
FaucetBOX.com,Cryptsy.com,252281844,18
HaoBTC.com,1252,253140000,1
Bittrex.com,1370,253670000,1
0,999Dice.com,254881640,2
2812638,73021461,256166693,1
NitrogenSports.eu,CloudBet.com,256635516,2
71502261,71215159,258536927,1
243017,Huobi.com,258699155,3
2293476,4570,260305767,1
7030145,289,260402911,1
Huobi.com,523,260990000,1
Cryptsy.com,Poloniex.com,261288830,3
597,73649799,261388457,1
821,OKCoin.com,262990000,1
71005802,Cryptonator.com,263217326,6
24131,821,263317883,1
73937528,BTC-e.com,263368699,1
70744193,CoinPayments.net,263571631,1
MercadoBitcoin.com.br,AllCoin.com,265485463,1
20488,Hashnest.com,265705850,1
0,71685150,266200821,1
SatoshiDice.com,9969,267607801,5
FaucetBOX.com,289,269649232,20
70482234,CloudBet.com,269960000,3
71842975,BitcoinWallet.com,271095483,1
70063369,265,271576954,1
ePay.info_CoinJoinMess,1147089,271820000,1
BitBargain.co.uk,72839276,273160600,1
Kraken.com,8679,274037065,1
PrimeDice.com,Bittrex.com,275519497,2
71685150,424,277606017,1
70849007,73205569,278937900,1
Bittrex.com,MercadoBitcoin.com.br,280348606,3
BX.in.th,BTC-e.com,280832567,7
16768780,BTC-e.com,281327248,1
999Dice.com,24477212,282150904,5
Poloniex.com,0,282436385,4
1580,61,285409970,5
71005802,HolyTransaction.com,286260384,7
3871,10073457,287197079,2
Bittrex.com,421,287247654,10
ePay.info_CoinJoinMess,SatoshiDice.com,287470000,1
Poloniex.com,BitPay.com,289480908,3
47786823,9896,290709131,2
PrimeDice.com,BTC-e.com,290990197,1
73807082,0,293405619,1
CoinTrader.net_LocalBitcoins.com,7328,293956413,2
5348,BtcTrade.com,294037917,3
71005802,Cex.io,294411620,9
6174,71894951,295205925,2
2010811,BitPay.com,296424460,2
Bittrex.com,523,296733341,3
103564,Cex.io,297154578,1
Bittrex.com,C-Cex.com,299575046,6
Bitfinex.com,BTCJam.com,299890000,1
FoxBit.com.br,7779201,299930000,1
71293041,0,299970000,3
VirWoX.com,999Dice.com,299979500,2
VirWoX.com,Cex.io,299979732,2
2648,ePay.info_CoinJoinMess,299990000,1
Bitso.com,Bitfinex.com,299990000,1
904,7366,299990000,1
29141,57,300000000,1
1226,424,300040000,1
763,154,301004797,1
MaiCoin.com,CloudBet.com,301023163,1
641,Xapo.com,302128492,3
69278079,71528798,303111400,2
CoinTrader.net_LocalBitcoins.com,3167,304417356,1
ePay.info_CoinJoinMess,871,305692795,2
71842975,71502876,306687042,1
154,3632038,307712307,2
26152,AgoraMarket,308075537,1
BTCJam.com,CoinTrader.net_LocalBitcoins.com,308249873,3
71005802,ePay.info_CoinJoinMess,308521248,9
69644586,Loanbase.com,308659893,2
69409522,73963652,309086521,1
FaucetBOX.com,ePay.info_CoinJoinMess,310182635,24
289,1493,310390315,4
26152,NucleusMarket,312681373,1
255398,73910572,315121342,1
CoinKite.com,CloudBet.com,318600000,1
Cryptsy.com,6355,319928168,1
2545,Huobi.com,319990000,1
CoinJar.com,SatoshiDice.com,321358141,1
243017,BTCC.com,323050000,2
CoinKite.com,66002753,324170658,1
ePay.info_CoinJoinMess,73910348,326768255,1
Cex.io,269,327404591,3
Huobi.com,796.com,327474179,3
BitBargain.co.uk,CoinPayments.net,327805367,1
BitBargain.co.uk,18459488,327805367,1
71502261,72707270,328029465,2
57,NitrogenSports.eu,330371250,2
2445947,LuckyB.it,332003858,99
70849007,16768780,333608185,2
Bitso.com,CoinKite.com,334990000,1
73962910,Xapo.com,335573599,17
ePay.info_CoinJoinMess,49766186,335620990,1
ePay.info_CoinJoinMess,1528188,335620990,1
ePay.info_CoinJoinMess,2445947,335620990,1
73910968,BTC-e.com,335950000,2
60997896,69382546,338380259,1
73754451,860,339357368,1
44468996,1493,341895537,1
Cex.io,763,342435403,2
5145429,BTC-e.com,342937011,1
BTCJam.com,Xapo.com,343301041,4
17272,BTC-e.com,344227500,1
65565377,73806749,345023990,1
71502261,71110794,345434485,2
0,AgoraMarket,346899655,1
107,1294,348366587,1
1116,Bitfinex.com,348440626,2
122,Xapo.com,351052659,1
CoinTrader.net_LocalBitcoins.com,44468996,354553700,1
72733276,BTC-e.com,355943215,1
73336527,ePay.info_CoinJoinMess,357124269,1
FaucetBOX.com,1144,360899700,29
70429474,74067171,362106915,1
Poloniex.com,ePay.info_CoinJoinMess,362514809,3
51306882,71972822,362636640,1
PrimeDice.com,0,363109230,5
2624,BTC-e.com,363794411,6
CoinTrader.net_LocalBitcoins.com,69225461,363930000,1
Cex.io,Luno.com,370457842,1
751407,1493,371180000,1
469,FortuneJack.com,372516425,1
FaucetBOX.com,421,373874048,31
70691530,69931860,374313737,1
4931,CoinTrader.net_LocalBitcoins.com,374795831,2
BTCJam.com,0,376303239,5
16425460,69932507,377130851,4
CoinTrader.net_LocalBitcoins.com,71869112,382917063,1
ePay.info_CoinJoinMess,CoinSpot.com.au,383444833,1
51306882,265,384058082,1
72942238,ePay.info_CoinJoinMess,384985303,1
Kraken.com,BTCC.com,385691371,1
71737560,SatoshiBet.com,385854241,4
ePay.info_CoinJoinMess,199545,389253350,1
23010605,0,390626000,2
26152,BitBargain.co.uk,393075442,1
70744026,NitrogenSports.eu,394550000,5
ePay.info_CoinJoinMess,71947473,395066324,1
ePay.info_CoinJoinMess,71553156,395066324,1
VirWoX.com,61,396957751,1
60997896,69932507,398932613,3
ePay.info_CoinJoinMess,3918,399054705,2
Cex.io,Kraken.com,399369875,2
VirWoX.com,CloudBet.com,399967977,3
ePay.info_CoinJoinMess,16621,399990000,1
ePay.info_CoinJoinMess,GoCelery.com,399990000,1
417,ePay.info_CoinJoinMess,400305302,1
469,ePay.info_CoinJoinMess,400409072,2
Cex.io,Poloniex.com,400990952,1
CoinTrader.net_LocalBitcoins.com,70610682,401578140,1
71502261,72472408,401987893,2
BitBargain.co.uk,BTC-e.com,402440642,1
ePay.info_CoinJoinMess,348,406549725,3
AgoraMarket,BTCC.com,407200302,1
CoinTrader.net_LocalBitcoins.com,826601,410863791,1
71005802,Cryptsy.com,412788849,12
73597179,BTC-e.com,413816445,1
ePay.info_CoinJoinMess,3170007,414480000,1
1285711,72890901,415720198,1
70429474,69381871,417094067,1
BTCJam.com,57,417932007,4
AgoraMarket,70638358,418643111,1
12241960,Bitfinex.com,419437845,1
Cryptsy.com,Btc38.com,420697846,3
69906437,BTC-e.com,421342000,1
FoxBit.com.br,1576,422205138,1
11167300,1929471,426528111,2
72629502,BTradeAustralia.com-incoming,427169938,1
469,NitrogenSports.eu,428918580,1
71502261,71685981,430541977,1
CoinTrader.net_LocalBitcoins.com,11648379,430719492,1
ePay.info_CoinJoinMess,SatoshiBet.com,431128810,3
CoinTrader.net_LocalBitcoins.com,Poloniex.com,431142818,1
ePay.info_CoinJoinMess,NitrogenSports.eu,431190442,4
2705,40948331,431990160,1
71502261,10172196,433415897,1
ePay.info_CoinJoinMess,1469,439904140,10
56353767,CoinTrader.net_LocalBitcoins.com,440312644,1
ePay.info_CoinJoinMess,536,441823771,12
Loanbase.com,Kraken.com,445028593,1
Cex.io,Betcoin.ag,446245975,3
71554277,57807400,447572073,1
6166631,1443066,447636534,2
70403439,999Dice.com,449360000,10
69147676,289,451541107,2
56353767,70612435,452180770,1
Bittrex.com,OKCoin.com,452332270,3
74014592,860,453099000,1
FaucetBOX.com,Cex.io,458770900,33
72104556,12936,463945674,1
622965,BTC-e.com,464186053,1
Bittrex.com,Bter.com,465602368,5
57,BitcoinVideoCasino.com,467081582,1
69906437,73047350,467138000,1
Bittrex.com,Xapo.com,467596012,6
Huobi.com,1226,467967757,1
AgoraMarket,SatoshiMines.com,468359874,1
BitAces.me,CoinTrader.net_LocalBitcoins.com,469079523,2
Bittrex.com,2024,470214596,9
FoxBit.com.br,4273,472136901,1
898,Kraken.com,473000000,1
FaucetBOX.com,1294,475280300,36
AgoraMarket,NitrogenSports.eu,476957801,1
13793,144727,479117502,1
19938530,69330772,480255455,1
0,BTC-e.com,489239270,4
22883451,71032473,491277619,1
CoinTrader.net_LocalBitcoins.com,1170198,493490000,1
2385549,BitPay.com,494789532,1
AgoraMarket,CoinSpot.com.au,496965340,1
Cavirtex.com,Hashnest.com,497841564,1
71972824,2705,498571388,1
BitVC.com,Cryptsy.com,498682731,2
ePay.info_CoinJoinMess,71319609,499680000,2
Bitcoin.de,Bitstamp.net,499940000,1
VirWoX.com,PrimeDice.com,499968059,3
Bittrex.com,Igot.com,499970000,1
2226,8121566,499990000,1
Poloniex.com,3221577,499990000,1
PrimeDice.com,FortuneJack.com,499990000,1
Igot.com,28663,501212976,1
ePay.info_CoinJoinMess,294,502482665,6
417,Poloniex.com,503880387,2
58471,2758406,505330929,1
72104556,Xapo.com,508902766,1
Poloniex.com,BitcoinVideoCasino.com,508980000,1
Bitfinex.com,NitrogenSports.eu,510601146,2
ePay.info_CoinJoinMess,BX.in.th,511832794,6
546621,68650011,513650000,1
19938530,265,513866652,2
513,1436,514621672,1
330126,107,516047239,1
3792617,CoinTrader.net_LocalBitcoins.com,517824421,1
72102457,5308530,518735000,1
72760121,BitcoinWallet.com,518738580,1
255398,70742958,521185244,1
AgoraMarket,Bitfinex.com,524440372,1
AgoraMarket,CloudBet.com,527285428,1
AgoraMarket,BitPay.com,528138550,1
AgoraMarket,70246066,531185374,1
103564,Cryptsy.com,531285108,1
70849007,BTC-e.com,535258383,1
72104556,FaucetBOX.com,537435027,1
14250,860,537507073,1
Cryptsy.com,1647,540412256,5
469,Bittrex.com,541382777,2
Poloniex.com,421,543621642,5
70849007,70218112,543738412,1
MercadoBitcoin.com.br,Bitstamp.net,551000127,1
BitcoinVideoCasino.com,69225461,552053841,2
999Dice.com,PrimeDice.com,556979133,13
4395,Huobi.com,557283058,5
Bittrex.com,0,559975477,7
68870830,73336419,562569254,1
72104556,Cryptsy.com,563200027,1
AgoraMarket,BTCCPool,566508373,1
ePay.info_CoinJoinMess,33971,566510675,5
524180,37686970,566641872,2
AgoraMarket,70822201,567966308,1
9969,SatoshiDice.com,570993000,5
4931,Cryptopay.me,575725831,1
39921,Kraken.com,578071517,1
1956,45021,578763311,1
1956,289,578763311,1
1956,BtcTrade.com,578763311,1
1956,6294,578763311,1
1956,72628215,578763311,1
1956,Bleutrade.com,578763311,1
1956,109619,578763311,1
1956,69769,578763311,1
1956,278515,578763311,1
1956,TheRockTrading.com,578763311,1
Cavirtex.com,197576,579628076,4
AgoraMarket,Cavirtex.com,585139080,1
AgoraMarket,1834092,590225992,1
AgoraMarket,70796466,590570709,1
AgoraMarket,BtcMarkets.net,591887823,1
AgoraMarket,424,592570308,1
BtcTrade.com,Btc38.com,593100093,1
Bitcoin.de,Hashnest.com,593990000,1
Bitcoin.de,Cex.io,593990000,1
AgoraMarket,BitAces.me,594394255,1
73231720,Kraken.com,595291147,2
20047,BitBargain.co.uk,595990000,1
AgoraMarket,Bter.com,598958528,1
VirWoX.com,BitPay.com,599964794,3
70849007,3170007,599990000,1
AgoraMarket,84134,600419231,1
PrimeDice.com,1294,602499739,3
Loanbase.com,CoinTrader.net_LocalBitcoins.com,602944214,2
CoinTrader.net_LocalBitcoins.com,9560575,603225390,1
10169632,860,608069787,2
Kraken.com,BTC-e.com,612860867,2
71895288,999Dice.com,615326800,15
CoinSpot.com.au,C-Cex.com,617280521,1
871,ePay.info_CoinJoinMess,617763816,1
LiteBit.eu,Bittrex.com,619980000,2
72104556,21349,621164101,1
417,BTCC.com,621209502,2
73597179,10141917,627583873,1
4810,BTC-e.com,629897200,3
CoinTrader.net_LocalBitcoins.com,33293913,629990000,1
40537925,CoinTrader.net_LocalBitcoins.com,631894163,1
999Dice.com,70403439,632035066,7
26152,BitBay.net,632407403,1
1472686,BTC-e.com,632870000,1
Poloniex.com,BX.in.th,633348226,5
26152,Kraken.com,633679119,1
BitPay.com,898,637968300,1
71005802,1309,642664986,18
74068308,265,643663445,2
72104556,1972,647077855,1
72104556,ePay.info_CoinJoinMess,647192255,1
BX.in.th,CoinTrader.net_LocalBitcoins.com,649210050,2
Poloniex.com,Bter.com,650023162,11
1958285,69226070,654390000,1
72104556,1095,655720655,1
Bittrex.com,289,656301265,2
72078303,BitPay.com,657247809,31
CoinTrader.net_LocalBitcoins.com,Bittrex.com,661445076,1
VirWoX.com,ePay.info_CoinJoinMess,669500627,3
73336527,73937528,669721111,1
TheRockTrading.com,Bitstamp.net,673210000,1
Bittrex.com,Huobi.com,673787456,2
BtcTrade.com,Cryptsy.com,675500047,1
3391048,69827719,676488010,3
FoxBit.com.br,ePay.info_CoinJoinMess,680971703,2
1838853,1747,684328438,1
71005802,1144,685295672,22
4931,72707085,686495831,1
PrimeDice.com,Xapo.com,686781359,24
44388409,BTC-e.com,689738867,1
Kraken.com,Purse.io,689893540,1
1116,2385549,690256455,1
Huobi.com,1647,692022869,2
21361595,Purse.io,695968288,3
1956,269,696087223,2
FYBSG.com,CoinKite.com,698490006,1
69225461,CoinTrader.net_LocalBitcoins.com,699980000,1
BitAces.me,3328,700012671,1
4251,Cex.io,701577688,1
Cryptsy.com,1956,705930240,6
70796631,70141425,706489351,1
69801586,16621,706547648,1
37686970,BTC-e.com,707018209,2
Cryptsy.com,0,707181805,3
Bitstamp.net,SatoshiDice.com,707329912,1
BTCJam.com,Hashnest.com,709000455,1
2758406,69409522,715748926,1
8343,BTC-e.com,719149114,1
CoinArch.com,6801,720002511,8
73336527,70979539,725116929,1
73336527,17079271,735801272,1
Cryptsy.com,Bittrex.com,744747355,6
5432877,BTC-e.com,744957436,1
5048116,2624,749114500,2
CoinTrader.net_LocalBitcoins.com,441347,750763165,2
ePay.info_CoinJoinMess,2338,754078560,3
22883451,CoinTrader.net_LocalBitcoins.com,757551238,2
71005802,1294,761902268,22
Kraken.com,CoinKite.com,762830850,1
CoinTrader.net_LocalBitcoins.com,5145429,763544277,2
Cavirtex.com,73493167,771291795,1
FoxBit.com.br,Kraken.com,773504962,2
255398,72786312,773806586,2
1695643,1493,777426463,1
1528188,LuckyB.it,783386780,114
69225461,BitcoinVideoCasino.com,796558967,2
523,871,799990000,1
Igot.com,2812638,799990000,1
2226,Huobi.com,799990000,1
871,523,801000126,1
Bitfinex.com,CloudBet.com,803535452,2
Bitfinex.com,3348,805814498,3
56353767,69330299,810473350,2
Poloniex.com,Bitstamp.net,816494157,1
CoinTrader.net_LocalBitcoins.com,1576,826203718,1
255398,CoinTrader.net_LocalBitcoins.com,839492684,3
ePay.info_CoinJoinMess,Bleutrade.com,841299292,11
417,PrimeDice.com,841618854,1
1621394,BitPay.com,843538700,1
1771091,Bitstamp.net,851760360,1
Genesis-Mining.com,Bitfinex.com,867453405,12
4931,72262002,867590000,1
4931,BTC-e.com,870060000,1
CoinTrader.net_LocalBitcoins.com,Betcoin.ag,888891366,2
Igot.com,AgoraMarket,891688263,3
Cex.io,BTC-e.com,897994618,5
AgoraMarket,269,901361277,2
Loanbase.com,3328,904382934,1
Loanbase.com,27723,904382934,1
Loanbase.com,0,904382934,1
Loanbase.com,Poloniex.com,904382934,1
Loanbase.com,1848635,904382934,1
Loanbase.com,Xapo.com,904382934,1
Loanbase.com,269,904382934,1
533251,243017,911840000,1
Loanbase.com,Bitfinex.com,912482973,2
1580,BTC-e.com,914404848,2
AgoraMarket,441956,925585823,2
532,BTC-e.com,928460982,3
73073925,265,929176982,1
CoinTrader.net_LocalBitcoins.com,19985,934440054,1
Bittrex.com,269,937740479,16
3219197,860,944430000,1
69251458,ePay.info_CoinJoinMess,957353336,1
71554277,73466818,973632501,1
70586705,0,983896035,2
69697250,Cryptsy.com,986980000,1
Poloniex.com,Bittrex.com,995078403,9
15681814,BTC-e.com,999940000,1
CoinTrader.net_LocalBitcoins.com,Betcoin.tm,999940000,1
HappyCoins.com,CoinTrader.net_LocalBitcoins.com,999977601,1
BX.in.th,Cex.io,999990000,1
Bter.com,6294,999990000,1
Bter.com,154,999990000,1
MaiCoin.com,Bitstamp.net,999990000,1
Bitfinex.com,BitPay.com,999990000,1
Bter.com,1294,999990000,1
BtcTrade.com,BTCC.com,999990000,1
Bter.com,BTC-e.com,999990000,1
Bter.com,421,999990000,1
1252,Bitstamp.net,999990000,1
Bter.com,0,999990000,1
Bter.com,1580,999990000,1
Bter.com,Bittrex.com,999990000,1
CoinTrader.net_LocalBitcoins.com,Satoshi-Karoshi.com,999990000,1
Bter.com,CloudBet.com,999990000,1
523,4010,999990000,1
Bter.com,1309,999990000,1
144727,Bittrex.com,1000000000,1
LakeBTC.com,Cryptsy.com,1000000000,1
13335,Poloniex.com,1000000000,1
FoxBit.com.br,70743567,1000235054,2
Bitfinex.com,MercadoBitcoin.com.br,1000729385,1
Bitfinex.com,BTCC.com,1000829642,1
Bitfinex.com,3792617,1000872762,1
Bter.com,SatoshiCircle.com,1001228339,1
BtcTrade.com,Bter.com,1001784996,1
AgoraMarket,294,1004283222,2
Betcoin.tm,22087460,1005480000,1
20047,898,1008037128,3
CoinKite.com,70586705,1010000000,1
Cex.io,Hashnest.com,1013488214,5
6294,Bitfinex.com,1016211926,2
2758406,69357034,1017056957,1
FortuneJack.com,Bter.com,1019473594,4
Kraken.com,Cex.io,1020324850,1
1748906,BTC-e.com,1022182734,2
Bitfinex.com,3328,1031143428,1
AgoraMarket,CoinJar.com,1042525540,2
396,15681814,1047221723,1
ePay.info_CoinJoinMess,255398,1053075974,1
69251458,Xapo.com,1074339471,1
HaoBTC.com,OKCoin.com,1080225513,1
AgoraMarket,339430,1095697053,2
CoinTrader.net_LocalBitcoins.com,Loanbase.com,1099990000,1
Bittrex.com,Cex.io,1100848276,3
1956,17566139,1106228230,1
1956,CoinMotion.com,1106228230,1
1956,61394841,1106228230,1
1956,1294,1106228230,1
1956,Cryptopay.me,1106228230,1
1956,143306,1106228230,1
1956,73519155,1106228230,1
1956,Hashnest.com,1106228230,1
1956,29427,1106228230,1
1956,19381,1106228230,1
CoinChimp.com,BitLaunder.com,1108600255,1
ePay.info_CoinJoinMess,73272517,1122882012,1
Bitstamp.net,70611844,1126662454,1
Bitstamp.net,Hashnest.com,1126662454,1
MercadoBitcoin.com.br,9207,1131714450,1
62205816,1457,1132770000,81
Bitcoin.de,FaucetBOX.com,1134803130,1
697,ePay.info_CoinJoinMess,1137278450,1
2026252,CoinTrader.net_LocalBitcoins.com,1137590620,2
BitcoinVideoCasino.com,ePay.info_CoinJoinMess,1140030000,2
45157988,BTC-e.com,1146231102,6
2758406,70219423,1148599349,1
ePay.info_CoinJoinMess,227,1148604116,3
CoinTrader.net_LocalBitcoins.com,OKCoin.com,1152246756,1
103564,BTC-e.com,1156105781,1
1956,Bitstamp.net,1157526622,2
72104556,0,1157676317,2
72104556,71005802,1159355116,2
CoinTrader.net_LocalBitcoins.com,BTCJam.com,1170790000,1
AgoraMarket,FYBSG.com,1183419897,2
1956,CoinJar.com,1209145429,1
1956,70534535,1209145429,1
1956,29976439,1209145429,1
1956,BTCC.com,1209145429,1
1956,85197,1209145429,1
1956,73021938,1209145429,1
1956,HolyTransaction.com,1209145429,1
1956,BTCJam.com,1209145429,1
523,PrimeDice.com,1209782149,6
VirWoX.com,BitBargain.co.uk,1210044909,1
VirWoX.com,1144,1210044909,1
VirWoX.com,1294,1210044909,1
VirWoX.com,Hashnest.com,1210044909,1
VirWoX.com,FortuneJack.com,1210044909,1
72104556,2227706,1211752944,2
CoinTrader.net_LocalBitcoins.com,BitBargain.co.uk,1212458368,3
72104556,405610,1237048882,2
2758406,CoinTrader.net_LocalBitcoins.com,1242552382,1
Huobi.com,21361595,1251273414,4
CoinKite.com,BitPay.com,1255641945,3
Kraken.com,898,1262309985,2
CoinTrader.net_LocalBitcoins.com,70193026,1266238418,1
CoinTrader.net_LocalBitcoins.com,71397082,1266238418,1
271415,1070,1292974200,2
999Dice.com,ePay.info_CoinJoinMess,1293769566,5
ePay.info_CoinJoinMess,73911071,1294450648,2
19741802,ePay.info_CoinJoinMess,1301058083,1
898,72341694,1312715509,1
6355,Genesis-Mining.com,1327809455,1
6355,CoinJar.com,1327809455,1
6355,Kraken.com,1327809455,1
6355,38427,1327809455,1
6355,7667375,1327809455,1
6355,57,1327809455,1
6355,9244996,1327809455,1
6355,55782,1327809455,1
6355,Banx.io,1327809455,1
6355,CoinTrader.net_LocalBitcoins.com,1327809455,1
6355,QuadrigaCX.com,1327809455,1
6355,Xapo.com,1327809455,1
6355,Cavirtex.com,1327809455,1
OkLink.com,3980,1330873668,5
BTCJam.com,PrimeDice.com,1347983812,6
BitcoinVideoCasino.com,CoinTrader.net_LocalBitcoins.com,1350805465,5
2758406,72103956,1355379815,1
Bittrex.com,6294,1355997431,2
Bitcoin.de,Bter.com,1357531278,2
73597179,70272201,1357658346,2
BTC-e.com,1854533,1365068584,1
396,Xapo.com,1380275742,2
AgoraMarket,0,1395686713,3
Bittrex.com,1469,1399990000,1
FoxBit.com.br,BitBargain.co.uk,1402635023,2
VirWoX.com,BTC-e.com,1410033295,2
70796631,6956625,1411838047,1
ePay.info_CoinJoinMess,74068308,1417084413,2
Cryptsy.com,Bitstamp.net,1427059280,2
4251,Bitcurex.com,1430351709,1
ePay.info_CoinJoinMess,64475407,1432787322,2
73807082,74200013,1451667787,1
70063369,BitPay.com,1459788389,6
954,BitVC.com,1467221082,1
FoxBit.com.br,424,1470001125,1
ePay.info_CoinJoinMess,55834,1473930000,1
BitPay.com,0,1474616000,7
CoinTrader.net_LocalBitcoins.com,58471,1482889667,1
CoinTrader.net_LocalBitcoins.com,MercadoBitcoin.com.br,1485352785,1
CoinTrader.net_LocalBitcoins.com,73440977,1492264308,1
FoxBit.com.br,Bitfinex.com,1496113427,2
ePay.info_CoinJoinMess,860,1496890000,1
Bitfinex.com,CoinKite.com,1500678787,1
1469,11332,1505850835,1
Loanbase.com,ePay.info_CoinJoinMess,1518699044,1
73754451,CoinTrader.net_LocalBitcoins.com,1521052078,6
Bittrex.com,ePay.info_CoinJoinMess,1523714836,11
1144,11332,1532216556,1
SpectroCoin.com,Bitstamp.net,1551718999,1
18972,SpectroCoin.com,1551733599,3
69697250,73675789,1552310000,1
FoxBit.com.br,Bitstamp.net,1575478376,2
CoinJar.com,BitcoinFog,1581290000,1
269,0,1587075259,7
CloudBet.com,32589,1597242816,13
20914,Bitstamp.net,1599790000,2
4395,BitVC.com,1600000000,1
Cryptsy.com,2480,1600168168,1
Bittrex.com,35,1624314930,2
BitPay.com,BTC-e.com,1657441033,2
FaucetBOX.com,Xapo.com,1666636893,128
BTCJam.com,1848635,1673568665,2
1956,421,1684991541,2
1956,Poloniex.com,1684991541,2
1956,Cavirtex.com,1684991541,2
73751855,Bitfinex.com,1691296856,1
898,AgoraMarket,1693271845,5
103564,Poloniex.com,1697883531,1
Bittrex.com,BTC-e.com,1701816213,5
AgoraMarket,Bitcoin.de,1737056328,3
Cryptsy.com,269,1749383505,6
4186175,16748,1756295551,1
ePay.info_CoinJoinMess,BitcoinVideoCasino.com,1759084286,37
Bitstamp.net,688158,1774980000,1
1956,Huobi.com,1787908740,2
1956,4758,1807381902,2
1956,1805,1807381902,2
162192,1091440,1837078396,1
69251458,BTC-e.com,1844898230,1
1956,33351,1856690173,2
7471,ePay.info_CoinJoinMess,1901573098,1
Bittrex.com,PrimeDice.com,1948867286,5
289,38813,1951494073,1
CoinTrader.net_LocalBitcoins.com,8343,1960338260,2
ePay.info_CoinJoinMess,BetMoose.com,1973782198,1
2237,Bittrex.com,1983096050,2
71005802,Xapo.com,1986214732,59
Bter.com,OKCoin.com,1999980000,2
71005802,0,2000200222,50
Kraken.com,Bitcoin.de,2020540102,3
69251458,BitPay.com,2023908058,2
CoinJar.com,BtcMarkets.net,2024417595,1
CoinTrader.net_LocalBitcoins.com,69670227,2038069999,1
CoinTrader.net_LocalBitcoins.com,898,2043290277,1
AgoraMarket,44609,2044446730,5
821,70219773,2085133389,1
Bittrex.com,Poloniex.com,2090390000,5
72104556,6166631,2140057920,4
69251458,421,2148710944,2
FoxBit.com.br,CoinTrader.net_LocalBitcoins.com,2150174643,3
70796631,1182826,2177860570,1
1956,3810,2212456460,2
1956,Igot.com,2212456460,2
Bitstamp.net,72629335,2227521659,1
73807082,BitcoinWallet.com,2239190884,1
AgoraMarket,Kraken.com,2244938729,5
BitBargain.co.uk,AgoraMarket,2272300598,9
Bittrex.com,Hashnest.com,2280129885,11
Igot.com,14288920,2289940000,1
Bitfinex.com,BtcMarkets.net,2291669196,1
Poloniex.com,OkLink.com,2306036770,1
Poloniex.com,417,2306036770,1
70796631,ePay.info_CoinJoinMess,2336037311,3
1956,Xapo.com,2366672051,3
1956,763,2383834677,4
2433866,424,2397729681,1
FoxBit.com.br,BitPay.com,2401646953,3
CoinJar.com,AgoraMarket,2409768443,4
Bitfinex.com,175,2418523000,4
BitPay.com,ePay.info_CoinJoinMess,2461343022,6
Poloniex.com,BTC-e.com,2481824825,16
BtcTrade.com,BTC-e.com,2487900000,1
Bitcoin.de,ChangeTip.com,2499900000,1
73728551,BTCC.com,2499990000,1
Bitfinex.com,Bitcoin.de,2500999847,2
BTCGuild.com,CoinKite.com,2501279114,1
BTCGuild.com,Bitcoin.de,2501279114,1
999Dice.com,Poloniex.com,2501955174,6
BTCGuild.com,49697,2508419772,1
BTCGuild.com,Bitstamp.net,2508419772,1
SlushPool.com,4186175,2515147665,1
SlushPool.com,Cavirtex.com,2515147665,1
SlushPool.com,525,2515147665,1
SlushPool.com,Bitcurex.com,2515147665,1
SlushPool.com,31156,2515147665,1
SlushPool.com,73962769,2515147665,1
SlushPool.com,21646128,2515147665,1
SlushPool.com,4050,2515147665,1
SlushPool.com,Bitstamp.net,2515147665,1
SlushPool.com,Luno.com,2515147665,1
SlushPool.com,Bter.com,2515147665,1
CoinTrader.net_LocalBitcoins.com,424,2525309501,1
SlushPool.com,BTCCPool,2527395944,1
69697250,898,2527630000,1
AgoraMarket,Poloniex.com,2536299021,4
ePay.info_CoinJoinMess,7428810,2553158102,1
999Dice.com,Cryptsy.com,2575238380,9
6355,OKCoin.com,2655618910,2
CoinTrader.net_LocalBitcoins.com,BitcoinFog,2687798964,6
FaucetBOX.com,0,2692484461,214
ePay.info_CoinJoinMess,1941,2714278605,15
Bitstamp.net,70953647,2748805905,1
Bitstamp.net,72286880,2748805905,1
63592714,Huobi.com,2749519651,1
1956,CoinKite.com,2791219771,3
1848635,Betcoin.ag,2793970000,5
Bitcoin.de,Bittrex.com,2813237402,1
Bitfinex.com,ePay.info_CoinJoinMess,2820921675,4
396,BTC-e.com,2826259949,3
Kraken.com,458135,2840896618,1
Bitcoin.de,CoinGaming.io,2896205280,2
3328,Bitfinex.com,2900983464,1
107,330126,2901021573,1
Igot.com,BitcoinFog,2919090928,1
FoxBit.com.br,BTCJam.com,2935488188,5
25598919,ePay.info_CoinJoinMess,2999890000,1
Bter.com,Cryptsy.com,2999970000,3
CoinTrader.net_LocalBitcoins.com,294,2999980000,1
Purse.io,Kraken.com,3000000000,1
CoinTrader.net_LocalBitcoins.com,Huobi.com,3004608630,1
Cavirtex.com,Bitfinex.com,3010115066,3
69251458,Cryptsy.com,3040104159,2
1956,40231,3047567770,4
348,BTC-e.com,3061136299,10
73202641,2024,3071690071,1
107,CoinTrader.net_LocalBitcoins.com,3074449382,3
999Dice.com,1144,3082487144,25
Bitstamp.net,Coinmate.io,3101019028,1
107,71712065,3128361762,2
BitVC.com,424,3145114340,6
2411244,CloudBet.com,3249902463,3
CoinTrader.net_LocalBitcoins.com,BtcMarkets.net,3271990015,1
MercadoBitcoin.com.br,Bitfinex.com,3313476151,3
Bitfinex.com,BitcoinVideoCasino.com,3326196103,2
FoxBit.com.br,BTC-e.com,3330767300,5
Bitcoin.de,ePay.info_CoinJoinMess,3334542036,4
ePay.info_CoinJoinMess,BitcoinFog,3360715986,5
1956,1309,3369983082,4
Kraken.com,Igot.com,3392780647,1
1956,1144,3421601889,3
523,Bitfinex.com,3433731084,3
3792617,5325883,3453947305,4
Cryptsy.com,BTC-e.com,3484737916,20
CoinTrader.net_LocalBitcoins.com,PrimeDice.com,3611711091,4
1956,Btc38.com,3612453268,5
Igot.com,CoinTrader.net_LocalBitcoins.com,3645403083,7
1956,Bitfinex.com,3664072075,4
Bittrex.com,CoinGaming.io,3665539885,2
123270,1929471,3701781935,1
73336533,CoinTrader.net_LocalBitcoins.com,3726893783,1
63592714,424,3749529651,1
6355,ePay.info_CoinJoinMess,3983428365,3
6355,BTC-e.com,3983428365,3
6355,Cex.io,3983428365,3
1956,57,4000365200,4
Bitfinex.com,5384962,4001001495,1
Cavirtex.com,Bitstamp.net,4004303291,3
4395,BTCC.com,4016670000,1
BTC-e.com,CoinTrader.net_LocalBitcoins.com,4021434624,1
2825482,18972,4024913202,2
ePay.info_CoinJoinMess,2445467,4110681315,1
ePay.info_CoinJoinMess,20488,4110681315,1
ePay.info_CoinJoinMess,13793,4110681315,1
ePay.info_CoinJoinMess,7319,4110681315,1
ePay.info_CoinJoinMess,72969555,4110681315,1
ePay.info_CoinJoinMess,72890901,4110681315,1
ePay.info_CoinJoinMess,Peerbet.org,4110681315,1
ePay.info_CoinJoinMess,6491115,4110681315,1
ePay.info_CoinJoinMess,Cavirtex.com,4110681315,1
ePay.info_CoinJoinMess,69409296,4110681315,1
ePay.info_CoinJoinMess,MeXBT.com,4110681315,1
ePay.info_CoinJoinMess,2275995,4110681315,1
ePay.info_CoinJoinMess,3325210,4110681315,1
ePay.info_CoinJoinMess,122763,4110681315,1
ePay.info_CoinJoinMess,56717,4110681315,1
ePay.info_CoinJoinMess,4359631,4110681315,1
ePay.info_CoinJoinMess,59881034,4110681315,1
ePay.info_CoinJoinMess,28663,4110681315,1
ePay.info_CoinJoinMess,73858713,4110681315,1
ePay.info_CoinJoinMess,72288535,4110681315,1
ePay.info_CoinJoinMess,71424539,4110681315,1
ePay.info_CoinJoinMess,34293,4110681315,1
ePay.info_CoinJoinMess,27723,4110681315,1
ePay.info_CoinJoinMess,1487245,4110681315,1
ePay.info_CoinJoinMess,5632,4110681315,1
ePay.info_CoinJoinMess,71293795,4110681315,1
ePay.info_CoinJoinMess,8539,4110681315,1
ePay.info_CoinJoinMess,Purse.io,4110681315,1
ePay.info_CoinJoinMess,4938877,4110681315,1
ePay.info_CoinJoinMess,37160511,4110681315,1
ePay.info_CoinJoinMess,Matbea.com,4110681315,1
ePay.info_CoinJoinMess,7983,4110681315,1
ePay.info_CoinJoinMess,1443066,4110681315,1
Bitstamp.net,2844,4113604086,1
ePay.info_CoinJoinMess,BitBay.net,4115015619,2
ePay.info_CoinJoinMess,4273,4115838343,2
396,ePay.info_CoinJoinMess,4120149889,2
ePay.info_CoinJoinMess,72236394,4127272446,5
Cryptsy.com,763,4139718657,23
ePay.info_CoinJoinMess,Loanbase.com,4141586773,2
PrimeDice.com,103210,4164970963,3
ePay.info_CoinJoinMess,C-Cex.com,4171435544,6
ePay.info_CoinJoinMess,411,4183818047,5
CoinTrader.net_LocalBitcoins.com,Bitstamp.net,4224266010,4
1252,Bitfinex.com,4249960000,4
1956,5162,4327484753,6
ePay.info_CoinJoinMess,1833,4511862239,3
14288920,ePay.info_CoinJoinMess,4529800000,2
Bitfinex.com,1182826,4533424706,3
763,999Dice.com,4534995478,5
1309,11332,4561110422,3
CoinTrader.net_LocalBitcoins.com,BitPay.com,4562859844,2
73336533,BTC-e.com,4567990000,1
999Dice.com,421,4569487253,9
Bittrex.com,Cryptsy.com,4605212903,18
1182826,ePay.info_CoinJoinMess,4691326931,5
61,BTC-e.com,4710119164,23
Bitstamp.net,VirWoX.com,4779808345,1
Bitstamp.net,70900879,4802508454,1
Huobi.com,821,4814726155,2
ePay.info_CoinJoinMess,Igot.com,4855118461,3
Cex.io,1309,4899990000,1
TheRockTrading.com,Kraken.com,4926573293,2
CoinTrader.net_LocalBitcoins.com,CoinGaming.io,4929315786,11
999Dice.com,BTC-e.com,4956159463,5
CoinCafe.com,860,4999990000,1
Bitstamp.net,Bleutrade.com,4999990000,1
28415,61,4999990000,1
1956,3120,5003676231,5
BTCGuild.com,11686,5009628760,1
BTCGuild.com,763,5009628760,1
BTCGuild.com,CoinTrader.net_LocalBitcoins.com,5009628760,1
BTCGuild.com,20803,5009628760,1
BTCGuild.com,Bittrex.com,5009628760,1
BTCGuild.com,787953,5009628760,1
BTCGuild.com,107,5009628760,1
BTCGuild.com,1711316,5009628760,1
BTCGuild.com,Cex.io,5009628760,1
SlushPool.com,Bitcoin.de,5030295330,2
CoinTrader.net_LocalBitcoins.com,110115,5033863831,2
110115,Bitfinex.com,5035074928,2
110115,6048,5037283360,1
SlushPool.com,ePay.info_CoinJoinMess,5042543609,2
2226,Bitcoin.de,5099990000,1
ePay.info_CoinJoinMess,70796631,5150665350,3
1956,Kraken.com,5157571407,8
Bitfinex.com,424,5163829707,2
72864777,BTC-e.com,5239990000,1
103564,1647,5270557677,1
6355,Bittrex.com,5311237820,4
CoinTrader.net_LocalBitcoins.com,BitcoinVideoCasino.com,5370815894,5
ePay.info_CoinJoinMess,821,5381226168,8
Bittrex.com,1956,5394888581,15
Bitfinex.com,289,5399890000,1
523,BitBay.net,5499990000,1
NitrogenSports.eu,ePay.info_CoinJoinMess,5526035535,3
4251,523,5551027904,2
AgoraMarket,411,5605192155,12
954,OKCoin.com,5699990000,1
1956,1647,5858260703,7
ePay.info_CoinJoinMess,HolyTransaction.com,5858459048,28
PrimeDice.com,ePay.info_CoinJoinMess,6017662375,11
Huobi.com,421,6022060000,2
Bitstamp.net,OKCoin.com,6048288254,3
CoinTrader.net_LocalBitcoins.com,0,6132157586,6
1956,Bitcoin.de,6286621889,10
Bitfinex.com,525,6343979284,1
VirWoX.com,AgoraMarket,6482824853,12
GHash.io,612543,6539489837,1
GHash.io,Bittrex.com,6539489837,1
GHash.io,289,6539489837,1
GHash.io,71318983,6539489837,1
GHash.io,787953,6539489837,1
GHash.io,11790,6539489837,1
5162,424,6621791543,3
6355,Cryptsy.com,6639047275,5
6355,5162,6654421198,3
954,Bter.com,6799990000,1
1956,417,6910880005,8
CoinTrader.net_LocalBitcoins.com,CloudBet.com,6959734774,1
Bitstamp.net,294,7110711705,1
1493,72864777,7266277436,6
Bitstamp.net,8679,7279425750,2
1285711,4184355,7326374329,1
Bitstamp.net,20914,7357817818,2
Bitfinex.com,CoinTrader.net_LocalBitcoins.com,7397761294,8
Kano.is,Bitstamp.net,7466444639,3
Kano.is,32354,7466444639,3
Kano.is,41194305,7466444639,3
Kano.is,Bitfinex.com,7466444639,3
Kano.is,241309,7466444639,3
Kano.is,BTC-e.com,7466444639,3
Kano.is,BitcoinWallet.com,7466444639,3
Kano.is,421,7466444639,3
Kano.is,Xapo.com,7466444639,3
Kano.is,Kraken.com,7466444639,3
Kano.is,1956,7466444639,3
Kano.is,Bittrex.com,7466444639,3
Kano.is,33117,7466444639,3
Kano.is,269,7466444639,3
Kano.is,CoinTrader.net_LocalBitcoins.com,7466444639,3
BTCGuild.com,21646128,7510907874,2
Huobi.com,BTC-e.com,7515274569,6
BTCGuild.com,ePay.info_CoinJoinMess,7519487086,3
1956,OKCoin.com,7575397889,8
1956,Bter.com,7626696281,9
1285711,Huobi.com,7775899329,1
1285711,BitPay.com,7818672629,1
Kraken.com,342,7881611910,2
1294,11332,7901594061,3
ePay.info_CoinJoinMess,74225833,7950893139,2
Bter.com,763,7999920000,8
1285711,70482234,8053716167,2
103564,Huobi.com,8086947111,3
ePay.info_CoinJoinMess,CoinKite.com,8221362630,2
ePay.info_CoinJoinMess,2010811,8221362630,2
ePay.info_CoinJoinMess,Coin.mx,8221362630,2
ePay.info_CoinJoinMess,3120,8221362630,2
ePay.info_CoinJoinMess,144847,8221362630,2
ePay.info_CoinJoinMess,6174,8221362630,2
ePay.info_CoinJoinMess,38427,8221362630,2
1956,Genesis-Mining.com,8221837427,11
1285711,BTC-e.com,8274942827,2
1103,73336533,8510980000,1
103564,424,8524823596,2
ePay.info_CoinJoinMess,Cryptonator.com,8639286543,11
Bitcurex.com,26152,8704281107,6
Bitfinex.com,Kraken.com,8761928372,7
CoinTrader.net_LocalBitcoins.com,73754451,8855360000,3
999Dice.com,763,8931184458,5
Bitstamp.net,BitcoinFog,9023175282,1
Huobi.com,BTCC.com,9310739418,1
CoinTrader.net_LocalBitcoins.com,2652,9434895493,4
523,Bitcurex.com,9499989999,1
Bitcoin.de,Kraken.com,9632100000,1
AgoraMarket,BTC-e.com,9751791177,21
Luno.com,BTC-e.com,9797180130,1
Btc38.com,103564,9931841953,6
1285711,2411244,9994940000,1
BtcTrade.com,ePay.info_CoinJoinMess,9999990000,1
39799,424,9999990000,1
LakeBTC.com,CoinTrader.net_LocalBitcoins.com,10000000000,1
Huobi.com,525,10006016071,1
Cryptsy.com,ePay.info_CoinJoinMess,10008749956,4
BTCGuild.com,144727,10020078556,3
1285711,5632,10132350198,2
BitVC.com,OKCoin.com,10239653143,9
2226,Bitfinex.com,10299990000,1
Paymium.com,CoinKite.com,10382200000,1
Paymium.com,Bittrex.com,10382200000,1
2226,Bittrex.com,10499990000,1
Paymium.com,Bter.com,10508508701,1
ePay.info_CoinJoinMess,Betcoin.ag,10590986083,38
GHash.io,1956,10593088536,1
GHash.io,Igot.com,10593088536,1
GHash.io,72995349,10593088536,1
GHash.io,17989012,10593088536,1
GHash.io,40231,10593088536,1
GHash.io,1647,10593088536,1
GHash.io,Bitfinex.com,10593088536,1
GHash.io,Bitcurex.com,10593088536,1
GHash.io,74172449,10593088536,1
954,24131,10599990000,1
1956,ePay.info_CoinJoinMess,10661491444,11
73728551,Huobi.com,11360092544,2
Bitcoin.de,BitPay.com,11405888904,103
Bitcoin.de,BitcoinFog,11471754777,9
GHash.io,29427,11555933376,1
GHash.io,69383146,11555933376,1
GHash.io,9924517,11555933376,1
GHash.io,Bitstamp.net,11555933376,1
GHash.io,Luno.com,11555933376,1
GHash.io,4144433,11555933376,1
GHash.io,57,11555933376,1
Bitfinex.com,TheRockTrading.com,11608980000,1
ePay.info_CoinJoinMess,999Dice.com,11623035155,32
Paymium.com,ePay.info_CoinJoinMess,12000590597,1
Paymium.com,CoinTrader.net_LocalBitcoins.com,12000590597,1
Paymium.com,Bitstamp.net,12000590597,1
6048,CoinTrader.net_LocalBitcoins.com,12024673345,4
CoinTrader.net_LocalBitcoins.com,BTC-e.com,12214426547,13
ePay.info_CoinJoinMess,652099,12332043945,3
ePay.info_CoinJoinMess,23145220,12332043945,3
ePay.info_CoinJoinMess,385781,12463349542,4
Bitstamp.net,71136349,12482061437,1
SlushPool.com,Cex.io,12587986604,5
Kraken.com,Bitstamp.net,12649167616,7
ePay.info_CoinJoinMess,BitcoinWallet.com,12713472697,5
Bitfinex.com,OKCoin.com,12782516378,5
4050,39799,13002000354,2
Bitstamp.net,1879,13044742893,1
CoinTrader.net_LocalBitcoins.com,61,13127329097,20
AgoraMarket,CoinTrader.net_LocalBitcoins.com,13250243130,27
1252,424,13422660870,6
10079038,424,13686937776,2
1285711,AgoraMarket,13881581866,2
Bitstamp.net,CoinKite.com,14036096086,2
954,1116,14099990000,1
2067,421,14199990000,1
7216489,Huobi.com,14363480000,2
1285711,NitrogenSports.eu,14662418858,3
Bitstamp.net,BTCJam.com,14999990000,1
28415,411,15199990000,1
421,396,15774444617,48
CoinTrader.net_LocalBitcoins.com,ePay.info_CoinJoinMess,15826661227,10
1285711,ePay.info_CoinJoinMess,15877435258,2
Bitfinex.com,BTC-e.com,16207606280,9
CoinTrader.net_LocalBitcoins.com,Bitfinex.com,16253823527,6
Huobi.com,Bitstamp.net,16297583073,2
Bitstamp.net,20047,16540178891,2
Huobi.com,ePay.info_CoinJoinMess,16600020293,5
CoinTrader.net_LocalBitcoins.com,265,16929915130,26
GHash.io,Btc38.com,17132578373,2
1956,Bittrex.com,17531916335,19
7216489,73728551,17624950000,2
Huobi.com,424,17901977131,13
1285711,0,18024219467,3
GHash.io,7366,18095423213,2
GHash.io,Bter.com,18095423213,2
1956,7366,18814653755,20
103210,PrimeDice.com,18957146214,10
3348,122,19323263005,1
3348,CoinPayments.net,19323263005,1
2226,Bitstamp.net,19699970000,3
BitVC.com,796.com,19701386722,6
Bitstamp.net,TheRockTrading.com,19971624432,1
Bitstamp.net,69906316,19971624432,1
157228,Cavirtex.com,20045873005,1
157228,BTCJam.com,20045873005,1
157228,57,20045873005,1
157228,2063784,20045873005,1
157228,CoinJar.com,20045873005,1
157228,1647,20045873005,1
157228,1226,20045873005,1
157228,70534535,20045873005,1
157228,763,20045873005,1
157228,49062,20045873005,1
157228,Xapo.com,20045873005,1
157228,BTC-e.com,20045873005,1
157228,7219,20045873005,1
157228,Cryptsy.com,20045873005,1
157228,Luno.com,20045873005,1
157228,OKCoin.com,20045873005,1
157228,4411380,20045873005,1
CloudBet.com,1285711,20071606412,2
11332,28415,20202063078,2
525,2226,20206000252,9
1956,Cex.io,20397897580,20
ePay.info_CoinJoinMess,763,20553406575,5
ePay.info_CoinJoinMess,219804,20553406575,5
Bitcoin.de,AgoraMarket,20792462266,21
7216489,OKCoin.com,21007880000,2
523,69435312,21183985303,8
2226,1647,21999970000,3
GHash.io,MercadoBitcoin.com.br,22149021912,2
GHash.io,4395,22149021912,2
ePay.info_CoinJoinMess,AgoraMarket,22584257929,27
Bitstamp.net,71633835,22720430337,2
LuckyB.it,230001,23079148063,926
GHash.io,FYBSG.com,23111866752,2
Kraken.com,Bitfinex.com,23861646073,11
AgoraMarket,BitcoinFog,24044223338,47
CoinTrader.net_LocalBitcoins.com,860,24090938935,29
1420757,CoinCafe.com,24164089403,1
Kraken.com,Paymium.com,24650462442,2
ePay.info_CoinJoinMess,Cryptopay.me,24684949767,9
821,31311,25002009142,2
6355,0,25228379645,19
1647,103564,25638280363,8
2226,CoinTrader.net_LocalBitcoins.com,25799990000,1
Bitstamp.net,1116,25863390013,1
Bitstamp.net,BitcoinWallet.com,25863390013,1
Bitstamp.net,72577160,26131805832,3
954,Bitfinex.com,26299970000,3
Kraken.com,ePay.info_CoinJoinMess,26412202731,4
230001,LuckyB.it,26623999675,926
1098103,BitPay.com,26644888184,59
74330515,57,27366091763,1
74330515,20914,28146092763,1
Bitstamp.net,CoinMotion.com,28208699795,4
Bitstamp.net,7675245,28612195918,2
GHash.io,20673,28688511749,3
GHash.io,Hashnest.com,28688511749,3
74330515,417,28702968717,2
860,265,29188175986,5
Paymium.com,Bitcoin.de,29259998866,1
Kano.is,Cex.io,29865778556,12
BitBay.net,4251,30737509904,11
Bitstamp.net,763,30924871535,1
Bitfinex.com,Bitstamp.net,31301182375,12
1956,424,32193705994,39
796.com,7216489,32581840628,10
Bitstamp.net,Loanbase.com,33515326209,1
Bitstamp.net,BitZino.com,33515326209,1
LuckyB.it,ePay.info_CoinJoinMess,33617777153,1216
Bitstamp.net,Bter.com,34145982370,2
CoinTrader.net_LocalBitcoins.com,2067,34201000001,2
Bitstamp.net,3918,35067619116,1
OKCoin.com,2226,35478000156,11
73728551,424,36480618816,5
74330515,219804,37123609763,1
AgoraMarket,ePay.info_CoinJoinMess,37214619416,67
Bitstamp.net,3348,38515316209,2
2226,BTCC.com,38799980000,2
Kano.is,ePay.info_CoinJoinMess,39820890841,16
257316,CoinTrader.net_LocalBitcoins.com,39999980000,1
35045,BTC-e.com,40344570000,1
1956,Cryptsy.com,40603339106,46
Paymium.com,Kraken.com,41260589463,2
Kraken.com,CoinTrader.net_LocalBitcoins.com,41682608051,7
74330515,Purse.io,41694844763,1
GHash.io,CoinTrader.net_LocalBitcoins.com,44298043824,4
2226,Cryptsy.com,44799990000,1
2226,417,46299990000,1
74330515,Bitfinex.com,46349043500,1
BitVC.com,Huobi.com,46699904798,14
74330515,Cryptsy.com,46991126500,1
74330515,CoinTrader.net_LocalBitcoins.com,47117206266,2
74330515,175,47881383883,2
GHash.io,Kraken.com,49874688821,5
GHash.io,BTCCPool,49874688821,5
2226,1252,49999990000,1
71005934,Huobi.com,50082638249,1
2226,348,50287670000,2
74330515,AgoraMarket,50557612883,2
2226,424,50625964984,1
2226,Igot.com,51999980000,2
GHash.io,525,52360579959,6
AntPool.com,157228,52617351050,2
GHash.io,Bitcoin.de,54846471097,7
Huobi.com,Bitfinex.com,54863777593,8
74330515,BitcoinVideoCasino.com,55504183526,2
107,Bitstamp.net,55741757762,29
BTCGuild.com,0,57657174463,16
157228,424,60137619015,3
157228,Cex.io,60137619015,3
CoinTrader.net_LocalBitcoins.com,AgoraMarket,61288848511,53
157228,4050,62600000000,2
SlushPool.com,0,62903188183,25
Bitstamp.net,33004224,64098411140,7
GHash.io,OKCoin.com,67365249313,8
ePay.info_CoinJoinMess,787953,68603058899,1
ePay.info_CoinJoinMess,69260,68603058899,1
ePay.info_CoinJoinMess,71318983,68603058899,1
ePay.info_CoinJoinMess,68843468,68603058899,1
ePay.info_CoinJoinMess,CoinVault,68603058899,1
ePay.info_CoinJoinMess,11582,68603058899,1
ePay.info_CoinJoinMess,4641098,68603058899,1
ePay.info_CoinJoinMess,43366,68603058899,1
ePay.info_CoinJoinMess,70559982,68603058899,1
ePay.info_CoinJoinMess,17651984,68603058899,1
ePay.info_CoinJoinMess,72367415,68603058899,1
ePay.info_CoinJoinMess,264218,68603058899,1
ePay.info_CoinJoinMess,45550,68603058899,1
ePay.info_CoinJoinMess,29227,68603058899,1
ePay.info_CoinJoinMess,38161,68603058899,1
ePay.info_CoinJoinMess,4474579,68603058899,1
ePay.info_CoinJoinMess,38097914,68603058899,1
ePay.info_CoinJoinMess,55244,68603058899,1
ePay.info_CoinJoinMess,194937,68603058899,1
ePay.info_CoinJoinMess,56918,68603058899,1
ePay.info_CoinJoinMess,BitcoinVietnam.com.vn,68603058899,1
ePay.info_CoinJoinMess,12848518,68603058899,1
ePay.info_CoinJoinMess,HaoBTC.com,68603058899,1
ePay.info_CoinJoinMess,6257363,68603058899,1
ePay.info_CoinJoinMess,25844,68603058899,1
ePay.info_CoinJoinMess,66692,68603058899,1
ePay.info_CoinJoinMess,337445,68603058899,1
ePay.info_CoinJoinMess,46209,68603058899,1
ePay.info_CoinJoinMess,37810,68603058899,1
ePay.info_CoinJoinMess,796.com,68603058899,1
ePay.info_CoinJoinMess,4411380,68603058899,1
ePay.info_CoinJoinMess,523,68987885460,4
ePay.info_CoinJoinMess,269,69006794184,4
954,796.com,69339955102,4
Huobi.com,BitVC.com,70012001442,18
1956,BTC-e.com,70471488294,93
ePay.info_CoinJoinMess,BitPay.com,70721105770,41
Huobi.com,OKCoin.com,72063637831,8
GHash.io,424,72583912191,8
ePay.info_CoinJoinMess,47853,72713740214,2
ePay.info_CoinJoinMess,7219,72713740214,2
ePay.info_CoinJoinMess,44132,72713740214,2
ePay.info_CoinJoinMess,1956,72713740214,2
ePay.info_CoinJoinMess,6294,73094335967,7
GHash.io,Huobi.com,73949400413,7
ePay.info_CoinJoinMess,Poloniex.com,76886505123,13
2226,OKCoin.com,77388073514,7
7216489,424,78354190000,7
157228,Hashnest.com,80183492020,4
ePay.info_CoinJoinMess,1294,80750514256,61
Bitstamp.net,342,83851074575,4
265,BTC-e.com,85188078292,9
74330515,1116,86763737263,2
1956,0,87357219264,91
Bitstamp.net,898,89366487602,6
ePay.info_CoinJoinMess,Bittrex.com,90818512273,27
GHash.io,ePay.info_CoinJoinMess,91484622168,8
GHash.io,Cryptsy.com,91642180244,10
BitVC.com,71005934,95199958177,10
954,Xapo.com,99999980000,2
342,VirWoX.com,103756571778,42
Kano.is,Cryptsy.com,104530224946,42
Huobi.com,CoinTrader.net_LocalBitcoins.com,109624959095,18
ePay.info_CoinJoinMess,Bitfinex.com,116257576520,12
GHash.io,Cex.io,124989153413,12
74330515,ePay.info_CoinJoinMess,125596715026,3
Bitstamp.net,ePay.info_CoinJoinMess,126740302396,11
Bitstamp.net,Cavirtex.com,130920292565,1
Bitstamp.net,139010,130920292565,1
Paymium.com,AgoraMarket,134558487627,9
74330515,Poloniex.com,134589984763,3
ePay.info_CoinJoinMess,33351,137206117798,2
ePay.info_CoinJoinMess,Bitcurex.com,141339148540,4
Bitstamp.net,Xapo.com,147112015655,1
ePay.info_CoinJoinMess,LuckyB.it,150713355999,1228
Bitstamp.net,1514897,152940387505,3
ePay.info_CoinJoinMess,Hashnest.com,161957723668,14
ePay.info_CoinJoinMess,BTCJam.com,162255888215,11
ePay.info_CoinJoinMess,1309,166238476031,67
ePay.info_CoinJoinMess,Luno.com,170096182101,11
OKCoin.com,954,170738732436,23
ePay.info_CoinJoinMess,CoinJar.com,174208309633,12
ePay.info_CoinJoinMess,MercadoBitcoin.com.br,178744992503,21
Bitstamp.net,Cex.io,180627341864,2
74330515,BTC-e.com,181466178886,6
Bitstamp.net,Paymium.com,182179634771,2
Bitstamp.net,Bitcoin.de,191508547826,4
954,424,193856299129,9
Bitstamp.net,Poloniex.com,195437357732,3
BitPay.com,Bitstamp.net,204035154292,3
ePay.info_CoinJoinMess,31761,205809176697,3
ePay.info_CoinJoinMess,21441,205809176697,3
ePay.info_CoinJoinMess,1226,205809176697,3
ePay.info_CoinJoinMess,OkLink.com,205809176697,3
ePay.info_CoinJoinMess,2078,205809176697,3
157228,0,220504603055,11
ePay.info_CoinJoinMess,Kraken.com,223255568583,9
Bitstamp.net,0,232108082938,5
Bitstamp.net,Cryptsy.com,235373410021,8
257316,69697250,239999880000,6
Bitstamp.net,Kraken.com,241955018032,17
Bitstamp.net,MercadoBitcoin.com.br,244908091952,7
Bitstamp.net,BTC-e.com,247159035398,5
ePay.info_CoinJoinMess,1144,251072894747,54
ePay.info_CoinJoinMess,57,272776694269,25
ePay.info_CoinJoinMess,MaiCoin.com,274807301920,5
ePay.info_CoinJoinMess,289,279654677454,15
GHash.io,BTC-e.com,281308472493,29
Bitstamp.net,BitBargain.co.uk,284768941532,12
69801257,Bitfinex.com,299999960000,3
Bitstamp.net,Bittrex.com,337598875129,5
Huobi.com,70325236,339702852073,18
Bitstamp.net,LiteBit.eu,349051809847,21
ePay.info_CoinJoinMess,7366,353430597895,9
Bitstamp.net,Bitfinex.com,396793958069,20
ePay.info_CoinJoinMess,Bitstamp.net,427746123499,10
ePay.info_CoinJoinMess,CoinTrader.net_LocalBitcoins.com,440535628990,47
Bitstamp.net,73466840,444138798533,1
ePay.info_CoinJoinMess,Bitcoin.de,477429742507,26
Bitstamp.net,AgoraMarket,524534408672,11
424,2226,535258937994,21
2226,BTC-e.com,539398990000,2
70325236,Huobi.com,543983538244,10
ePay.info_CoinJoinMess,BitVC.com,548824471192,8
ePay.info_CoinJoinMess,Xapo.com,554778209591,360
74330515,Bitstamp.net,563476162112,18
ePay.info_CoinJoinMess,421,595149791183,162
ePay.info_CoinJoinMess,ChBtc.com,617427530091,9
ePay.info_CoinJoinMess,3073,686030588990,10
ePay.info_CoinJoinMess,Cryptsy.com,689993102628,107
ePay.info_CoinJoinMess,417,690141270305,11
Bitstamp.net,CoinTrader.net_LocalBitcoins.com,711456749851,18
GHash.io,0,750873087750,80
Bitstamp.net,107,790162962083,26
Bitstamp.net,2799,888277597066,2
ePay.info_CoinJoinMess,4050,960442824586,14
ePay.info_CoinJoinMess,4395,968664187216,16
Kano.is,0,1092595161330,439
ePay.info_CoinJoinMess,978,1097648942384,16
ePay.info_CoinJoinMess,BTC-e.com,2132779072328,72
ePay.info_CoinJoinMess,2545,2263900943667,33
ePay.info_CoinJoinMess,5348,2469710120364,36
ePay.info_CoinJoinMess,BTCC.com,2469719513214,37
ePay.info_CoinJoinMess,Cex.io,3025673402471,164
ePay.info_CoinJoinMess,1647,4802214122930,70
ePay.info_CoinJoinMess,0,5174815024028,476
ePay.info_CoinJoinMess,Btc38.com,5488244711920,80
ePay.info_CoinJoinMess,BtcTrade.com,7957959508011,117
ePay.info_CoinJoinMess,Bter.com,8716724821549,132
ePay.info_CoinJoinMess,525,11113695541638,162
ePay.info_CoinJoinMess,BTCCPool,14132230133194,206
ePay.info_CoinJoinMess,424,21710492300346,324
ePay.info_CoinJoinMess,Huobi.com,33066674389318,482
ePay.info_CoinJoinMess,OKCoin.com,37530002899819,550
