<eval run-id="KillianTheoThomasOsman_2" file="runs9_fol/KillianTheoThomasOsman_2_smartltn_elements_stop179_porter_k.trec++">
num_ret		2009011	79
num_rel		2009011	26
num_rel_ret	2009011	7
ret_size	2009011	3499239
rel_size	2009011	71154
rel_ret_size	2009011	8874
gP[1]		2009011	0.0
gR[1]		2009011	0.038461538461538464
gP[2]		2009011	0.0
gR[2]		2009011	0.038461538461538464
gP[3]		2009011	0.0
gR[3]		2009011	0.038461538461538464
gP[5]		2009011	0.0
gR[5]		2009011	0.07692307692307693
gP[10]		2009011	0.0
gR[10]		2009011	0.07692307692307693
gP[25]		2009011	0.0
gR[25]		2009011	0.11538461538461539
gP[50]		2009011	0.01707317073170732
gR[50]		2009011	0.23076923076923078
AgP		2009011	0.003076504616524559
num_ret		2009036	130
num_rel		2009036	136
num_rel_ret	2009036	51
ret_size	2009036	846804
rel_size	2009036	292336
rel_ret_size	2009036	115649
gP[1]		2009036	0.9994773519163763
gR[1]		2009036	0.007352941176470588
gP[2]		2009036	0.9995808168286685
gR[2]		2009036	0.014705882352941176
gP[3]		2009036	0.6663872112191124
gR[3]		2009036	0.022058823529411766
gP[5]		2009036	0.4075246344237751
gR[5]		2009036	0.03676470588235294
gP[10]		2009036	0.4603631049711323
gR[10]		2009036	0.07352941176470588
gP[25]		2009036	0.5136395657999249
gR[25]		2009036	0.16176470588235295
gP[50]		2009036	0.3872525707161059
gR[50]		2009036	0.2426470588235294
AgP		2009036	0.16249544774347574
num_ret		2009067	99
num_rel		2009067	12
num_rel_ret	2009067	9
ret_size	2009067	958665
rel_size	2009067	58012
rel_ret_size	2009067	15030
gP[1]		2009067	0.0
gR[1]		2009067	0.08333333333333333
gP[2]		2009067	0.0
gR[2]		2009067	0.08333333333333333
gP[3]		2009067	0.2928311057108141
gR[3]		2009067	0.16666666666666666
gP[5]		2009067	0.5407509092641999
gR[5]		2009067	0.3333333333333333
gP[10]		2009067	0.2789120399979536
gR[10]		2009067	0.4166666666666667
gP[25]		2009067	0.169850319464541
gR[25]		2009067	0.5833333333333334
gP[50]		2009067	0.10273377916251154
gR[50]		2009067	0.6666666666666666
AgP		2009067	0.21643795004024077
num_ret		2009073	70
num_rel		2009073	14
num_rel_ret	2009073	7
ret_size	2009073	937232
rel_size	2009073	13570
rel_ret_size	2009073	4541
gP[1]		2009073	0.15254237288135594
gR[1]		2009073	0.07142857142857142
gP[2]		2009073	0.07627118644067797
gR[2]		2009073	0.07142857142857142
gP[3]		2009073	0.12032854821638865
gR[3]		2009073	0.14285714285714285
gP[5]		2009073	0.07219712892983318
gR[5]		2009073	0.21428571428571427
gP[10]		2009073	0.03609856446491659
gR[10]		2009073	0.2857142857142857
gP[25]		2009073	0.04642874487808947
gR[25]		2009073	0.42857142857142855
gP[50]		2009073	0.023214372439044735
gR[50]		2009073	0.42857142857142855
AgP		2009073	0.041495154745960425
num_ret		2009074	111
num_rel		2009074	15
num_rel_ret	2009074	7
ret_size	2009074	616158
rel_size	2009074	16321
rel_ret_size	2009074	2169
gP[1]		2009074	0.0
gR[1]		2009074	0.06666666666666667
gP[2]		2009074	0.042682926829268296
gR[2]		2009074	0.13333333333333333
gP[3]		2009074	0.02845528455284553
gR[3]		2009074	0.13333333333333333
gP[5]		2009074	0.01707317073170732
gR[5]		2009074	0.13333333333333333
gP[10]		2009074	0.00853658536585366
gR[10]		2009074	0.13333333333333333
gP[25]		2009074	0.003414634146341464
gR[25]		2009074	0.13333333333333333
gP[50]		2009074	0.008224171005755003
gR[50]		2009074	0.2
AgP		2009074	0.007577013055299977
num_ret		2009078	123
num_rel		2009078	5
num_rel_ret	2009078	4
ret_size	2009078	993283
rel_size	2009078	63818
rel_ret_size	2009078	24731
gP[1]		2009078	0.93364299933643
gR[1]		2009078	0.2
gP[2]		2009078	0.9540305045287931
gR[2]		2009078	0.4
gP[3]		2009078	0.6360203363525287
gR[3]		2009078	0.4
gP[5]		2009078	0.5726261302224802
gR[5]		2009078	0.6
gP[10]		2009078	0.3763330251910805
gR[10]		2009078	0.8
gP[25]		2009078	0.15053321007643217
gR[25]		2009078	0.8
gP[50]		2009078	0.07526660503821608
gR[50]		2009078	0.8
AgP		2009078	0.6043207944822381
num_ret		2009085	47
num_rel		2009085	26
num_rel_ret	2009085	1
ret_size	2009085	730988
rel_size	2009085	130447
rel_ret_size	2009085	690
gP[1]		2009085	0.0
gR[1]		2009085	0.0
gP[2]		2009085	0.0
gR[2]		2009085	0.0
gP[3]		2009085	0.0
gR[3]		2009085	0.0
gP[5]		2009085	0.0
gR[5]		2009085	0.0
gP[10]		2009085	0.0
gR[10]		2009085	0.0
gP[25]		2009085	0.0
gR[25]		2009085	0.0
gP[50]		2009085	0.0
gR[50]		2009085	0.038461538461538464
AgP		2009085	0.0
num_q		all	7
num_ret		all	659
num_rel		all	234
num_rel_ret	all	86
ret_size	all	8582369
rel_size	all	645658
rel_ret_size	all	171684
MAgP		all	0.14791469495481996
gP[1]		all	0.29795181773345175
gR[1]		all	0.06674900729522579
gP[2]		all	0.29608077637534397
gR[2]		all	0.10589466555853111
gP[3]		all	0.24914606943595566
gR[3]		all	0.1290539292640133
gP[5]		all	0.23002456765314225
gR[5]		all	0.19923430910825868
gP[10]		all	0.16574904571299096
gR[10]		all	0.25516668205743837
gP[25]		all	0.126266639195047
gR[25]		all	0.3174839166435805
gP[50]		all	0.08768066701333439
gR[50]		all	0.37244513189891343
ircl_prn.0,00	all	0.38874350188125445
ircl_prn.0,10	all	0.32472731377825526
ircl_prn.0,20	all	0.29026030896882216
ircl_prn.0,30	all	0.2685135015130716
ircl_prn.0,40	all	0.21549239634252645
ircl_prn.0,50	all	0.14447160223108466
ircl_prn.0,60	all	0.12943291456684808
ircl_prn.0,70	all	0.07623901706751576
ircl_prn.0,80	all	0.05973540082398102
ircl_prn.0,90	all	0.0
ircl_prn.1,00	all	0.0
</eval>
