<eval run-id="KillianTheoThomasOsman_44" file="runs9_fol/KillianTheoThomasOsman_44_bm25_elements_stop179_porter_k1.2_b0.45.trec++">
num_ret		2009011	52
num_rel		2009011	26
num_rel_ret	2009011	2
ret_size	2009011	2963471
rel_size	2009011	71154
rel_ret_size	2009011	5235
gP[1]		2009011	0.0
gR[1]		2009011	0.0
gP[2]		2009011	0.0
gR[2]		2009011	0.0
gP[3]		2009011	0.0
gR[3]		2009011	0.0
gP[5]		2009011	0.0
gR[5]		2009011	0.0
gP[10]		2009011	0.0
gR[10]		2009011	0.038461538461538464
gP[25]		2009011	0.0
gR[25]		2009011	0.038461538461538464
gP[50]		2009011	0.0
gR[50]		2009011	0.07692307692307693
AgP		2009011	0.0
num_ret		2009036	94
num_rel		2009036	136
num_rel_ret	2009036	21
ret_size	2009036	802404
rel_size	2009036	292336
rel_ret_size	2009036	80108
gP[1]		2009036	0.9994773519163763
gR[1]		2009036	0.007352941176470588
gP[2]		2009036	0.541023079627913
gR[2]		2009036	0.014705882352941176
gP[3]		2009036	0.3606820530852753
gR[3]		2009036	0.014705882352941176
gP[5]		2009036	0.21640923185116517
gR[5]		2009036	0.029411764705882353
gP[10]		2009036	0.20817304409967866
gR[10]		2009036	0.03676470588235294
gP[25]		2009036	0.08723318160383542
gR[25]		2009036	0.04411764705882353
gP[50]		2009036	0.0857348368483758
gR[50]		2009036	0.11029411764705882
AgP		2009036	0.02877518150322627
num_ret		2009067	55
num_rel		2009067	12
num_rel_ret	2009067	1
ret_size	2009067	780519
rel_size	2009067	58012
rel_ret_size	2009067	778
gP[1]		2009067	0.0
gR[1]		2009067	0.0
gP[2]		2009067	0.0
gR[2]		2009067	0.08333333333333333
gP[3]		2009067	0.0
gR[3]		2009067	0.08333333333333333
gP[5]		2009067	0.0
gR[5]		2009067	0.08333333333333333
gP[10]		2009067	0.0
gR[10]		2009067	0.08333333333333333
gP[25]		2009067	0.0
gR[25]		2009067	0.08333333333333333
gP[50]		2009067	0.0
gR[50]		2009067	0.08333333333333333
AgP		2009067	0.0
num_ret		2009073	48
num_rel		2009073	14
num_rel_ret	2009073	3
ret_size	2009073	833195
rel_size	2009073	13570
rel_ret_size	2009073	881
gP[1]		2009073	0.15254237288135594
gR[1]		2009073	0.07142857142857142
gP[2]		2009073	0.07627118644067797
gR[2]		2009073	0.07142857142857142
gP[3]		2009073	0.12032854821638865
gR[3]		2009073	0.14285714285714285
gP[5]		2009073	0.07219712892983318
gR[5]		2009073	0.14285714285714285
gP[10]		2009073	0.03609856446491659
gR[10]		2009073	0.21428571428571427
gP[25]		2009073	0.014439425785966638
gR[25]		2009073	0.21428571428571427
gP[50]		2009073	0.007520534263524291
gR[50]		2009073	0.21428571428571427
AgP		2009073	0.022355745512133866
num_ret		2009074	50
num_rel		2009074	15
num_rel_ret	2009074	2
ret_size	2009074	586614
rel_size	2009074	16321
rel_ret_size	2009074	638
gP[1]		2009074	0.08536585365853659
gR[1]		2009074	0.06666666666666667
gP[2]		2009074	0.042682926829268296
gR[2]		2009074	0.06666666666666667
gP[3]		2009074	0.02845528455284553
gR[3]		2009074	0.06666666666666667
gP[5]		2009074	0.01707317073170732
gR[5]		2009074	0.06666666666666667
gP[10]		2009074	0.00853658536585366
gR[10]		2009074	0.06666666666666667
gP[25]		2009074	0.003414634146341464
gR[25]		2009074	0.06666666666666667
gP[50]		2009074	0.001707317073170732
gR[50]		2009074	0.13333333333333333
AgP		2009074	0.005853658536585367
num_ret		2009078	52
num_rel		2009078	5
num_rel_ret	2009078	4
ret_size	2009078	727875
rel_size	2009078	63818
rel_ret_size	2009078	24731
gP[1]		2009078	0.0
gR[1]		2009078	0.0
gP[2]		2009078	0.0
gR[2]		2009078	0.0
gP[3]		2009078	0.0
gR[3]		2009078	0.0
gP[5]		2009078	0.0
gR[5]		2009078	0.0
gP[10]		2009078	0.09336429993364301
gR[10]		2009078	0.2
gP[25]		2009078	0.11452522604449605
gR[25]		2009078	0.6
gP[50]		2009078	0.07526660503821608
gR[50]		2009078	0.8
AgP		2009078	0.08515082813489258
num_ret		2009085	40
num_rel		2009085	26
num_rel_ret	2009085	0
ret_size	2009085	719338
rel_size	2009085	130447
rel_ret_size	2009085	0
gP[1]		2009085	0.0
gR[1]		2009085	0.0
gP[2]		2009085	0.0
gR[2]		2009085	0.0
gP[3]		2009085	0.0
gR[3]		2009085	0.0
gP[5]		2009085	0.0
gR[5]		2009085	0.0
gP[10]		2009085	0.0
gR[10]		2009085	0.0
gP[25]		2009085	0.0
gR[25]		2009085	0.0
gP[50]		2009085	0.0
gR[50]		2009085	0.0
AgP		2009085	0.0
num_q		all	7
num_ret		all	391
num_rel		all	234
num_rel_ret	all	33
ret_size	all	7413416
rel_size	all	645658
rel_ret_size	all	112371
MAgP		all	0.020305059098119724
gP[1]		all	0.17676936835089554
gR[1]		all	0.02077831132452981
gP[2]		all	0.09428245612826561
gR[2]		all	0.03373349339735894
gP[3]		all	0.0727808408363585
gR[3]		all	0.043937575030012
gP[5]		all	0.04366850450181509
gR[5]		all	0.04603841536614645
gP[10]		all	0.04945321340915598
gR[10]		all	0.09135885123280081
gP[25]		all	0.03137320965437708
gR[25]		all	0.14955212854372515
gP[50]		all	0.024318470460469557
gR[50]		all	0.2025956536460738
ircl_prn.0,00	all	0.1962393786474015
ircl_prn.0,10	all	0.04976639519989036
ircl_prn.0,20	all	0.02519994116395306
ircl_prn.0,30	all	0.01947001029650598
ircl_prn.0,40	all	0.01947001029650598
ircl_prn.0,50	all	0.01704244435185953
ircl_prn.0,60	all	0.01704244435185953
ircl_prn.0,70	all	0.010971808314608759
ircl_prn.0,80	all	0.010971808314608759
ircl_prn.0,90	all	0.0
ircl_prn.1,00	all	0.0
</eval>
