<eval run-id="KillianTheoThomasOsman_198" file="runs9_fol/KillianTheoThomasOsman_198_bm25R_elements_stop179_porter_k1.7_b0.85.trec++">
num_ret		2009011	52
num_rel		2009011	26
num_rel_ret	2009011	2
ret_size	2009011	3043223
rel_size	2009011	71154
rel_ret_size	2009011	5235
gP[1]		2009011	0.0
gR[1]		2009011	0.0
gP[2]		2009011	0.0
gR[2]		2009011	0.0
gP[3]		2009011	0.0
gR[3]		2009011	0.0
gP[5]		2009011	0.0
gR[5]		2009011	0.0
gP[10]		2009011	0.0
gR[10]		2009011	0.038461538461538464
gP[25]		2009011	0.0
gR[25]		2009011	0.038461538461538464
gP[50]		2009011	0.0
gR[50]		2009011	0.07692307692307693
AgP		2009011	0.0
num_ret		2009036	90
num_rel		2009036	136
num_rel_ret	2009036	20
ret_size	2009036	791422
rel_size	2009036	292336
rel_ret_size	2009036	76185
gP[1]		2009036	0.08256880733944955
gR[1]		2009036	0.007352941176470588
gP[2]		2009036	0.541023079627913
gR[2]		2009036	0.014705882352941176
gP[3]		2009036	0.3606820530852753
gR[3]		2009036	0.014705882352941176
gP[5]		2009036	0.4163460881993573
gR[5]		2009036	0.029411764705882353
gP[10]		2009036	0.20817304409967866
gR[10]		2009036	0.03676470588235294
gP[25]		2009036	0.12709573460866067
gR[25]		2009036	0.058823529411764705
gP[50]		2009036	0.1154452675662221
gR[50]		2009036	0.11764705882352941
AgP		2009036	0.024029167309739193
num_ret		2009067	58
num_rel		2009067	12
num_rel_ret	2009067	1
ret_size	2009067	778384
rel_size	2009067	58012
rel_ret_size	2009067	778
gP[1]		2009067	0.0
gR[1]		2009067	0.08333333333333333
gP[2]		2009067	0.0
gR[2]		2009067	0.08333333333333333
gP[3]		2009067	0.0
gR[3]		2009067	0.08333333333333333
gP[5]		2009067	0.0
gR[5]		2009067	0.08333333333333333
gP[10]		2009067	0.0
gR[10]		2009067	0.08333333333333333
gP[25]		2009067	0.0
gR[25]		2009067	0.08333333333333333
gP[50]		2009067	0.0
gR[50]		2009067	0.08333333333333333
AgP		2009067	0.0
num_ret		2009073	51
num_rel		2009073	14
num_rel_ret	2009073	3
ret_size	2009073	849907
rel_size	2009073	13570
rel_ret_size	2009073	881
gP[1]		2009073	0.15254237288135594
gR[1]		2009073	0.07142857142857142
gP[2]		2009073	0.07627118644067797
gR[2]		2009073	0.07142857142857142
gP[3]		2009073	0.12032854821638865
gR[3]		2009073	0.14285714285714285
gP[5]		2009073	0.07219712892983318
gR[5]		2009073	0.14285714285714285
gP[10]		2009073	0.03609856446491659
gR[10]		2009073	0.21428571428571427
gP[25]		2009073	0.014439425785966638
gR[25]		2009073	0.21428571428571427
gP[50]		2009073	0.007219712892983319
gR[50]		2009073	0.21428571428571427
AgP		2009073	0.023174307064626306
num_ret		2009074	51
num_rel		2009074	15
num_rel_ret	2009074	2
ret_size	2009074	576382
rel_size	2009074	16321
rel_ret_size	2009074	638
gP[1]		2009074	0.0
gR[1]		2009074	0.0
gP[2]		2009074	0.042682926829268296
gR[2]		2009074	0.06666666666666667
gP[3]		2009074	0.02845528455284553
gR[3]		2009074	0.06666666666666667
gP[5]		2009074	0.01707317073170732
gR[5]		2009074	0.06666666666666667
gP[10]		2009074	0.00853658536585366
gR[10]		2009074	0.06666666666666667
gP[25]		2009074	0.003414634146341464
gR[25]		2009074	0.06666666666666667
gP[50]		2009074	0.001707317073170732
gR[50]		2009074	0.13333333333333333
AgP		2009074	0.0030129124820659973
num_ret		2009078	53
num_rel		2009078	5
num_rel_ret	2009078	4
ret_size	2009078	687858
rel_size	2009078	63818
rel_ret_size	2009078	24731
gP[1]		2009078	0.0
gR[1]		2009078	0.0
gP[2]		2009078	0.0
gR[2]		2009078	0.0
gP[3]		2009078	0.0
gR[3]		2009078	0.0
gP[5]		2009078	0.0
gR[5]		2009078	0.0
gP[10]		2009078	0.0
gR[10]		2009078	0.0
gP[25]		2009078	0.11452522604449605
gR[25]		2009078	0.6
gP[50]		2009078	0.07526660503821608
gR[50]		2009078	0.8
AgP		2009078	0.0845159236981973
num_ret		2009085	44
num_rel		2009085	26
num_rel_ret	2009085	0
ret_size	2009085	912131
rel_size	2009085	130447
rel_ret_size	2009085	0
gP[1]		2009085	0.0
gR[1]		2009085	0.0
gP[2]		2009085	0.0
gR[2]		2009085	0.0
gP[3]		2009085	0.0
gR[3]		2009085	0.0
gP[5]		2009085	0.0
gR[5]		2009085	0.0
gP[10]		2009085	0.0
gR[10]		2009085	0.0
gP[25]		2009085	0.0
gR[25]		2009085	0.0
gP[50]		2009085	0.0
gR[50]		2009085	0.0
AgP		2009085	0.0
num_q		all	7
num_ret		all	399
num_rel		all	234
num_rel_ret	all	32
ret_size	all	7639307
rel_size	all	645658
rel_ret_size	all	108448
MAgP		all	0.019247472936375545
gP[1]		all	0.03358731146011507
gR[1]		all	0.02315926370548219
gP[2]		all	0.09428245612826561
gR[2]		all	0.03373349339735894
gP[3]		all	0.0727808408363585
gR[3]		all	0.043937575030012
gP[5]		all	0.07223091255155682
gR[5]		all	0.04603841536614645
gP[10]		all	0.03611545627577841
gR[10]		all	0.06278742266137224
gP[25]		all	0.03706786008363783
gR[25]		all	0.15165296887985963
gP[50]		all	0.02851984322437032
gR[50]		all	0.20364607381414104
ircl_prn.0,00	all	0.12562927312773678
ircl_prn.0,10	all	0.05517876117455405
ircl_prn.0,20	all	0.027817987194663392
ircl_prn.0,30	all	0.020450933222231436
ircl_prn.0,40	all	0.020450933222231436
ircl_prn.0,50	all	0.020450933222231436
ircl_prn.0,60	all	0.020450933222231436
ircl_prn.0,70	all	0.012218604713996118
ircl_prn.0,80	all	0.012218604713996118
ircl_prn.0,90	all	0.0
ircl_prn.1,00	all	0.0
</eval>
