<eval run-id="MMAI" file="runs9_fol/LyazrhiNaitbachirInoussFadl_5_practice5_BM25_article_stopW_porter_k1.2__b0.4.trec++">
num_ret		2009011	1500
num_rel		2009011	26
num_rel_ret	2009011	25
ret_size	2009011	17500173
rel_size	2009011	71154
rel_ret_size	2009011	70427
gP[1]		2009011	0.0
gR[1]		2009011	0.038461538461538464
gP[2]		2009011	0.0
gR[2]		2009011	0.07692307692307693
gP[3]		2009011	0.0
gR[3]		2009011	0.11538461538461539
gP[5]		2009011	0.0
gR[5]		2009011	0.11538461538461539
gP[10]		2009011	0.09989931350114416
gR[10]		2009011	0.19230769230769232
gP[25]		2009011	0.15957613895892378
gR[25]		2009011	0.34615384615384615
gP[50]		2009011	0.07978806947946189
gR[50]		2009011	0.5
AgP		2009011	0.07554698071395996
num_ret		2009036	1500
num_rel		2009036	136
num_rel_ret	2009036	88
ret_size	2009036	8808368
rel_size	2009036	292336
rel_ret_size	2009036	279139
gP[1]		2009036	0.9994773519163763
gR[1]		2009036	0.007352941176470588
gP[2]		2009036	0.9986974431385297
gR[2]		2009036	0.014705882352941176
gP[3]		2009036	0.8455217977298339
gR[3]		2009036	0.022058823529411766
gP[5]		2009036	0.7116985080233297
gR[5]		2009036	0.03676470588235294
gP[10]		2009036	0.6450453617810158
gR[10]		2009036	0.0661764705882353
gP[25]		2009036	0.5961916403008248
gR[25]		2009036	0.15441176470588236
gP[50]		2009036	0.461595965598544
gR[50]		2009036	0.2647058823529412
AgP		2009036	0.2464556549772748
num_ret		2009067	1500
num_rel		2009067	12
num_rel_ret	2009067	12
ret_size	2009067	20245097
rel_size	2009067	58012
rel_ret_size	2009067	58012
gP[1]		2009067	0.0
gR[1]		2009067	0.0
gP[2]		2009067	0.0
gR[2]		2009067	0.0
gP[3]		2009067	0.0
gR[3]		2009067	0.0
gP[5]		2009067	0.18239953065415077
gR[5]		2009067	0.16666666666666666
gP[10]		2009067	0.09119976532707538
gR[10]		2009067	0.25
gP[25]		2009067	0.12471368865659771
gR[25]		2009067	0.5833333333333334
gP[50]		2009067	0.062356844328298855
gR[50]		2009067	0.5833333333333334
AgP		2009067	0.1018745661325603
num_ret		2009073	1500
num_rel		2009073	14
num_rel_ret	2009073	14
ret_size	2009073	13629209
rel_size	2009073	13570
rel_ret_size	2009073	13570
gP[1]		2009073	0.0
gR[1]		2009073	0.07142857142857142
gP[2]		2009073	0.0
gR[2]		2009073	0.14285714285714285
gP[3]		2009073	0.1978319783197832
gR[3]		2009073	0.21428571428571427
gP[5]		2009073	0.2778550753512981
gR[5]		2009073	0.2857142857142857
gP[10]		2009073	0.13892753767564905
gR[10]		2009073	0.35714285714285715
gP[25]		2009073	0.07926666724417267
gR[25]		2009073	0.6428571428571429
gP[50]		2009073	0.039633333622086334
gR[50]		2009073	0.7142857142857143
AgP		2009073	0.08910508793234294
num_ret		2009074	1500
num_rel		2009074	15
num_rel_ret	2009074	15
ret_size	2009074	16430158
rel_size	2009074	16321
rel_ret_size	2009074	16321
gP[1]		2009074	0.7957794417971409
gR[1]		2009074	0.06666666666666667
gP[2]		2009074	0.39788972089857044
gR[2]		2009074	0.06666666666666667
gP[3]		2009074	0.2652598139323803
gR[3]		2009074	0.06666666666666667
gP[5]		2009074	0.15915588835942818
gR[5]		2009074	0.13333333333333333
gP[10]		2009074	0.07957794417971409
gR[10]		2009074	0.26666666666666666
gP[25]		2009074	0.03183117767188563
gR[25]		2009074	0.5333333333333333
gP[50]		2009074	0.015915588835942816
gR[50]		2009074	0.5333333333333333
AgP		2009074	0.09289584578269812
num_ret		2009078	1500
num_rel		2009078	5
num_rel_ret	2009078	5
ret_size	2009078	14189618
rel_size	2009078	63818
rel_ret_size	2009078	63818
gP[1]		2009078	0.9701105908139882
gR[1]		2009078	0.2
gP[2]		2009078	0.4850552954069941
gR[2]		2009078	0.2
gP[3]		2009078	0.32337019693799607
gR[3]		2009078	0.2
gP[5]		2009078	0.3894489474310904
gR[5]		2009078	0.4
gP[10]		2009078	0.38482972474582866
gR[10]		2009078	0.8
gP[25]		2009078	0.15393188989833148
gR[25]		2009078	0.8
gP[50]		2009078	0.07696594494916574
gR[50]		2009078	0.8
AgP		2009078	0.4917719205318831
num_ret		2009085	1500
num_rel		2009085	26
num_rel_ret	2009085	16
ret_size	2009085	18838551
rel_size	2009085	130447
rel_ret_size	2009085	80395
gP[1]		2009085	0.0
gR[1]		2009085	0.0
gP[2]		2009085	0.0
gR[2]		2009085	0.0
gP[3]		2009085	0.0
gR[3]		2009085	0.0
gP[5]		2009085	0.0
gR[5]		2009085	0.0
gP[10]		2009085	0.0
gR[10]		2009085	0.0
gP[25]		2009085	0.0
gR[25]		2009085	0.0
gP[50]		2009085	0.0
gR[50]		2009085	0.0
AgP		2009085	0.0022483710860095743
num_q		all	7
num_ret		all	10500
num_rel		all	234
num_rel_ret	all	175
ret_size	all	109641174
rel_size	all	645658
rel_ret_size	all	581682
MAgP		all	0.15712834673667556
gP[1]		all	0.39505248350392935
gR[1]		all	0.05484424539046388
gP[2]		all	0.2688060656348706
gR[2]		all	0.07159325268568965
gP[3]		all	0.2331405409885705
gR[3]		all	0.08834225998091545
gP[5]		all	0.24579399283132813
gR[5]		all	0.16255194385446486
gP[10]		all	0.20563994960148957
gR[10]		all	0.2760419552436359
gP[25]		all	0.16364445753296228
gR[25]		all	0.4371556314833626
gP[50]		all	0.10517939240192853
gR[50]		all	0.48509403761504605
ircl_prn.0,00	all	0.5110934850693012
ircl_prn.0,10	all	0.3685397142908847
ircl_prn.0,20	all	0.3324850637966666
ircl_prn.0,30	all	0.2265708018382286
ircl_prn.0,40	all	0.1876025752455098
ircl_prn.0,50	all	0.14280223132956682
ircl_prn.0,60	all	0.10499700368881189
ircl_prn.0,70	all	0.09230804457288277
ircl_prn.0,80	all	0.08465249886298147
ircl_prn.0,90	all	0.016213996749642693
ircl_prn.1,00	all	0.010253078401355423
</eval>
