<eval run-id="MMAI" file="runs9_fol/LyazrhiNaitbachirInoussFadl_22_practice5_BM25_article_stopW_porter_k2.0__b0.75.trec++">
num_ret		2009011	1500
num_rel		2009011	26
num_rel_ret	2009011	25
ret_size	2009011	16915023
rel_size	2009011	71154
rel_ret_size	2009011	70427
gP[1]		2009011	0.0
gR[1]		2009011	0.038461538461538464
gP[2]		2009011	0.0
gR[2]		2009011	0.038461538461538464
gP[3]		2009011	0.0
gR[3]		2009011	0.07692307692307693
gP[5]		2009011	0.19918968692449354
gR[5]		2009011	0.11538461538461539
gP[10]		2009011	0.19924176382317263
gR[10]		2009011	0.19230769230769232
gP[25]		2009011	0.19930011825737118
gR[25]		2009011	0.4230769230769231
gP[50]		2009011	0.09965005912868559
gR[50]		2009011	0.46153846153846156
AgP		2009011	0.10850798008925702
num_ret		2009036	1500
num_rel		2009036	136
num_rel_ret	2009036	88
ret_size	2009036	8508014
rel_size	2009036	292336
rel_ret_size	2009036	279139
gP[1]		2009036	0.9994773519163763
gR[1]		2009036	0.007352941176470588
gP[2]		2009036	0.9986974431385297
gR[2]		2009036	0.014705882352941176
gP[3]		2009036	0.9753367569641481
gR[3]		2009036	0.022058823529411766
gP[5]		2009036	0.6930361555609773
gR[5]		2009036	0.03676470588235294
gP[10]		2009036	0.6165849099553201
gR[10]		2009036	0.058823529411764705
gP[25]		2009036	0.36867653294818514
gR[25]		2009036	0.1323529411764706
gP[50]		2009036	0.4510147773399996
gR[50]		2009036	0.2647058823529412
AgP		2009036	0.2113003366313613
num_ret		2009067	1500
num_rel		2009067	12
num_rel_ret	2009067	12
ret_size	2009067	17457869
rel_size	2009067	58012
rel_ret_size	2009067	58012
gP[1]		2009067	0.0
gR[1]		2009067	0.0
gP[2]		2009067	0.0
gR[2]		2009067	0.0
gP[3]		2009067	0.30399921775691796
gR[3]		2009067	0.08333333333333333
gP[5]		2009067	0.34287383895454604
gR[5]		2009067	0.16666666666666666
gP[10]		2009067	0.17143691947727302
gR[10]		2009067	0.25
gP[25]		2009067	0.12471368865659774
gR[25]		2009067	0.5833333333333334
gP[50]		2009067	0.06235684432829887
gR[50]		2009067	0.5833333333333334
AgP		2009067	0.13993615218684727
num_ret		2009073	1500
num_rel		2009073	14
num_rel_ret	2009073	14
ret_size	2009073	11528867
rel_size	2009073	13570
rel_ret_size	2009073	13570
gP[1]		2009073	0.0
gR[1]		2009073	0.07142857142857142
gP[2]		2009073	0.0
gR[2]		2009073	0.14285714285714285
gP[3]		2009073	0.0
gR[3]		2009073	0.14285714285714285
gP[5]		2009073	0.0
gR[5]		2009073	0.14285714285714285
gP[10]		2009073	0.05934959349593496
gR[10]		2009073	0.35714285714285715
gP[25]		2009073	0.1080096315968931
gR[25]		2009073	0.7142857142857143
gP[50]		2009073	0.05400481579844655
gR[50]		2009073	0.7857142857142857
AgP		2009073	0.06694412236913179
num_ret		2009074	1500
num_rel		2009074	15
num_rel_ret	2009074	15
ret_size	2009074	13314147
rel_size	2009074	16321
rel_ret_size	2009074	16321
gP[1]		2009074	0.0
gR[1]		2009074	0.0
gP[2]		2009074	0.0
gR[2]		2009074	0.06666666666666667
gP[3]		2009074	0.0
gR[3]		2009074	0.06666666666666667
gP[5]		2009074	0.15915588835942818
gR[5]		2009074	0.13333333333333333
gP[10]		2009074	0.07957794417971409
gR[10]		2009074	0.2
gP[25]		2009074	0.03183117767188563
gR[25]		2009074	0.3333333333333333
gP[50]		2009074	0.015915588835942816
gR[50]		2009074	0.4
AgP		2009074	0.03453029633986341
num_ret		2009078	1500
num_rel		2009078	5
num_rel_ret	2009078	5
ret_size	2009078	12441486
rel_size	2009078	63818
rel_ret_size	2009078	63818
gP[1]		2009078	0.9701105908139882
gR[1]		2009078	0.2
gP[2]		2009078	0.4850552954069941
gR[2]		2009078	0.2
gP[3]		2009078	0.32337019693799607
gR[3]		2009078	0.2
gP[5]		2009078	0.19402211816279763
gR[5]		2009078	0.2
gP[10]		2009078	0.18796128532574272
gR[10]		2009078	0.4
gP[25]		2009078	0.15393188989833148
gR[25]		2009078	0.8
gP[50]		2009078	0.07696594494916574
gR[50]		2009078	0.8
AgP		2009078	0.3450093475522446
num_ret		2009085	1500
num_rel		2009085	26
num_rel_ret	2009085	17
ret_size	2009085	15693532
rel_size	2009085	130447
rel_ret_size	2009085	81004
gP[1]		2009085	0.0
gR[1]		2009085	0.0
gP[2]		2009085	0.0
gR[2]		2009085	0.0
gP[3]		2009085	0.0
gR[3]		2009085	0.0
gP[5]		2009085	0.0
gR[5]		2009085	0.0
gP[10]		2009085	0.0
gR[10]		2009085	0.0
gP[25]		2009085	0.0
gR[25]		2009085	0.0
gP[50]		2009085	0.0
gR[50]		2009085	0.0
AgP		2009085	0.0031168895295946982
num_q		all	7
num_ret		all	10500
num_rel		all	234
num_rel_ret	all	176
ret_size	all	95858938
rel_size	all	645658
rel_ret_size	all	582291
MAgP		all	0.12990644638547144
gP[1]		all	0.2813697061043378
gR[1]		all	0.04532043586665435
gP[2]		all	0.21196467693507484
gR[2]		all	0.06609874719118417
gP[3]		all	0.22895802452272318
gR[3]		all	0.0845484347585188
gP[5]		all	0.22689681256603467
gR[5]		all	0.11357235201773018
gP[10]		all	0.18773605946530822
gR[10]		all	0.20832486840890205
gP[25]		all	0.1409232912898949
gR[25]		all	0.4266260350293964
gP[50]		all	0.10855829005436275
gR[50]		all	0.4707559947055745
ircl_prn.0,00	all	0.4246720423838713
ircl_prn.0,10	all	0.35303635371940073
ircl_prn.0,20	all	0.3295679383665281
ircl_prn.0,30	all	0.21096045524071144
ircl_prn.0,40	all	0.15708656515836755
ircl_prn.0,50	all	0.10004511858768493
ircl_prn.0,60	all	0.08715056476896592
ircl_prn.0,70	all	0.057514782707245624
ircl_prn.0,80	all	0.03661619832833667
ircl_prn.0,90	all	0.013343119243309729
ircl_prn.1,00	all	0.010715909131163817
</eval>
