<eval run-id="MMAI" file="runs9_fol/LyazrhiNaitbachirInoussFadl_15_practice5_BM25_article_stopW_porter_k0.6000000000000001__b0.75.trec++">
num_ret		2009011	1500
num_rel		2009011	26
num_rel_ret	2009011	25
ret_size	2009011	16940795
rel_size	2009011	71154
rel_ret_size	2009011	70427
gP[1]		2009011	0.0
gR[1]		2009011	0.0
gP[2]		2009011	0.0
gR[2]		2009011	0.038461538461538464
gP[3]		2009011	0.0
gR[3]		2009011	0.07692307692307693
gP[5]		2009011	0.19918968692449354
gR[5]		2009011	0.11538461538461539
gP[10]		2009011	0.2991410773243168
gR[10]		2009011	0.19230769230769232
gP[25]		2009011	0.15957613895892378
gR[25]		2009011	0.34615384615384615
gP[50]		2009011	0.09965005912868559
gR[50]		2009011	0.5384615384615384
AgP		2009011	0.12740300190834056
num_ret		2009036	1500
num_rel		2009036	136
num_rel_ret	2009036	88
ret_size	2009036	8670770
rel_size	2009036	292336
rel_ret_size	2009036	279139
gP[1]		2009036	0.9994773519163763
gR[1]		2009036	0.007352941176470588
gP[2]		2009036	0.9986974431385297
gR[2]		2009036	0.014705882352941176
gP[3]		2009036	0.9753367569641481
gR[3]		2009036	0.022058823529411766
gP[5]		2009036	0.6930361555609773
gR[5]		2009036	0.03676470588235294
gP[10]		2009036	0.7056982657353426
gR[10]		2009036	0.0661764705882353
gP[25]		2009036	0.4341446084455091
gR[25]		2009036	0.1323529411764706
gP[50]		2009036	0.49790381362819486
gR[50]		2009036	0.27205882352941174
AgP		2009036	0.25719006764479774
num_ret		2009067	1500
num_rel		2009067	12
num_rel_ret	2009067	12
ret_size	2009067	19441460
rel_size	2009067	58012
rel_ret_size	2009067	58012
gP[1]		2009067	0.0
gR[1]		2009067	0.0
gP[2]		2009067	0.0
gR[2]		2009067	0.0
gP[3]		2009067	0.0
gR[3]		2009067	0.0
gP[5]		2009067	0.0
gR[5]		2009067	0.0
gP[10]		2009067	0.17143691947727302
gR[10]		2009067	0.25
gP[25]		2009067	0.12471368865659774
gR[25]		2009067	0.5833333333333334
gP[50]		2009067	0.06235684432829887
gR[50]		2009067	0.5833333333333334
AgP		2009067	0.10948952936434592
num_ret		2009073	1500
num_rel		2009073	14
num_rel_ret	2009073	14
ret_size	2009073	12364592
rel_size	2009073	13570
rel_ret_size	2009073	13570
gP[1]		2009073	0.0
gR[1]		2009073	0.07142857142857142
gP[2]		2009073	0.0
gR[2]		2009073	0.14285714285714285
gP[3]		2009073	0.0
gR[3]		2009073	0.14285714285714285
gP[5]		2009073	0.14371482176360223
gR[5]		2009073	0.2857142857142857
gP[10]		2009073	0.07185741088180111
gR[10]		2009073	0.2857142857142857
gP[25]		2009073	0.1080096315968931
gR[25]		2009073	0.7142857142857143
gP[50]		2009073	0.05400481579844655
gR[50]		2009073	0.7142857142857143
AgP		2009073	0.05643474268876608
num_ret		2009074	1500
num_rel		2009074	15
num_rel_ret	2009074	15
ret_size	2009074	13734179
rel_size	2009074	16321
rel_ret_size	2009074	16321
gP[1]		2009074	0.0
gR[1]		2009074	0.0
gP[2]		2009074	0.39788972089857044
gR[2]		2009074	0.06666666666666667
gP[3]		2009074	0.2652598139323803
gR[3]		2009074	0.13333333333333333
gP[5]		2009074	0.15915588835942818
gR[5]		2009074	0.13333333333333333
gP[10]		2009074	0.07957794417971409
gR[10]		2009074	0.26666666666666666
gP[25]		2009074	0.03183117767188563
gR[25]		2009074	0.4666666666666667
gP[50]		2009074	0.015915588835942816
gR[50]		2009074	0.5333333333333333
AgP		2009074	0.07071023752602808
num_ret		2009078	1500
num_rel		2009078	5
num_rel_ret	2009078	5
ret_size	2009078	13053323
rel_size	2009078	63818
rel_ret_size	2009078	63818
gP[1]		2009078	0.9701105908139882
gR[1]		2009078	0.2
gP[2]		2009078	0.4850552954069941
gR[2]		2009078	0.2
gP[3]		2009078	0.32337019693799607
gR[3]		2009078	0.2
gP[5]		2009078	0.19402211816279763
gR[5]		2009078	0.2
gP[10]		2009078	0.09701105908139881
gR[10]		2009078	0.2
gP[25]		2009078	0.15393188989833148
gR[25]		2009078	0.8
gP[50]		2009078	0.07696594494916574
gR[50]		2009078	0.8
AgP		2009078	0.2968207102706342
num_ret		2009085	1500
num_rel		2009085	26
num_rel_ret	2009085	17
ret_size	2009085	16415362
rel_size	2009085	130447
rel_ret_size	2009085	81004
gP[1]		2009085	0.0
gR[1]		2009085	0.0
gP[2]		2009085	0.0
gR[2]		2009085	0.0
gP[3]		2009085	0.0
gR[3]		2009085	0.0
gP[5]		2009085	0.0
gR[5]		2009085	0.0
gP[10]		2009085	0.0
gR[10]		2009085	0.0
gP[25]		2009085	0.0
gR[25]		2009085	0.0
gP[50]		2009085	0.0
gR[50]		2009085	0.0
AgP		2009085	0.003224348871609972
num_q		all	7
num_ret		all	10500
num_rel		all	234
num_rel_ret	all	176
ret_size	all	100620481
rel_size	all	645658
rel_ret_size	all	582291
MAgP		all	0.13161037689636038
gP[1]		all	0.2813697061043378
gR[1]		all	0.03982593037214886
gP[2]		all	0.2688060656348706
gR[2]		all	0.06609874719118417
gP[3]		all	0.22342382397636062
gR[3]		all	0.08216748237756641
gP[5]		all	0.19844552439589985
gR[5]		all	0.11017099147351248
gP[10]		all	0.20353181095426373
gR[10]		all	0.18012358789669713
gP[25]		all	0.14460101931830582
gR[25]		all	0.4346846430880044
gP[50]		all	0.1152567238098192
gR[50]		all	0.4916389632776187
ircl_prn.0,00	all	0.4517927736993196
ircl_prn.0,10	all	0.36573243787539594
ircl_prn.0,20	all	0.32351177131889747
ircl_prn.0,30	all	0.19386910349583397
ircl_prn.0,40	all	0.14094184472742405
ircl_prn.0,50	all	0.11831345227295299
ircl_prn.0,60	all	0.06979489700644938
ircl_prn.0,70	all	0.060327235795932986
ircl_prn.0,80	all	0.042172064045771965
ircl_prn.0,90	all	0.012550521424451075
ircl_prn.1,00	all	0.007817310791530117
</eval>
