<eval run-id="MMAI" file="runs9_fol/LyazrhiNaitbachirInoussFadl_3_practice5_BM25_article_stopW_porter_k1_b0.5_m0.75.trec++">
num_ret		2009011	1500
num_rel		2009011	26
num_rel_ret	2009011	25
ret_size	2009011	16493919
rel_size	2009011	71154
rel_ret_size	2009011	70427
gP[1]		2009011	0.0
gR[1]		2009011	0.038461538461538464
gP[2]		2009011	0.0
gR[2]		2009011	0.038461538461538464
gP[3]		2009011	0.0
gR[3]		2009011	0.07692307692307693
gP[5]		2009011	0.0
gR[5]		2009011	0.11538461538461539
gP[10]		2009011	0.19924176382317263
gR[10]		2009011	0.19230769230769232
gP[25]		2009011	0.1593804102281741
gR[25]		2009011	0.34615384615384615
gP[50]		2009011	0.11954315922586733
gR[50]		2009011	0.46153846153846156
AgP		2009011	0.06878010349337953
num_ret		2009036	1500
num_rel		2009036	136
num_rel_ret	2009036	87
ret_size	2009036	8533459
rel_size	2009036	292336
rel_ret_size	2009036	279081
gP[1]		2009036	0.9994773519163763
gR[1]		2009036	0.007352941176470588
gP[2]		2009036	0.9986974431385297
gR[2]		2009036	0.014705882352941176
gP[3]		2009036	0.9753367569641481
gR[3]		2009036	0.022058823529411766
gP[5]		2009036	0.6930361555609773
gR[5]		2009036	0.029411764705882353
gP[10]		2009036	0.4329807663322046
gR[10]		2009036	0.058823529411764705
gP[25]		2009036	0.36867653294818514
gR[25]		2009036	0.125
gP[50]		2009036	0.32220079607326285
gR[50]		2009036	0.19852941176470587
AgP		2009036	0.14739610562165398
num_ret		2009067	1500
num_rel		2009067	12
num_rel_ret	2009067	12
ret_size	2009067	16624815
rel_size	2009067	58012
rel_ret_size	2009067	58012
gP[1]		2009067	0.0
gR[1]		2009067	0.0
gP[2]		2009067	0.0
gR[2]		2009067	0.0
gP[3]		2009067	0.30399921775691796
gR[3]		2009067	0.08333333333333333
gP[5]		2009067	0.34287383895454604
gR[5]		2009067	0.16666666666666666
gP[10]		2009067	0.17143691947727302
gR[10]		2009067	0.25
gP[25]		2009067	0.10481419116916055
gR[25]		2009067	0.3333333333333333
gP[50]		2009067	0.06235684432829887
gR[50]		2009067	0.5833333333333334
AgP		2009067	0.1299888213775339
num_ret		2009073	1500
num_rel		2009073	14
num_rel_ret	2009073	14
ret_size	2009073	10915894
rel_size	2009073	13570
rel_ret_size	2009073	13570
gP[1]		2009073	0.0
gR[1]		2009073	0.07142857142857142
gP[2]		2009073	0.0
gR[2]		2009073	0.07142857142857142
gP[3]		2009073	0.0
gR[3]		2009073	0.14285714285714285
gP[5]		2009073	0.0
gR[5]		2009073	0.21428571428571427
gP[10]		2009073	0.05934959349593496
gR[10]		2009073	0.2857142857142857
gP[25]		2009073	0.10800963159689311
gR[25]		2009073	0.7142857142857143
gP[50]		2009073	0.05400481579844656
gR[50]		2009073	0.7857142857142857
AgP		2009073	0.060332935929832465
num_ret		2009074	1500
num_rel		2009074	15
num_rel_ret	2009074	15
ret_size	2009074	12201763
rel_size	2009074	16321
rel_ret_size	2009074	16321
gP[1]		2009074	0.0
gR[1]		2009074	0.0
gP[2]		2009074	0.0
gR[2]		2009074	0.06666666666666667
gP[3]		2009074	0.0
gR[3]		2009074	0.06666666666666667
gP[5]		2009074	0.0
gR[5]		2009074	0.13333333333333333
gP[10]		2009074	0.07957794417971409
gR[10]		2009074	0.2
gP[25]		2009074	0.03183117767188563
gR[25]		2009074	0.2
gP[50]		2009074	0.015915588835942816
gR[50]		2009074	0.4
AgP		2009074	0.015135940146669418
num_ret		2009078	1500
num_rel		2009078	5
num_rel_ret	2009078	5
ret_size	2009078	11719275
rel_size	2009078	63818
rel_ret_size	2009078	63818
gP[1]		2009078	0.0
gR[1]		2009078	0.0
gP[2]		2009078	0.4850552954069941
gR[2]		2009078	0.2
gP[3]		2009078	0.32337019693799607
gR[3]		2009078	0.2
gP[5]		2009078	0.19402211816279763
gR[5]		2009078	0.2
gP[10]		2009078	0.28567469995988903
gR[10]		2009078	0.6
gP[25]		2009078	0.15393188989833148
gR[25]		2009078	0.8
gP[50]		2009078	0.07696594494916574
gR[50]		2009078	0.8
AgP		2009078	0.2657917437779653
num_ret		2009085	1500
num_rel		2009085	26
num_rel_ret	2009085	17
ret_size	2009085	15650921
rel_size	2009085	130447
rel_ret_size	2009085	81004
gP[1]		2009085	0.0
gR[1]		2009085	0.0
gP[2]		2009085	0.0
gR[2]		2009085	0.0
gP[3]		2009085	0.0
gR[3]		2009085	0.0
gP[5]		2009085	0.0
gR[5]		2009085	0.0
gP[10]		2009085	0.0
gR[10]		2009085	0.0
gP[25]		2009085	0.0
gR[25]		2009085	0.0
gP[50]		2009085	0.0
gR[50]		2009085	0.0
AgP		2009085	0.003012494320864443
num_q		all	7
num_ret		all	10500
num_rel		all	234
num_rel_ret	all	175
ret_size	all	92140046
rel_size	all	645658
rel_ret_size	all	582233
MAgP		all	0.09863402066684272
gP[1]		all	0.14278247884519663
gR[1]		all	0.01674900729522578
gP[2]		all	0.21196467693507484
gR[2]		all	0.055894665558531106
gP[3]		all	0.22895802452272318
gR[3]		all	0.0845484347585188
gP[5]		all	0.17570458752547444
gR[5]		all	0.12272601348231602
gP[10]		all	0.17546595532402692
gR[10]		all	0.22669221534767756
gP[25]		all	0.13237769050180428
gR[25]		all	0.35982469911041337
gP[50]		all	0.09299816417299774
gR[50]		all	0.46130221319296943
ircl_prn.0,00	all	0.328801602117401
ircl_prn.0,10	all	0.24295254198221813
ircl_prn.0,20	all	0.21579703729566632
ircl_prn.0,30	all	0.1539164689288883
ircl_prn.0,40	all	0.11578718912515776
ircl_prn.0,50	all	0.09591231605876953
ircl_prn.0,60	all	0.08730051924415619
ircl_prn.0,70	all	0.049518931103749775
ircl_prn.0,80	all	0.036419653723901046
ircl_prn.0,90	all	0.01805038472271706
ircl_prn.1,00	all	0.011400357133943297
</eval>
