<eval run-id="8" file="runs9_fol/MaximeAurelienEmilienChristian_8_practice5_ltc_article_stop319_porter.trec++">
num_ret		2009011	1500
num_rel		2009011	26
num_rel_ret	2009011	25
ret_size	2009011	19868449
rel_size	2009011	71154
rel_ret_size	2009011	70427
gP[1]		2009011	0.0
gR[1]		2009011	0.0
gP[2]		2009011	0.0
gR[2]		2009011	0.0
gP[3]		2009011	0.0
gR[3]		2009011	0.0
gP[5]		2009011	0.0
gR[5]		2009011	0.038461538461538464
gP[10]		2009011	0.0
gR[10]		2009011	0.07692307692307693
gP[25]		2009011	0.03991970802919708
gR[25]		2009011	0.15384615384615385
gP[50]		2009011	0.01995985401459854
gR[50]		2009011	0.23076923076923078
AgP		2009011	0.010932385814175152
num_ret		2009036	1500
num_rel		2009036	136
num_rel_ret	2009036	87
ret_size	2009036	10044142
rel_size	2009036	292336
rel_ret_size	2009036	212645
gP[1]		2009036	0.4152046783625731
gR[1]		2009036	0.007352941176470588
gP[2]		2009036	0.6914123769578651
gR[2]		2009036	0.014705882352941176
gP[3]		2009036	0.4609415846385767
gR[3]		2009036	0.014705882352941176
gP[5]		2009036	0.276564950783146
gR[5]		2009036	0.014705882352941176
gP[10]		2009036	0.138282475391573
gR[10]		2009036	0.022058823529411766
gP[25]		2009036	0.08529629566581118
gR[25]		2009036	0.051470588235294115
gP[50]		2009036	0.07364209587563411
gR[50]		2009036	0.10294117647058823
AgP		2009036	0.08208328111451905
num_ret		2009067	1500
num_rel		2009067	12
num_rel_ret	2009067	12
ret_size	2009067	24056788
rel_size	2009067	58012
rel_ret_size	2009067	58012
gP[1]		2009067	0.0
gR[1]		2009067	0.0
gP[2]		2009067	0.0
gR[2]		2009067	0.0
gP[3]		2009067	0.0
gR[3]		2009067	0.0
gP[5]		2009067	0.0
gR[5]		2009067	0.0
gP[10]		2009067	0.0
gR[10]		2009067	0.08333333333333333
gP[25]		2009067	0.0
gR[25]		2009067	0.16666666666666666
gP[50]		2009067	0.009949748743718593
gR[50]		2009067	0.25
AgP		2009067	0.017171844302853442
num_ret		2009073	1500
num_rel		2009073	14
num_rel_ret	2009073	14
ret_size	2009073	20270645
rel_size	2009073	13570
rel_ret_size	2009073	13570
gP[1]		2009073	0.0
gR[1]		2009073	0.0
gP[2]		2009073	0.0
gR[2]		2009073	0.0
gP[3]		2009073	0.0
gR[3]		2009073	0.0
gP[5]		2009073	0.0
gR[5]		2009073	0.0
gP[10]		2009073	0.0
gR[10]		2009073	0.0
gP[25]		2009073	0.0
gR[25]		2009073	0.0
gP[50]		2009073	0.0
gR[50]		2009073	0.07142857142857142
AgP		2009073	0.0036447791038926617
num_ret		2009074	1500
num_rel		2009074	15
num_rel_ret	2009074	15
ret_size	2009074	19434511
rel_size	2009074	16321
rel_ret_size	2009074	16321
gP[1]		2009074	0.0
gR[1]		2009074	0.0
gP[2]		2009074	0.0
gR[2]		2009074	0.0
gP[3]		2009074	0.0
gR[3]		2009074	0.0
gP[5]		2009074	0.0
gR[5]		2009074	0.0
gP[10]		2009074	0.0
gR[10]		2009074	0.0
gP[25]		2009074	0.0
gR[25]		2009074	0.0
gP[50]		2009074	0.015915588835942816
gR[50]		2009074	0.3333333333333333
AgP		2009074	0.009937447299395098
num_ret		2009078	1500
num_rel		2009078	5
num_rel_ret	2009078	5
ret_size	2009078	19702033
rel_size	2009078	63818
rel_ret_size	2009078	63818
gP[1]		2009078	0.0
gR[1]		2009078	0.0
gP[2]		2009078	0.0
gR[2]		2009078	0.0
gP[3]		2009078	0.0
gR[3]		2009078	0.0
gP[5]		2009078	0.0
gR[5]		2009078	0.0
gP[10]		2009078	0.0
gR[10]		2009078	0.0
gP[25]		2009078	0.07846643354693537
gR[25]		2009078	0.4
gP[50]		2009078	0.05877589970029695
gR[50]		2009078	0.6
AgP		2009078	0.06638483411205578
num_ret		2009085	1500
num_rel		2009085	26
num_rel_ret	2009085	11
ret_size	2009085	25033581
rel_size	2009085	130447
rel_ret_size	2009085	66535
gP[1]		2009085	0.0
gR[1]		2009085	0.0
gP[2]		2009085	0.0
gR[2]		2009085	0.0
gP[3]		2009085	0.0
gR[3]		2009085	0.0
gP[5]		2009085	0.0
gR[5]		2009085	0.0
gP[10]		2009085	0.0
gR[10]		2009085	0.0
gP[25]		2009085	0.0
gR[25]		2009085	0.0
gP[50]		2009085	0.0
gR[50]		2009085	0.0
AgP		2009085	7.65203439144105E-4
num_q		all	7
num_ret		all	10500
num_rel		all	234
num_rel_ret	all	169
ret_size	all	138410149
rel_size	all	645658
rel_ret_size	all	501328
MAgP		all	0.02727425359800504
gP[1]		all	0.059314954051796154
gR[1]		all	0.0010504201680672268
gP[2]		all	0.09877319670826644
gR[2]		all	0.0021008403361344537
gP[3]		all	0.06584879780551096
gR[3]		all	0.0021008403361344537
gP[5]		all	0.03950927868330657
gR[5]		all	0.007595345830639949
gP[10]		all	0.019754639341653286
gR[10]		all	0.026045033397974576
gP[25]		all	0.029097491034563376
gR[25]		all	0.11028334410687353
gP[50]		all	0.025463312452884433
gR[50]		all	0.22692461600024627
ircl_prn.0,00	all	0.12752886774160316
ircl_prn.0,10	all	0.05210940211261896
ircl_prn.0,20	all	0.04847815827079323
ircl_prn.0,30	all	0.04722016390839971
ircl_prn.0,40	all	0.04516229060290384
ircl_prn.0,50	all	0.03526519925695957
ircl_prn.0,60	all	0.02660474557556571
ircl_prn.0,70	all	0.01643167094084352
ircl_prn.0,80	all	0.016251034983042333
ircl_prn.0,90	all	0.006587309484242054
ircl_prn.1,00	all	0.004745303564784856
</eval>
