<eval run-id="4" file="runs9_fol/MaximeAurelienEmilienChristian_4_practice5_ltn_article_stop319_porter.trec++">
num_ret		2009011	1500
num_rel		2009011	26
num_rel_ret	2009011	25
ret_size	2009011	19497461
rel_size	2009011	71154
rel_ret_size	2009011	70427
gP[1]		2009011	0.0
gR[1]		2009011	0.038461538461538464
gP[2]		2009011	0.0
gR[2]		2009011	0.038461538461538464
gP[3]		2009011	0.0
gR[3]		2009011	0.038461538461538464
gP[5]		2009011	0.0
gR[5]		2009011	0.07692307692307693
gP[10]		2009011	0.0
gR[10]		2009011	0.07692307692307693
gP[25]		2009011	0.0
gR[25]		2009011	0.15384615384615385
gP[50]		2009011	0.039909246772414
gR[50]		2009011	0.38461538461538464
AgP		2009011	0.01719022922029577
num_ret		2009036	1500
num_rel		2009036	136
num_rel_ret	2009036	87
ret_size	2009036	9236410
rel_size	2009036	292336
rel_ret_size	2009036	212645
gP[1]		2009036	0.9994773519163763
gR[1]		2009036	0.007352941176470588
gP[2]		2009036	0.9976014847206722
gR[2]		2009036	0.014705882352941176
gP[3]		2009036	0.677888169300961
gR[3]		2009036	0.022058823529411766
gP[5]		2009036	0.4367612301924746
gR[5]		2009036	0.03676470588235294
gP[10]		2009036	0.5764183925341411
gR[10]		2009036	0.07352941176470588
gP[25]		2009036	0.37007919385779764
gR[25]		2009036	0.14705882352941177
gP[50]		2009036	0.3475222855065732
gR[50]		2009036	0.2426470588235294
AgP		2009036	0.19825337440334032
num_ret		2009067	1500
num_rel		2009067	12
num_rel_ret	2009067	12
ret_size	2009067	23909049
rel_size	2009067	58012
rel_ret_size	2009067	58012
gP[1]		2009067	0.0
gR[1]		2009067	0.08333333333333333
gP[2]		2009067	0.0
gR[2]		2009067	0.08333333333333333
gP[3]		2009067	0.0
gR[3]		2009067	0.08333333333333333
gP[5]		2009067	0.0
gR[5]		2009067	0.16666666666666666
gP[10]		2009067	0.09119976532707538
gR[10]		2009067	0.25
gP[25]		2009067	0.11744815695859198
gR[25]		2009067	0.5833333333333334
gP[50]		2009067	0.07816505490713536
gR[50]		2009067	0.6666666666666666
AgP		2009067	0.07445791410423983
num_ret		2009073	1500
num_rel		2009073	14
num_rel_ret	2009073	14
ret_size	2009073	20213642
rel_size	2009073	13570
rel_ret_size	2009073	13570
gP[1]		2009073	0.5934959349593496
gR[1]		2009073	0.07142857142857142
gP[2]		2009073	0.2967479674796748
gR[2]		2009073	0.07142857142857142
gP[3]		2009073	0.1978319783197832
gR[3]		2009073	0.14285714285714285
gP[5]		2009073	0.11869918699186992
gR[5]		2009073	0.21428571428571427
gP[10]		2009073	0.13892753767564905
gR[10]		2009073	0.2857142857142857
gP[25]		2009073	0.05557101507025962
gR[25]		2009073	0.35714285714285715
gP[50]		2009073	0.02778550753512981
gR[50]		2009073	0.35714285714285715
AgP		2009073	0.0881183249740081
num_ret		2009074	1500
num_rel		2009074	15
num_rel_ret	2009074	15
ret_size	2009074	18564289
rel_size	2009074	16321
rel_ret_size	2009074	16321
gP[1]		2009074	0.7957794417971409
gR[1]		2009074	0.06666666666666667
gP[2]		2009074	0.39788972089857044
gR[2]		2009074	0.06666666666666667
gP[3]		2009074	0.2652598139323803
gR[3]		2009074	0.06666666666666667
gP[5]		2009074	0.15915588835942818
gR[5]		2009074	0.13333333333333333
gP[10]		2009074	0.07957794417971409
gR[10]		2009074	0.2
gP[25]		2009074	0.03183117767188563
gR[25]		2009074	0.2
gP[50]		2009074	0.015915588835942816
gR[50]		2009074	0.2
AgP		2009074	0.07747216704255874
num_ret		2009078	1500
num_rel		2009078	5
num_rel_ret	2009078	5
ret_size	2009078	19144706
rel_size	2009078	63818
rel_ret_size	2009078	63818
gP[1]		2009078	0.9915502478593962
gR[1]		2009078	0.2
gP[2]		2009078	0.9843421971004298
gR[2]		2009078	0.4
gP[3]		2009078	0.6562281314002866
gR[3]		2009078	0.4
gP[5]		2009078	0.39373687884017194
gR[5]		2009078	0.4
gP[10]		2009078	0.38482972474582866
gR[10]		2009078	0.8
gP[25]		2009078	0.15393188989833148
gR[25]		2009078	0.8
gP[50]		2009078	0.07696594494916574
gR[50]		2009078	0.8
AgP		2009078	0.5808338556628133
num_ret		2009085	1500
num_rel		2009085	26
num_rel_ret	2009085	13
ret_size	2009085	24899289
rel_size	2009085	130447
rel_ret_size	2009085	77620
gP[1]		2009085	0.0
gR[1]		2009085	0.0
gP[2]		2009085	0.0
gR[2]		2009085	0.0
gP[3]		2009085	0.0
gR[3]		2009085	0.0
gP[5]		2009085	0.0
gR[5]		2009085	0.0
gP[10]		2009085	0.0
gR[10]		2009085	0.0
gP[25]		2009085	0.0
gR[25]		2009085	0.0
gP[50]		2009085	0.0
gR[50]		2009085	0.0
AgP		2009085	0.0013119977502544888
num_q		all	7
num_ret		all	10500
num_rel		all	234
num_rel_ret	all	171
ret_size	all	135464846
rel_size	all	645658
rel_ret_size	all	512413
MAgP		all	0.14823398045107292
gP[1]		all	0.48290042521889476
gR[1]		all	0.06674900729522579
gP[2]		all	0.38236876717133533
gR[2]		all	0.09637085603472159
gP[3]		all	0.2567440132790587
gR[3]		all	0.10762535783544187
gP[5]		all	0.15833616919770638
gR[5]		all	0.1468533567273063
gP[10]		all	0.1815647663517726
gR[10]		all	0.24088096777172407
gP[25]		all	0.10412306192240948
gR[25]		all	0.320197309693108
gP[50]		all	0.08375194692948014
gR[50]		all	0.37872456674977684
ircl_prn.0,00	all	0.5161685510437478
ircl_prn.0,10	all	0.29987195240007347
ircl_prn.0,20	all	0.2738837240640293
ircl_prn.0,30	all	0.23671850488990878
ircl_prn.0,40	all	0.2136721400383464
ircl_prn.0,50	all	0.12678439271644557
ircl_prn.0,60	all	0.09283037053595092
ircl_prn.0,70	all	0.07700993165010091
ircl_prn.0,80	all	0.07271207730323159
ircl_prn.0,90	all	0.006296333168333025
ircl_prn.1,00	all	0.003237780788965428
</eval>
