<eval run-id="RanySoukainaTheoWalid" file="runs9_fol/RanySoukainaTheoWalid_RSTW87152657_practice5_ltc_elements_stopwords319_porter.trec++">
num_ret		2009011	1500
num_rel		2009011	26
num_rel_ret	2009011	11
ret_size	2009011	27000
rel_size	2009011	71154
rel_ret_size	2009011	0
gP[1]		2009011	0.0
gR[1]		2009011	0.0
gP[2]		2009011	0.0
gR[2]		2009011	0.0
gP[3]		2009011	0.0
gR[3]		2009011	0.0
gP[5]		2009011	0.0
gR[5]		2009011	0.0
gP[10]		2009011	0.09965226030799801
gR[10]		2009011	0.038461538461538464
gP[25]		2009011	0.0398609041231992
gR[25]		2009011	0.038461538461538464
gP[50]		2009011	0.03985983613378477
gR[50]		2009011	0.07692307692307693
AgP		2009011	0.012183698361817577
num_ret		2009036	1500
num_rel		2009036	136
num_rel_ret	2009036	47
ret_size	2009036	27000
rel_size	2009036	292336
rel_ret_size	2009036	0
gP[1]		2009036	0.0
gR[1]		2009036	0.0
gP[2]		2009036	0.0
gR[2]		2009036	0.0
gP[3]		2009036	0.0
gR[3]		2009036	0.0
gP[5]		2009036	0.0
gR[5]		2009036	0.0
gP[10]		2009036	0.0
gR[10]		2009036	0.0
gP[25]		2009036	0.03933862433862434
gR[25]		2009036	0.007352941176470588
gP[50]		2009036	0.03784526051475204
gR[50]		2009036	0.014705882352941176
AgP		2009036	0.009095057179967413
num_ret		2009067	1500
num_rel		2009067	12
num_rel_ret	2009067	8
ret_size	2009067	27000
rel_size	2009067	58012
rel_ret_size	2009067	0
gP[1]		2009067	0.0
gR[1]		2009067	0.0
gP[2]		2009067	0.0
gR[2]		2009067	0.0
gP[3]		2009067	0.0
gR[3]		2009067	0.0
gP[5]		2009067	0.0
gR[5]		2009067	0.0
gP[10]		2009067	0.09720488213919687
gR[10]		2009067	0.08333333333333333
gP[25]		2009067	0.03888195285567875
gR[25]		2009067	0.08333333333333333
gP[50]		2009067	0.019440976427839374
gR[50]		2009067	0.08333333333333333
AgP		2009067	0.015477469005371407
num_ret		2009073	1500
num_rel		2009073	14
num_rel_ret	2009073	10
ret_size	2009073	27000
rel_size	2009073	13570
rel_ret_size	2009073	0
gP[1]		2009073	0.0
gR[1]		2009073	0.0
gP[2]		2009073	0.0
gR[2]		2009073	0.0
gP[3]		2009073	0.0
gR[3]		2009073	0.0
gP[5]		2009073	0.0
gR[5]		2009073	0.0
gP[10]		2009073	0.0
gR[10]		2009073	0.0
gP[25]		2009073	0.02369565217391304
gR[25]		2009073	0.07142857142857142
gP[50]		2009073	0.01184782608695652
gR[50]		2009073	0.14285714285714285
AgP		2009073	0.009630793367709037
num_ret		2009074	1500
num_rel		2009074	15
num_rel_ret	2009074	6
ret_size	2009074	27000
rel_size	2009074	16321
rel_ret_size	2009074	0
gP[1]		2009074	0.0
gR[1]		2009074	0.0
gP[2]		2009074	0.0
gR[2]		2009074	0.0
gP[3]		2009074	0.0
gR[3]		2009074	0.0
gP[5]		2009074	0.0
gR[5]		2009074	0.0
gP[10]		2009074	0.0
gR[10]		2009074	0.0
gP[25]		2009074	0.0
gR[25]		2009074	0.06666666666666667
gP[50]		2009074	0.0
gR[50]		2009074	0.13333333333333333
AgP		2009074	0.0
num_ret		2009078	1500
num_rel		2009078	5
num_rel_ret	2009078	3
ret_size	2009078	27000
rel_size	2009078	63818
rel_ret_size	2009078	0
gP[1]		2009078	0.9701105908139882
gR[1]		2009078	0.2
gP[2]		2009078	0.4850552954069941
gR[2]		2009078	0.2
gP[3]		2009078	0.32337019693799607
gR[3]		2009078	0.2
gP[5]		2009078	0.19402211816279763
gR[5]		2009078	0.2
gP[10]		2009078	0.09701105908139881
gR[10]		2009078	0.2
gP[25]		2009078	0.03880442363255953
gR[25]		2009078	0.2
gP[50]		2009078	0.019402211816279765
gR[50]		2009078	0.2
AgP		2009078	0.19680909884175987
num_ret		2009085	1500
num_rel		2009085	26
num_rel_ret	2009085	9
ret_size	2009085	27000
rel_size	2009085	130447
rel_ret_size	2009085	0
gP[1]		2009085	0.9222999222999223
gR[1]		2009085	0.038461538461538464
gP[2]		2009085	0.46114996114996115
gR[2]		2009085	0.038461538461538464
gP[3]		2009085	0.30743330743330743
gR[3]		2009085	0.038461538461538464
gP[5]		2009085	0.18445998445998446
gR[5]		2009085	0.038461538461538464
gP[10]		2009085	0.25705668648762287
gR[10]		2009085	0.11538461538461539
gP[25]		2009085	0.10282267459504915
gR[25]		2009085	0.11538461538461539
gP[50]		2009085	0.051411337297524576
gR[50]		2009085	0.11538461538461539
AgP		2009085	0.057791011925743555
num_q		all	7
num_ret		all	10500
num_rel		all	234
num_rel_ret	all	94
ret_size	all	189000
rel_size	all	645658
rel_ret_size	all	0
MAgP		all	0.04299816124033841
gP[1]		all	0.2703443590162729
gR[1]		all	0.03406593406593407
gP[2]		all	0.13517217950813645
gR[2]		all	0.03406593406593407
gP[3]		all	0.09011478633875765
gR[3]		all	0.03406593406593407
gP[5]		all	0.054068871803254585
gR[5]		all	0.03406593406593407
gP[10]		all	0.07870355543088807
gR[10]		all	0.062454212454212454
gP[25]		all	0.04048631881700343
gR[25]		all	0.08323252377874227
gP[50]		all	0.025686778325305287
gR[50]		all	0.10950534059777757
ircl_prn.0,00	all	0.3188268324318934
ircl_prn.0,10	all	0.19611135829289675
ircl_prn.0,20	all	0.15066223867391723
ircl_prn.0,30	all	0.011759848584227886
ircl_prn.0,40	all	0.004876655499585115
ircl_prn.0,50	all	0.002689926149281652
ircl_prn.0,60	all	0.0016016377721028107
ircl_prn.0,70	all	1.3069139798283693E-4
ircl_prn.0,80	all	0.0
ircl_prn.0,90	all	0.0
ircl_prn.1,00	all	0.0
</eval>
