<eval run-id="RanySoukainaTheoWalid" file="runs9_fol/RanySoukainaTheoWalid_RSTW92565151_practice5_ltn_articles_stopwords319_stemming.trec++">
num_ret		2009011	1500
num_rel		2009011	26
num_rel_ret	2009011	10
ret_size	2009011	27020270
rel_size	2009011	71154
rel_ret_size	2009011	30812
gP[1]		2009011	0.0
gR[1]		2009011	0.0
gP[2]		2009011	0.0
gR[2]		2009011	0.0
gP[3]		2009011	0.0
gR[3]		2009011	0.0
gP[5]		2009011	0.0
gR[5]		2009011	0.0
gP[10]		2009011	0.0
gR[10]		2009011	0.0
gP[25]		2009011	0.0
gR[25]		2009011	0.0
gP[50]		2009011	0.0
gR[50]		2009011	0.0
AgP		2009011	0.0
num_ret		2009036	1500
num_rel		2009036	136
num_rel_ret	2009036	35
ret_size	2009036	27020270
rel_size	2009036	292336
rel_ret_size	2009036	210304
gP[1]		2009036	0.0
gR[1]		2009036	0.0
gP[2]		2009036	0.0
gR[2]		2009036	0.007352941176470588
gP[3]		2009036	0.050047214353163366
gR[3]		2009036	0.014705882352941176
gP[5]		2009036	0.03002832861189802
gR[5]		2009036	0.014705882352941176
gP[10]		2009036	0.01501416430594901
gR[10]		2009036	0.014705882352941176
gP[25]		2009036	0.04459583483886451
gR[25]		2009036	0.029411764705882353
gP[50]		2009036	0.027108044001710737
gR[50]		2009036	0.03676470588235294
AgP		2009036	0.0051207235247596565
num_ret		2009067	1500
num_rel		2009067	12
num_rel_ret	2009067	2
ret_size	2009067	27020270
rel_size	2009067	58012
rel_ret_size	2009067	13125
gP[1]		2009067	0.0
gR[1]		2009067	0.0
gP[2]		2009067	0.0
gR[2]		2009067	0.0
gP[3]		2009067	0.0
gR[3]		2009067	0.0
gP[5]		2009067	0.0
gR[5]		2009067	0.0
gP[10]		2009067	0.0
gR[10]		2009067	0.0
gP[25]		2009067	0.0
gR[25]		2009067	0.0
gP[50]		2009067	0.0
gR[50]		2009067	0.0
AgP		2009067	0.0
num_ret		2009073	1500
num_rel		2009073	14
num_rel_ret	2009073	4
ret_size	2009073	27020270
rel_size	2009073	13570
rel_ret_size	2009073	2234
gP[1]		2009073	0.0
gR[1]		2009073	0.0
gP[2]		2009073	0.0
gR[2]		2009073	0.0
gP[3]		2009073	0.0
gR[3]		2009073	0.0
gP[5]		2009073	0.0
gR[5]		2009073	0.0
gP[10]		2009073	0.0
gR[10]		2009073	0.0
gP[25]		2009073	0.0
gR[25]		2009073	0.0
gP[50]		2009073	0.0
gR[50]		2009073	0.0
AgP		2009073	4.554566548149752E-4
num_ret		2009074	1500
num_rel		2009074	15
num_rel_ret	2009074	2
ret_size	2009074	27020270
rel_size	2009074	16321
rel_ret_size	2009074	3886
gP[1]		2009074	0.0
gR[1]		2009074	0.0
gP[2]		2009074	0.0
gR[2]		2009074	0.0
gP[3]		2009074	0.0
gR[3]		2009074	0.0
gP[5]		2009074	0.0
gR[5]		2009074	0.0
gP[10]		2009074	0.0
gR[10]		2009074	0.0
gP[25]		2009074	0.0
gR[25]		2009074	0.0
gP[50]		2009074	0.0
gR[50]		2009074	0.0
AgP		2009074	0.0
num_ret		2009078	1500
num_rel		2009078	5
num_rel_ret	2009078	3
ret_size	2009078	27020270
rel_size	2009078	63818
rel_ret_size	2009078	57761
gP[1]		2009078	0.0
gR[1]		2009078	0.0
gP[2]		2009078	0.0
gR[2]		2009078	0.0
gP[3]		2009078	0.0
gR[3]		2009078	0.0
gP[5]		2009078	0.0
gR[5]		2009078	0.0
gP[10]		2009078	0.0
gR[10]		2009078	0.0
gP[25]		2009078	0.0
gR[25]		2009078	0.0
gP[50]		2009078	0.0
gR[50]		2009078	0.0
AgP		2009078	0.0015602568801467121
num_ret		2009085	1500
num_rel		2009085	26
num_rel_ret	2009085	1
ret_size	2009085	27020270
rel_size	2009085	130447
rel_ret_size	2009085	3367
gP[1]		2009085	0.0
gR[1]		2009085	0.0
gP[2]		2009085	0.0
gR[2]		2009085	0.0
gP[3]		2009085	0.0
gR[3]		2009085	0.0
gP[5]		2009085	0.0
gR[5]		2009085	0.0
gP[10]		2009085	0.0
gR[10]		2009085	0.0
gP[25]		2009085	0.0
gR[25]		2009085	0.0
gP[50]		2009085	0.0
gR[50]		2009085	0.0
AgP		2009085	0.0
num_q		all	7
num_ret		all	10500
num_rel		all	234
num_rel_ret	all	57
ret_size	all	189141890
rel_size	all	645658
rel_ret_size	all	321489
MAgP		all	0.0010194910085316205
gP[1]		all	0.0
gR[1]		all	0.0
gP[2]		all	0.0
gR[2]		all	0.0010504201680672268
gP[3]		all	0.00714960205045191
gR[3]		all	0.0021008403361344537
gP[5]		all	0.0042897612302711455
gR[5]		all	0.0021008403361344537
gP[10]		all	0.0021448806151355727
gR[10]		all	0.0021008403361344537
gP[25]		all	0.006370833548409216
gR[25]		all	0.004201680672268907
gP[50]		all	0.003872577714530105
gR[50]		all	0.005252100840336135
ircl_prn.0,00	all	0.0109157857051823
ircl_prn.0,10	all	0.004095295927719627
ircl_prn.0,20	all	0.002467442835563654
ircl_prn.0,30	all	4.032928482249002E-4
ircl_prn.0,40	all	4.032928482249002E-4
ircl_prn.0,50	all	4.032928482249002E-4
ircl_prn.0,60	all	4.032928482249002E-4
ircl_prn.0,70	all	0.0
ircl_prn.0,80	all	0.0
ircl_prn.0,90	all	0.0
ircl_prn.1,00	all	0.0
</eval>
