<eval run-id="SLAR/BM25" file="runs9_fol/SouhailAdamLoicRoman_6_practice5_bm25_article_stop319_porter_k1_b0.5.trec++">
num_ret		2009011	1500
num_rel		2009011	26
num_rel_ret	2009011	25
ret_size	2009011	20486962
rel_size	2009011	71154
rel_ret_size	2009011	70427
gP[1]		2009011	0.0
gR[1]		2009011	0.0
gP[2]		2009011	0.0
gR[2]		2009011	0.038461538461538464
gP[3]		2009011	0.0
gR[3]		2009011	0.07692307692307693
gP[5]		2009011	0.0
gR[5]		2009011	0.07692307692307693
gP[10]		2009011	0.0
gR[10]		2009011	0.07692307692307693
gP[25]		2009011	0.0
gR[25]		2009011	0.11538461538461539
gP[50]		2009011	0.0
gR[50]		2009011	0.19230769230769232
AgP		2009011	0.0032533687335990205
num_ret		2009036	1500
num_rel		2009036	136
num_rel_ret	2009036	78
ret_size	2009036	10461257
rel_size	2009036	292336
rel_ret_size	2009036	274734
gP[1]		2009036	0.0
gR[1]		2009036	0.0
gP[2]		2009036	0.49973867595818816
gR[2]		2009036	0.007352941176470588
gP[3]		2009036	0.3331591173054588
gR[3]		2009036	0.007352941176470588
gP[5]		2009036	0.19989547038327526
gR[5]		2009036	0.007352941176470588
gP[10]		2009036	0.09994773519163763
gR[10]		2009036	0.007352941176470588
gP[25]		2009036	0.03997909407665505
gR[25]		2009036	0.007352941176470588
gP[50]		2009036	0.019989547038327525
gR[50]		2009036	0.007352941176470588
AgP		2009036	0.019341493742421143
num_ret		2009067	1500
num_rel		2009067	12
num_rel_ret	2009067	12
ret_size	2009067	19818256
rel_size	2009067	58012
rel_ret_size	2009067	58012
gP[1]		2009067	0.0
gR[1]		2009067	0.0
gP[2]		2009067	0.0
gR[2]		2009067	0.0
gP[3]		2009067	0.0
gR[3]		2009067	0.0
gP[5]		2009067	0.0
gR[5]		2009067	0.08333333333333333
gP[10]		2009067	0.0
gR[10]		2009067	0.08333333333333333
gP[25]		2009067	0.0
gR[25]		2009067	0.16666666666666666
gP[50]		2009067	0.0
gR[50]		2009067	0.16666666666666666
AgP		2009067	0.007939044353140476
num_ret		2009073	1500
num_rel		2009073	14
num_rel_ret	2009073	12
ret_size	2009073	16242633
rel_size	2009073	13570
rel_ret_size	2009073	12178
gP[1]		2009073	0.0
gR[1]		2009073	0.0
gP[2]		2009073	0.0
gR[2]		2009073	0.0
gP[3]		2009073	0.0
gR[3]		2009073	0.0
gP[5]		2009073	0.0
gR[5]		2009073	0.0
gP[10]		2009073	0.0
gR[10]		2009073	0.0
gP[25]		2009073	0.0
gR[25]		2009073	0.0
gP[50]		2009073	0.0
gR[50]		2009073	0.0
AgP		2009073	8.914120230865957E-4
num_ret		2009074	1500
num_rel		2009074	15
num_rel_ret	2009074	11
ret_size	2009074	14580781
rel_size	2009074	16321
rel_ret_size	2009074	12921
gP[1]		2009074	0.7957794417971409
gR[1]		2009074	0.06666666666666667
gP[2]		2009074	0.39788972089857044
gR[2]		2009074	0.06666666666666667
gP[3]		2009074	0.2652598139323803
gR[3]		2009074	0.06666666666666667
gP[5]		2009074	0.15915588835942818
gR[5]		2009074	0.06666666666666667
gP[10]		2009074	0.07957794417971409
gR[10]		2009074	0.06666666666666667
gP[25]		2009074	0.03183117767188563
gR[25]		2009074	0.2
gP[50]		2009074	0.015915588835942816
gR[50]		2009074	0.26666666666666666
AgP		2009074	0.06354083007491038
num_ret		2009078	1500
num_rel		2009078	5
num_rel_ret	2009078	4
ret_size	2009078	13209333
rel_size	2009078	63818
rel_ret_size	2009078	60776
gP[1]		2009078	0.0
gR[1]		2009078	0.0
gP[2]		2009078	0.0
gR[2]		2009078	0.0
gP[3]		2009078	0.0
gR[3]		2009078	0.0
gP[5]		2009078	0.0
gR[5]		2009078	0.0
gP[10]		2009078	0.0
gR[10]		2009078	0.0
gP[25]		2009078	0.0
gR[25]		2009078	0.0
gP[50]		2009078	0.0
gR[50]		2009078	0.0
AgP		2009078	0.004515188023309772
num_ret		2009085	1500
num_rel		2009085	26
num_rel_ret	2009085	20
ret_size	2009085	18790121
rel_size	2009085	130447
rel_ret_size	2009085	95984
gP[1]		2009085	0.0
gR[1]		2009085	0.0
gP[2]		2009085	0.0
gR[2]		2009085	0.0
gP[3]		2009085	0.0
gR[3]		2009085	0.0
gP[5]		2009085	0.0
gR[5]		2009085	0.0
gP[10]		2009085	0.09222999222999223
gR[10]		2009085	0.038461538461538464
gP[25]		2009085	0.03689199689199689
gR[25]		2009085	0.038461538461538464
gP[50]		2009085	0.018445998445998445
gR[50]		2009085	0.038461538461538464
AgP		2009085	0.02224867963657615
num_q		all	7
num_ret		all	10500
num_rel		all	234
num_rel_ret	all	162
ret_size	all	113589343
rel_size	all	645658
rel_ret_size	all	585032
MAgP		all	0.017390002369577648
gP[1]		all	0.11368277739959155
gR[1]		all	0.009523809523809523
gP[2]		all	0.12823262812239408
gR[2]		all	0.016068735186382247
gP[3]		all	0.08548841874826273
gR[3]		all	0.021563240680887743
gP[5]		all	0.05129305124895763
gR[5]		all	0.033468002585649644
gP[10]		all	0.03882223880019199
gR[10]		all	0.038962508080155146
gP[25]		all	0.015528895520076797
gR[25]		all	0.07540939452704158
gP[50]		all	0.007764447760038398
gR[50]		all	0.09592221503986209
ircl_prn.0,00	all	0.20584562642442647
ircl_prn.0,10	all	0.021666649210117683
ircl_prn.0,20	all	0.01787861082836146
ircl_prn.0,30	all	0.013239342121328957
ircl_prn.0,40	all	0.013065653669281274
ircl_prn.0,50	all	0.012412304373881322
ircl_prn.0,60	all	0.007574686731401443
ircl_prn.0,70	all	0.006880410406809575
ircl_prn.0,80	all	0.0038424804347170992
ircl_prn.0,90	all	0.0018037749282849378
ircl_prn.1,00	all	7.499075058483728E-4
</eval>
