<eval run-id="SLAR/BM25" file="runs9_fol/SouhailAdamLoicRoman_21_practice5_bm25_elements_stop319_porter_k1.6_b0.5.trec++">
num_ret		2009011	1500
num_rel		2009011	26
num_rel_ret	2009011	25
ret_size	2009011	4320816
rel_size	2009011	71154
rel_ret_size	2009011	11662
gP[1]		2009011	0.0
gR[1]		2009011	0.038461538461538464
gP[2]		2009011	0.016129032258064516
gR[2]		2009011	0.07692307692307693
gP[3]		2009011	0.01075268817204301
gR[3]		2009011	0.07692307692307693
gP[5]		2009011	0.0064516129032258064
gR[5]		2009011	0.07692307692307693
gP[10]		2009011	0.0032258064516129032
gR[10]		2009011	0.11538461538461539
gP[25]		2009011	0.043710030609842236
gR[25]		2009011	0.23076923076923078
gP[50]		2009011	0.05515245353182534
gR[50]		2009011	0.4230769230769231
AgP		2009011	0.03238771066115069
num_ret		2009036	1500
num_rel		2009036	136
num_rel_ret	2009036	83
ret_size	2009036	4340354
rel_size	2009036	292336
rel_ret_size	2009036	181184
gP[1]		2009036	0.0
gR[1]		2009036	0.0
gP[2]		2009036	0.0
gR[2]		2009036	0.0
gP[3]		2009036	0.0
gR[3]		2009036	0.0
gP[5]		2009036	0.0
gR[5]		2009036	0.0
gP[10]		2009036	0.0997917534360683
gR[10]		2009036	0.007352941176470588
gP[25]		2009036	0.07331604130842072
gR[25]		2009036	0.014705882352941176
gP[50]		2009036	0.056651706289029574
gR[50]		2009036	0.022058823529411766
AgP		2009036	0.01583812277271199
num_ret		2009067	1500
num_rel		2009067	12
num_rel_ret	2009067	11
ret_size	2009067	15058012
rel_size	2009067	58012
rel_ret_size	2009067	52143
gP[1]		2009067	0.9119976532707539
gR[1]		2009067	0.08333333333333333
gP[2]		2009067	0.45599882663537694
gR[2]		2009067	0.16666666666666666
gP[3]		2009067	0.5714563982575768
gR[3]		2009067	0.25
gP[5]		2009067	0.6235684432829885
gR[5]		2009067	0.4166666666666667
gP[10]		2009067	0.35528704650025134
gR[10]		2009067	0.5833333333333334
gP[25]		2009067	0.17958370702026508
gR[25]		2009067	0.6666666666666666
gP[50]		2009067	0.10750352399068173
gR[50]		2009067	0.75
AgP		2009067	0.3656669299989259
num_ret		2009073	1500
num_rel		2009073	14
num_rel_ret	2009073	13
ret_size	2009073	4712384
rel_size	2009073	13570
rel_ret_size	2009073	4904
gP[1]		2009073	0.0
gR[1]		2009073	0.0
gP[2]		2009073	0.0
gR[2]		2009073	0.0
gP[3]		2009073	0.0
gR[3]		2009073	0.0
gP[5]		2009073	0.0
gR[5]		2009073	0.0
gP[10]		2009073	0.0
gR[10]		2009073	0.0
gP[25]		2009073	0.0
gR[25]		2009073	0.0
gP[50]		2009073	0.0
gR[50]		2009073	0.0
AgP		2009073	0.003280092481183234
num_ret		2009074	1500
num_rel		2009074	15
num_rel_ret	2009074	14
ret_size	2009074	9163495
rel_size	2009074	16321
rel_ret_size	2009074	6415
gP[1]		2009074	0.7957794417971409
gR[1]		2009074	0.06666666666666667
gP[2]		2009074	0.39788972089857044
gR[2]		2009074	0.13333333333333333
gP[3]		2009074	0.2652598139323803
gR[3]		2009074	0.13333333333333333
gP[5]		2009074	0.15915588835942818
gR[5]		2009074	0.13333333333333333
gP[10]		2009074	0.07957794417971409
gR[10]		2009074	0.26666666666666666
gP[25]		2009074	0.045913251106010904
gR[25]		2009074	0.3333333333333333
gP[50]		2009074	0.022956625553005452
gR[50]		2009074	0.3333333333333333
AgP		2009074	0.10284887358175232
num_ret		2009078	1500
num_rel		2009078	5
num_rel_ret	2009078	5
ret_size	2009078	9034722
rel_size	2009078	63818
rel_ret_size	2009078	51501
gP[1]		2009078	0.9701105908139882
gR[1]		2009078	0.2
gP[2]		2009078	0.4850552954069941
gR[2]		2009078	0.2
gP[3]		2009078	0.32337019693799607
gR[3]		2009078	0.2
gP[5]		2009078	0.39233216773467683
gR[5]		2009078	0.4
gP[10]		2009078	0.38482972474582866
gR[10]		2009078	0.8
gP[25]		2009078	0.15393188989833145
gR[25]		2009078	0.8
gP[50]		2009078	0.07696594494916573
gR[50]		2009078	0.8
AgP		2009078	0.4405757528332117
num_ret		2009085	1500
num_rel		2009085	26
num_rel_ret	2009085	21
ret_size	2009085	4476964
rel_size	2009085	130447
rel_ret_size	2009085	24067
gP[1]		2009085	0.9222999222999223
gR[1]		2009085	0.038461538461538464
gP[2]		2009085	0.9379629853236169
gR[2]		2009085	0.07692307692307693
gP[3]		2009085	0.9407400926145989
gR[3]		2009085	0.11538461538461539
gP[5]		2009085	0.7540974440840206
gR[5]		2009085	0.15384615384615385
gP[10]		2009085	0.8260553141124445
gR[10]		2009085	0.34615384615384615
gP[25]		2009085	0.4177516196490255
gR[25]		2009085	0.46153846153846156
gP[50]		2009085	0.20887580982451276
gR[50]		2009085	0.46153846153846156
AgP		2009085	0.4000151408039429
num_q		all	7
num_ret		all	10500
num_rel		all	234
num_rel_ret	all	172
ret_size	all	51106747
rel_size	all	645658
rel_ret_size	all	331876
MAgP		all	0.19437323187612554
gP[1]		all	0.5143125154545436
gR[1]		all	0.060989010989010994
gP[2]		all	0.3275765515032318
gR[2]		all	0.0934065934065934
gP[3]		all	0.3016541699877993
gR[3]		all	0.11080586080586083
gP[5]		all	0.27651507948062
gR[5]		all	0.16868131868131866
gP[10]		all	0.24982394134655994
gR[10]		all	0.30269877181641885
gP[25]		all	0.1306009342274137
gR[25]		all	0.3581447963800905
gP[50]		all	0.07544372344831722
gR[50]		all	0.39857250592544713
ircl_prn.0,00	all	0.5443509412087455
ircl_prn.0,10	all	0.43493865573132434
ircl_prn.0,20	all	0.3774686560881563
ircl_prn.0,30	all	0.29420807670076854
ircl_prn.0,40	all	0.25718283552789917
ircl_prn.0,50	all	0.16585312772785565
ircl_prn.0,60	all	0.1184785619316193
ircl_prn.0,70	all	0.08086991871587935
ircl_prn.0,80	all	0.06482581575995322
ircl_prn.0,90	all	0.012064369737780125
ircl_prn.1,00	all	0.005111203695634828
</eval>
