<eval run-id="SLAR/ltn/default" file="runs9_fol/SouhailAdamLoicRoman_6_practice3_ltn_article_nostop_porter.trec++">
num_ret		2009011	1500
num_rel		2009011	26
num_rel_ret	2009011	25
ret_size	2009011	22100170
rel_size	2009011	71154
rel_ret_size	2009011	70427
gP[1]		2009011	0.0
gR[1]		2009011	0.0
gP[2]		2009011	0.0
gR[2]		2009011	0.0
gP[3]		2009011	0.0
gR[3]		2009011	0.0
gP[5]		2009011	0.0
gR[5]		2009011	0.0
gP[10]		2009011	0.0
gR[10]		2009011	0.038461538461538464
gP[25]		2009011	0.0
gR[25]		2009011	0.07692307692307693
gP[50]		2009011	0.0
gR[50]		2009011	0.11538461538461539
AgP		2009011	0.004714464240924416
num_ret		2009036	1500
num_rel		2009036	136
num_rel_ret	2009036	83
ret_size	2009036	12382296
rel_size	2009036	292336
rel_ret_size	2009036	277903
gP[1]		2009036	0.0
gR[1]		2009036	0.0
gP[2]		2009036	0.0
gR[2]		2009036	0.0
gP[3]		2009036	0.3331591173054588
gR[3]		2009036	0.007352941176470588
gP[5]		2009036	0.19989547038327526
gR[5]		2009036	0.007352941176470588
gP[10]		2009036	0.09994773519163763
gR[10]		2009036	0.014705882352941176
gP[25]		2009036	0.09559238423323006
gR[25]		2009036	0.04411764705882353
gP[50]		2009036	0.059170401408849466
gR[50]		2009036	0.07352941176470588
AgP		2009036	0.025101802247479595
num_ret		2009067	1500
num_rel		2009067	12
num_rel_ret	2009067	4
ret_size	2009067	35801434
rel_size	2009067	58012
rel_ret_size	2009067	41470
gP[1]		2009067	0.0
gR[1]		2009067	0.0
gP[2]		2009067	0.0
gR[2]		2009067	0.0
gP[3]		2009067	0.0
gR[3]		2009067	0.0
gP[5]		2009067	0.0
gR[5]		2009067	0.0
gP[10]		2009067	0.0
gR[10]		2009067	0.0
gP[25]		2009067	0.0
gR[25]		2009067	0.0
gP[50]		2009067	0.0
gR[50]		2009067	0.0
AgP		2009067	3.3221557441966083E-4
num_ret		2009073	1500
num_rel		2009073	14
num_rel_ret	2009073	14
ret_size	2009073	18543420
rel_size	2009073	13570
rel_ret_size	2009073	13570
gP[1]		2009073	0.0
gR[1]		2009073	0.0
gP[2]		2009073	0.0
gR[2]		2009073	0.0
gP[3]		2009073	0.0
gR[3]		2009073	0.07142857142857142
gP[5]		2009073	0.0
gR[5]		2009073	0.07142857142857142
gP[10]		2009073	0.0
gR[10]		2009073	0.07142857142857142
gP[25]		2009073	0.023739837398373983
gR[25]		2009073	0.21428571428571427
gP[50]		2009073	0.02778550753512981
gR[50]		2009073	0.35714285714285715
AgP		2009073	0.015176358292127877
num_ret		2009074	1500
num_rel		2009074	15
num_rel_ret	2009074	15
ret_size	2009074	16600990
rel_size	2009074	16321
rel_ret_size	2009074	16321
gP[1]		2009074	0.0
gR[1]		2009074	0.0
gP[2]		2009074	0.39788972089857044
gR[2]		2009074	0.06666666666666667
gP[3]		2009074	0.2652598139323803
gR[3]		2009074	0.06666666666666667
gP[5]		2009074	0.15915588835942818
gR[5]		2009074	0.06666666666666667
gP[10]		2009074	0.07957794417971409
gR[10]		2009074	0.06666666666666667
gP[25]		2009074	0.03183117767188563
gR[25]		2009074	0.13333333333333333
gP[50]		2009074	0.015915588835942816
gR[50]		2009074	0.13333333333333333
AgP		2009074	0.03169499169415174
num_ret		2009078	1500
num_rel		2009078	5
num_rel_ret	2009078	5
ret_size	2009078	15213957
rel_size	2009078	63818
rel_ret_size	2009078	63818
gP[1]		2009078	0.0
gR[1]		2009078	0.0
gP[2]		2009078	0.0
gR[2]		2009078	0.0
gP[3]		2009078	0.0
gR[3]		2009078	0.0
gP[5]		2009078	0.0
gR[5]		2009078	0.0
gP[10]		2009078	0.0
gR[10]		2009078	0.0
gP[25]		2009078	0.0
gR[25]		2009078	0.0
gP[50]		2009078	0.0
gR[50]		2009078	0.0
AgP		2009078	0.007074419257798688
num_ret		2009085	1500
num_rel		2009085	26
num_rel_ret	2009085	21
ret_size	2009085	21417954
rel_size	2009085	130447
rel_ret_size	2009085	97054
gP[1]		2009085	0.0
gR[1]		2009085	0.0
gP[2]		2009085	0.0
gR[2]		2009085	0.0
gP[3]		2009085	0.0
gR[3]		2009085	0.0
gP[5]		2009085	0.0
gR[5]		2009085	0.0
gP[10]		2009085	0.0
gR[10]		2009085	0.0
gP[25]		2009085	0.03689199689199689
gR[25]		2009085	0.038461538461538464
gP[50]		2009085	0.018445998445998445
gR[50]		2009085	0.038461538461538464
AgP		2009085	0.023509734075696984
num_q		all	7
num_ret		all	10500
num_rel		all	234
num_rel_ret	all	167
ret_size	all	142060221
rel_size	all	645658
rel_ret_size	all	580563
MAgP		all	0.015371997911799851
gP[1]		all	0.0
gR[1]		all	0.0
gP[2]		all	0.056841388699795777
gR[2]		all	0.009523809523809523
gP[3]		all	0.08548841874826273
gR[3]		all	0.02077831132452981
gP[5]		all	0.05129305124895763
gR[5]		all	0.02077831132452981
gP[10]		all	0.025646525624478816
gR[10]		all	0.027323236987102532
gP[25]		all	0.026865056599355223
gR[25]		all	0.07244590143749807
gP[50]		all	0.01733107088941722
gR[50]		all	0.1025502508695786
ircl_prn.0,00	all	0.11951772426256137
ircl_prn.0,10	all	0.026759454220733912
ircl_prn.0,20	all	0.02103761284952202
ircl_prn.0,30	all	0.018664140575381818
ircl_prn.0,40	all	0.015168992228596618
ircl_prn.0,50	all	0.011726797665829762
ircl_prn.0,60	all	0.011143655727789248
ircl_prn.0,70	all	0.005433864653141332
ircl_prn.0,80	all	0.004936367318395894
ircl_prn.0,90	all	0.002028310762123452
ircl_prn.1,00	all	0.0010357931930347418
</eval>
