<eval run-id="SLAR/ltn/default" file="runs9_fol/SouhailAdamLoicRoman_6_practice3_ltn_article_nostop_nostem.trec++">
num_ret		2009011	1500
num_rel		2009011	26
num_rel_ret	2009011	25
ret_size	2009011	18508140
rel_size	2009011	71154
rel_ret_size	2009011	70427
gP[1]		2009011	0.0
gR[1]		2009011	0.038461538461538464
gP[2]		2009011	0.0
gR[2]		2009011	0.038461538461538464
gP[3]		2009011	0.0
gR[3]		2009011	0.038461538461538464
gP[5]		2009011	0.0
gR[5]		2009011	0.07692307692307693
gP[10]		2009011	0.0
gR[10]		2009011	0.07692307692307693
gP[25]		2009011	0.0
gR[25]		2009011	0.15384615384615385
gP[50]		2009011	0.01997986270022883
gR[50]		2009011	0.34615384615384615
AgP		2009011	0.010658839750831059
num_ret		2009036	1500
num_rel		2009036	136
num_rel_ret	2009036	88
ret_size	2009036	9195307
rel_size	2009036	292336
rel_ret_size	2009036	279139
gP[1]		2009036	0.9994773519163763
gR[1]		2009036	0.007352941176470588
gP[2]		2009036	0.9995808168286685
gR[2]		2009036	0.014705882352941176
gP[3]		2009036	0.6663872112191124
gR[3]		2009036	0.022058823529411766
gP[5]		2009036	0.6219862997939832
gR[5]		2009036	0.03676470588235294
gP[10]		2009036	0.5664818809080544
gR[10]		2009036	0.07352941176470588
gP[25]		2009036	0.38542258904200494
gR[25]		2009036	0.13970588235294118
gP[50]		2009036	0.2752034699983381
gR[50]		2009036	0.19852941176470587
AgP		2009036	0.15236249829515736
num_ret		2009067	1500
num_rel		2009067	12
num_rel_ret	2009067	12
ret_size	2009067	17575239
rel_size	2009067	58012
rel_ret_size	2009067	58012
gP[1]		2009067	0.0
gR[1]		2009067	0.08333333333333333
gP[2]		2009067	0.0
gR[2]		2009067	0.08333333333333333
gP[3]		2009067	0.30399921775691796
gR[3]		2009067	0.16666666666666666
gP[5]		2009067	0.18239953065415077
gR[5]		2009067	0.25
gP[10]		2009067	0.09119976532707538
gR[10]		2009067	0.25
gP[25]		2009067	0.08847426527834638
gR[25]		2009067	0.5
gP[50]		2009067	0.08109128853838111
gR[50]		2009067	0.6666666666666666
AgP		2009067	0.10892095612884596
num_ret		2009073	1500
num_rel		2009073	14
num_rel_ret	2009073	14
ret_size	2009073	16691670
rel_size	2009073	13570
rel_ret_size	2009073	13570
gP[1]		2009073	0.0
gR[1]		2009073	0.0
gP[2]		2009073	0.2967479674796748
gR[2]		2009073	0.07142857142857142
gP[3]		2009073	0.1978319783197832
gR[3]		2009073	0.14285714285714285
gP[5]		2009073	0.2778550753512981
gR[5]		2009073	0.2857142857142857
gP[10]		2009073	0.13892753767564905
gR[10]		2009073	0.2857142857142857
gP[25]		2009073	0.05557101507025962
gR[25]		2009073	0.35714285714285715
gP[50]		2009073	0.02778550753512981
gR[50]		2009073	0.42857142857142855
AgP		2009073	0.08162620646492856
num_ret		2009074	1500
num_rel		2009074	15
num_rel_ret	2009074	15
ret_size	2009074	17172870
rel_size	2009074	16321
rel_ret_size	2009074	16321
gP[1]		2009074	0.7957794417971409
gR[1]		2009074	0.06666666666666667
gP[2]		2009074	0.39788972089857044
gR[2]		2009074	0.06666666666666667
gP[3]		2009074	0.2652598139323803
gR[3]		2009074	0.06666666666666667
gP[5]		2009074	0.15915588835942818
gR[5]		2009074	0.06666666666666667
gP[10]		2009074	0.07957794417971409
gR[10]		2009074	0.06666666666666667
gP[25]		2009074	0.03183117767188563
gR[25]		2009074	0.13333333333333333
gP[50]		2009074	0.015915588835942816
gR[50]		2009074	0.2
AgP		2009074	0.05854325485645466
num_ret		2009078	1500
num_rel		2009078	5
num_rel_ret	2009078	5
ret_size	2009078	16865836
rel_size	2009078	63818
rel_ret_size	2009078	63818
gP[1]		2009078	0.9701105908139882
gR[1]		2009078	0.2
gP[2]		2009078	0.4850552954069941
gR[2]		2009078	0.2
gP[3]		2009078	0.6538869462244614
gR[3]		2009078	0.4
gP[5]		2009078	0.5877589970029695
gR[5]		2009078	0.6
gP[10]		2009078	0.29387949850148476
gR[10]		2009078	0.6
gP[25]		2009078	0.15393188989833145
gR[25]		2009078	0.8
gP[50]		2009078	0.07696594494916573
gR[50]		2009078	0.8
AgP		2009078	0.5307249360449234
num_ret		2009085	1500
num_rel		2009085	26
num_rel_ret	2009085	21
ret_size	2009085	17690896
rel_size	2009085	130447
rel_ret_size	2009085	97054
gP[1]		2009085	0.9222999222999223
gR[1]		2009085	0.038461538461538464
gP[2]		2009085	0.46114996114996115
gR[2]		2009085	0.038461538461538464
gP[3]		2009085	0.30743330743330743
gR[3]		2009085	0.038461538461538464
gP[5]		2009085	0.5705934856116414
gR[5]		2009085	0.11538461538461539
gP[10]		2009085	0.2852967428058207
gR[10]		2009085	0.15384615384615385
gP[25]		2009085	0.2657855001444767
gR[25]		2009085	0.34615384615384615
gP[50]		2009085	0.15104773162205384
gR[50]		2009085	0.38461538461538464
AgP		2009085	0.17806251438419812
num_q		all	7
num_ret		all	10500
num_rel		all	234
num_rel_ret	all	180
ret_size	all	113699958
rel_size	all	645658
rel_ret_size	all	598341
MAgP		all	0.16012845798933414
gP[1]		all	0.5268096152610611
gR[1]		all	0.06203943115707822
gP[2]		all	0.3772033945376956
gR[2]		all	0.07329393295779851
gP[3]		all	0.3421140678408518
gR[3]		all	0.12502462523470928
gP[5]		all	0.342821325253353
gR[5]		all	0.2044933357958568
gP[10]		all	0.20790905277111404
gR[10]		all	0.21523994213069844
gP[25]		all	0.14014520530075783
gR[25]		all	0.34716886754701887
gP[50]		all	0.09256991345417719
gR[50]		all	0.43207667682457596
ircl_prn.0,00	all	0.6156148604290873
ircl_prn.0,10	all	0.3761342231653208
ircl_prn.0,20	all	0.30568759543329344
ircl_prn.0,30	all	0.22326622886607153
ircl_prn.0,40	all	0.1694091233034421
ircl_prn.0,50	all	0.15129746364055566
ircl_prn.0,60	all	0.13292368789570666
ircl_prn.0,70	all	0.05699585679320932
ircl_prn.0,80	all	0.05282507962990759
ircl_prn.0,90	all	0.018304024064799633
ircl_prn.1,00	all	0.009881107833785466
</eval>
