<eval run-id="SLAR/ltn" file="runs9_fol/SouhailAdamLoicRoman_2_practice5_ltn_articles_stop319_porter.trec++">
num_ret		2009011	1500
num_rel		2009011	26
num_rel_ret	2009011	25
ret_size	2009011	19430099
rel_size	2009011	71154
rel_ret_size	2009011	70427
gP[1]		2009011	0.0
gR[1]		2009011	0.038461538461538464
gP[2]		2009011	0.0
gR[2]		2009011	0.038461538461538464
gP[3]		2009011	0.0
gR[3]		2009011	0.038461538461538464
gP[5]		2009011	0.0
gR[5]		2009011	0.07692307692307693
gP[10]		2009011	0.0
gR[10]		2009011	0.07692307692307693
gP[25]		2009011	0.0
gR[25]		2009011	0.15384615384615385
gP[50]		2009011	0.0
gR[50]		2009011	0.23076923076923078
AgP		2009011	0.006152309415138723
num_ret		2009036	1500
num_rel		2009036	136
num_rel_ret	2009036	85
ret_size	2009036	12344749
rel_size	2009036	292336
rel_ret_size	2009036	277952
gP[1]		2009036	0.1501416430594901
gR[1]		2009036	0.007352941176470588
gP[2]		2009036	0.5749129624002254
gR[2]		2009036	0.014705882352941176
gP[3]		2009036	0.38327530826681694
gR[3]		2009036	0.014705882352941176
gP[5]		2009036	0.22996518496009016
gR[5]		2009036	0.022058823529411766
gP[10]		2009036	0.15735333649013333
gR[10]		2009036	0.03676470588235294
gP[25]		2009036	0.10292042867270838
gR[25]		2009036	0.04411764705882353
gP[50]		2009036	0.13292392917130608
gR[50]		2009036	0.09558823529411764
AgP		2009036	0.031592982550368784
num_ret		2009067	1500
num_rel		2009067	12
num_rel_ret	2009067	11
ret_size	2009067	19873102
rel_size	2009067	58012
rel_ret_size	2009067	56988
gP[1]		2009067	0.0
gR[1]		2009067	0.08333333333333333
gP[2]		2009067	0.0
gR[2]		2009067	0.08333333333333333
gP[3]		2009067	0.30399921775691796
gR[3]		2009067	0.16666666666666666
gP[5]		2009067	0.18239953065415077
gR[5]		2009067	0.3333333333333333
gP[10]		2009067	0.14094850904566836
gR[10]		2009067	0.4166666666666667
gP[25]		2009067	0.16218257707676226
gR[25]		2009067	0.6666666666666666
gP[50]		2009067	0.08109128853838113
gR[50]		2009067	0.6666666666666666
AgP		2009067	0.13612626815032855
num_ret		2009073	1500
num_rel		2009073	14
num_rel_ret	2009073	13
ret_size	2009073	18989358
rel_size	2009073	13570
rel_ret_size	2009073	12804
gP[1]		2009073	0.5934959349593496
gR[1]		2009073	0.07142857142857142
gP[2]		2009073	0.2967479674796748
gR[2]		2009073	0.07142857142857142
gP[3]		2009073	0.1978319783197832
gR[3]		2009073	0.14285714285714285
gP[5]		2009073	0.11869918699186992
gR[5]		2009073	0.21428571428571427
gP[10]		2009073	0.05934959349593496
gR[10]		2009073	0.2857142857142857
gP[25]		2009073	0.05557101507025962
gR[25]		2009073	0.42857142857142855
gP[50]		2009073	0.02778550753512981
gR[50]		2009073	0.42857142857142855
AgP		2009073	0.08987596172206365
num_ret		2009074	1500
num_rel		2009074	15
num_rel_ret	2009074	14
ret_size	2009074	18580847
rel_size	2009074	16321
rel_ret_size	2009074	16215
gP[1]		2009074	0.7957794417971409
gR[1]		2009074	0.06666666666666667
gP[2]		2009074	0.39788972089857044
gR[2]		2009074	0.13333333333333333
gP[3]		2009074	0.2652598139323803
gR[3]		2009074	0.13333333333333333
gP[5]		2009074	0.15915588835942818
gR[5]		2009074	0.13333333333333333
gP[10]		2009074	0.07957794417971409
gR[10]		2009074	0.13333333333333333
gP[25]		2009074	0.03183117767188563
gR[25]		2009074	0.2
gP[50]		2009074	0.015915588835942816
gR[50]		2009074	0.26666666666666666
AgP		2009074	0.08798118356946934
num_ret		2009078	1500
num_rel		2009078	5
num_rel_ret	2009078	5
ret_size	2009078	18271245
rel_size	2009078	63818
rel_ret_size	2009078	63818
gP[1]		2009078	0.9701105908139882
gR[1]		2009078	0.2
gP[2]		2009078	0.9808304193366921
gR[2]		2009078	0.4
gP[3]		2009078	0.6538869462244614
gR[3]		2009078	0.4
gP[5]		2009078	0.5877589970029695
gR[5]		2009078	0.6
gP[10]		2009078	0.38482972474582866
gR[10]		2009078	0.8
gP[25]		2009078	0.15393188989833145
gR[25]		2009078	0.8
gP[50]		2009078	0.07696594494916573
gR[50]		2009078	0.8
AgP		2009078	0.6279923315322267
num_ret		2009085	1500
num_rel		2009085	26
num_rel_ret	2009085	21
ret_size	2009085	22143673
rel_size	2009085	130447
rel_ret_size	2009085	97054
gP[1]		2009085	0.9222999222999223
gR[1]		2009085	0.038461538461538464
gP[2]		2009085	0.46114996114996115
gR[2]		2009085	0.038461538461538464
gP[3]		2009085	0.30743330743330743
gR[3]		2009085	0.038461538461538464
gP[5]		2009085	0.18445998445998446
gR[5]		2009085	0.07692307692307693
gP[10]		2009085	0.282419291322354
gR[10]		2009085	0.15384615384615385
gP[25]		2009085	0.189383910398333
gR[25]		2009085	0.23076923076923078
gP[50]		2009085	0.1521749608630028
gR[50]		2009085	0.34615384615384615
AgP		2009085	0.14225129535564807
num_q		all	7
num_ret		all	10500
num_rel		all	234
num_rel_ret	all	174
ret_size	all	129633073
rel_size	all	645658
rel_ret_size	all	595258
MAgP		all	0.1602817617564634
gP[1]		all	0.49026107613284164
gR[1]		all	0.07224351278973128
gP[2]		all	0.3873615758950177
gR[2]		all	0.1113891710530366
gP[3]		all	0.3016695102762382
gR[3]		all	0.13349801459045157
gP[5]		all	0.20891982463264183
gR[5]		all	0.2081224797611352
gP[10]		all	0.15778262846851906
gR[10]		all	0.2718926031951242
gP[25]		all	0.0994029998268972
gR[25]		all	0.3605673038446148
gP[50]		all	0.06955103141327548
gR[50]		all	0.40491658201742237
ircl_prn.0,00	all	0.5980819194125738
ircl_prn.0,10	all	0.32722376963090277
ircl_prn.0,20	all	0.23335822482056406
ircl_prn.0,30	all	0.22249575078552275
ircl_prn.0,40	all	0.21364468843008347
ircl_prn.0,50	all	0.15842440969369265
ircl_prn.0,60	all	0.14760122589459884
ircl_prn.0,70	all	0.08146479818241888
ircl_prn.0,80	all	0.07247637705895936
ircl_prn.0,90	all	0.010782337960052213
ircl_prn.1,00	all	0.003819045457974338
</eval>
